(module MountingHole_2.5mm_4mm_courtyard (layer F.Cu) (tedit 5C5B08F5)
  (descr "Mounting Hole 2.5mm, no annular")
  (tags "mounting hole 2.5mm no annular")
  (attr virtual)
  (fp_text reference REF** (at -8.85 -0.4) (layer F.Fab) hide
    (effects (font (size 1 1) (thickness 0.15)))
  )
  (fp_text value MountingHole_2.5mm_4mm_courtyard (at 0 3.5) (layer F.Fab) hide
    (effects (font (size 1 1) (thickness 0.15)))
  )
  (fp_text user %R (at 0.3 0) (layer F.Fab)
    (effects (font (size 1 1) (thickness 0.15)))
  )
  (fp_circle (center 0 0) (end 1.75 0) (layer Eco2.User) (width 0.15))
  (fp_circle (center 0 0) (end 2 0) (layer F.CrtYd) (width 0.05))
  (pad 1 np_thru_hole circle (at 0 0) (size 2.5 2.5) (drill 2.5) (layers *.Cu *.Mask))
)
