(module RJ45amphenolrjmg1bd3b8k1anr (layer F.Cu) (tedit 5C4CD985)
  (descr https://www.amphenol-icc.com/media/wysiwyg/files/drawing/rjmg1bd3b8k1anr.pdf)
  (tags "RJ45 8p8c ethernet cat5 vertical")
  (fp_text reference J1 (at 12.9 -7.6) (layer F.SilkS)
    (effects (font (size 1 1) (thickness 0.15)))
  )
  (fp_text value 8P8C (at 3.56 9.5) (layer F.Fab)
    (effects (font (size 1 1) (thickness 0.15)))
  )
  (fp_line (start 4.048 -8.04) (end 3.548 -7.54) (layer F.SilkS) (width 0.12))
  (fp_line (start 3.048 -8.04) (end 4.048 -8.04) (layer F.SilkS) (width 0.12))
  (fp_line (start 3.548 -7.54) (end 3.048 -8.04) (layer F.SilkS) (width 0.12))
  (fp_text user %R (at 3.56 -6) (layer F.Fab)
    (effects (font (size 1 1) (thickness 0.15)))
  )
  (fp_line (start 12.19 -8.5) (end 12.19 8.25) (layer F.CrtYd) (width 0.05))
  (fp_line (start -5.07 8.25) (end 12.19 8.25) (layer F.CrtYd) (width 0.05))
  (fp_line (start -5.07 -8.5) (end -5.07 8.25) (layer F.CrtYd) (width 0.05))
  (fp_line (start -5.07 -8.5) (end 12.19 -8.5) (layer F.CrtYd) (width 0.05))
  (fp_line (start -4.695 -7) (end -3.695 -8) (layer F.Fab) (width 0.1))
  (fp_line (start 11.88 7.815) (end 11.88 -8.065) (layer F.SilkS) (width 0.12))
  (fp_line (start -4.76 7.815) (end -4.76 -8.065) (layer F.SilkS) (width 0.12))
  (fp_line (start -4.76 7.815) (end 11.88 7.815) (layer F.SilkS) (width 0.12))
  (fp_line (start -4.76 -8.065) (end 11.88 -8.065) (layer F.SilkS) (width 0.12))
  (fp_line (start 11.815 -8) (end 11.815 7.75) (layer F.Fab) (width 0.1))
  (fp_line (start -3.695 -8) (end 11.815 -8) (layer F.Fab) (width 0.1))
  (fp_line (start -4.695 7.75) (end 11.815 7.75) (layer F.Fab) (width 0.1))
  (fp_line (start -4.695 -7) (end -4.695 7.75) (layer F.Fab) (width 0.1))
  (pad "" np_thru_hole circle (at 9.91 -2.54) (size 3.25 3.25) (drill 3.25) (layers *.Cu *.Mask))
  (pad "" np_thru_hole circle (at -2.79 -2.54) (size 3.25 3.25) (drill 3.25) (layers *.Cu *.Mask))
  (pad 8 thru_hole circle (at 7.14 1.78) (size 1.5 1.5) (drill 0.89) (layers *.Cu *.Mask))
  (pad 6 thru_hole circle (at 5.1 1.78) (size 1.5 1.5) (drill 0.89) (layers *.Cu *.Mask))
  (pad 4 thru_hole circle (at 3.06 1.78) (size 1.5 1.5) (drill 0.89) (layers *.Cu *.Mask))
  (pad 2 thru_hole circle (at 1.02 1.78) (size 1.5 1.5) (drill 0.89) (layers *.Cu *.Mask))
  (pad 7 thru_hole circle (at 6.12 0) (size 1.5 1.5) (drill 0.89) (layers *.Cu *.Mask))
  (pad 5 thru_hole circle (at 4.08 0) (size 1.5 1.5) (drill 0.89) (layers *.Cu *.Mask))
  (pad 3 thru_hole circle (at 2.04 0) (size 1.5 1.5) (drill 0.89) (layers *.Cu *.Mask))
  (pad 1 thru_hole rect (at 0 0) (size 1.5 1.5) (drill 0.89) (layers *.Cu *.Mask))
  (model ${KISYS3DMOD}/Connector_RJ.3dshapes/RJ45_Amphenol_RJHSE5380.wrl
    (at (xyz 0 0 0))
    (scale (xyz 1 1 1))
    (rotate (xyz 0 0 0))
  )
)
