<?xml version="1.0" encoding="UTF-8" standalone="no"?>
<svg
   xmlns:dc="http://purl.org/dc/elements/1.1/"
   xmlns:cc="http://creativecommons.org/ns#"
   xmlns:rdf="http://www.w3.org/1999/02/22-rdf-syntax-ns#"
   xmlns:svg="http://www.w3.org/2000/svg"
   xmlns="http://www.w3.org/2000/svg"
   xmlns:sodipodi="http://sodipodi.sourceforge.net/DTD/sodipodi-0.dtd"
   xmlns:inkscape="http://www.inkscape.org/namespaces/inkscape"
   width="210mm"
   height="297mm"
   viewBox="0 0 210 297"
   version="1.1"
   id="svg8"
   inkscape:version="1.0.2 (e86c870879, 2021-01-15)"
   sodipodi:docname="highlevelview3.svg">
  <defs
     id="defs2">
    <rect
       x="-22.841595"
       y="89.508261"
       width="25.50399"
       height="31.179328"
       id="rect2370" />
    <rect
       x="60.019996"
       y="30.545345"
       width="36.330798"
       height="17.368045"
       id="rect576" />
    <rect
       x="-12079.503"
       y="9248.424"
       width="2010.4118"
       height="1622.1171"
       id="rect254" />
    <rect
       x="86.902618"
       y="109.79004"
       width="43.640493"
       height="20.66116"
       id="rect32" />
    <rect
       x="60.019996"
       y="30.545345"
       width="36.330798"
       height="17.368045"
       id="rect584" />
    <rect
       x="60.019996"
       y="30.545345"
       width="36.330798"
       height="17.368045"
       id="rect588" />
    <rect
       x="60.019996"
       y="30.545345"
       width="36.330798"
       height="17.368045"
       id="rect592" />
    <rect
       x="-12079.503"
       y="9248.424"
       width="2010.4118"
       height="1622.1171"
       id="rect675" />
    <rect
       x="60.019996"
       y="30.545345"
       width="36.330798"
       height="17.368045"
       id="rect677" />
    <rect
       x="60.019996"
       y="30.545345"
       width="36.330798"
       height="17.368045"
       id="rect1647" />
    <rect
       x="60.019996"
       y="30.545345"
       width="53.753276"
       height="24.683075"
       id="rect1763" />
    <rect
       x="60.019996"
       y="30.545345"
       width="43.253444"
       height="16.760995"
       id="rect1771" />
    <style
       id="style1824">.cls-1{fill-rule:evenodd;}</style>
    <rect
       x="60.019996"
       y="30.545345"
       width="36.330798"
       height="17.368045"
       id="rect1863" />
    <rect
       x="60.019996"
       y="30.545345"
       width="36.330798"
       height="17.368045"
       id="rect1926" />
    <rect
       x="60.019996"
       y="30.545345"
       width="36.330798"
       height="17.368045"
       id="rect2162" />
    <rect
       x="60.019996"
       y="30.545345"
       width="36.330798"
       height="17.368045"
       id="rect2219" />
    <rect
       x="60.019996"
       y="30.545345"
       width="36.330798"
       height="17.368045"
       id="rect2408" />
    <rect
       x="86.902618"
       y="109.79004"
       width="92.022783"
       height="23.206939"
       id="rect2418" />
    <rect
       x="60.019997"
       y="30.545345"
       width="43.253445"
       height="16.760996"
       id="rect3076" />
    <rect
       x="60.019997"
       y="30.545345"
       width="43.253445"
       height="16.760996"
       id="rect1173" />
    <rect
       x="60.019997"
       y="30.545345"
       width="48.028522"
       height="16.760706"
       id="rect2897" />
    <rect
       x="60.019997"
       y="30.545345"
       width="48.028522"
       height="16.760706"
       id="rect1206" />
    <style
       id="style1259">.cls-1{fill:none;}</style>
    <rect
       x="60.019996"
       y="30.545345"
       width="51.294309"
       height="19.681523"
       id="rect1287" />
  </defs>
  <sodipodi:namedview
     id="base"
     pagecolor="#ffffff"
     bordercolor="#666666"
     borderopacity="1.0"
     inkscape:pageopacity="0.0"
     inkscape:pageshadow="2"
     inkscape:zoom="5.6"
     inkscape:cx="605.26345"
     inkscape:cy="679.47326"
     inkscape:document-units="mm"
     inkscape:current-layer="g1151"
     inkscape:document-rotation="0"
     showgrid="false"
     inkscape:window-width="2560"
     inkscape:window-height="1012"
     inkscape:window-x="0"
     inkscape:window-y="0"
     inkscape:window-maximized="1" />
  <metadata
     id="metadata5">
    <rdf:RDF>
      <cc:Work
         rdf:about="">
        <dc:format>image/svg+xml</dc:format>
        <dc:type
           rdf:resource="http://purl.org/dc/dcmitype/StillImage" />
        <dc:title />
      </cc:Work>
    </rdf:RDF>
  </metadata>
  <g
     inkscape:label="Layer 1"
     inkscape:groupmode="layer"
     id="layer1">
    <rect
       style="fill:#ffffff;fill-opacity:1;stroke:#000000;stroke-width:3.86293;stroke-opacity:1"
       id="rect2412"
       width="205.62965"
       height="268.45013"
       x="2.6094499"
       y="8.1926107"
       rx="12.213476"
       ry="8.6882524"
       inkscape:transform-center-x="-0.67363209"
       inkscape:transform-center-y="-14.455662" />
    <rect
       style="fill:#ffffff;fill-opacity:1;stroke:#000000;stroke-width:0.743259"
       id="rect28"
       width="59.200951"
       height="53.039375"
       x="74.957512"
       y="139.43552"
       rx="2.0013568"
       ry="1.1041193" />
    <text
       xml:space="preserve"
       id="text30"
       style="font-style:normal;font-variant:normal;font-weight:normal;font-stretch:normal;font-size:8.37001px;line-height:100%;font-family:Quicksand;-inkscape-font-specification:'Quicksand, Normal';font-variant-ligatures:normal;font-variant-caps:normal;font-variant-numeric:normal;font-feature-settings:normal;text-align:start;letter-spacing:0px;word-spacing:0px;writing-mode:lr-tb;white-space:pre;shape-inside:url(#rect32);fill:#000000;fill-opacity:1;stroke:none;"
       transform="matrix(1.2313433,0,0,1.2313433,-24.736085,26.129117)"><tspan
         x="86.902344"
         y="116.48507"><tspan>ESP32-S3</tspan></tspan></text>
    <g
       id="g1667"
       transform="translate(-22.37896,30.885557)">
      <g
         id="g166"
         transform="matrix(0.04464086,0,0,0.04464086,43.022424,37.259192)">
        <path
           d="m 316.373,144.021 h -0.698 V 32 c 0,-17.645 -14.355,-32 -32,-32 H 163.948 c -17.645,0 -32,14.355 -32,32 v 112.021 h -2.164 c -12.04,0 -21.836,9.803 -21.836,21.853 v 116.03 c 0,25.09 21.757,52.259 41.914,63.042 0.055,0.029 0.11,0.058 0.166,0.086 l 38.149,19.271 v 11.915 c 0,10.252 6.624,18.997 15.854,22.263 v 41.539 c 0,4.418 3.582,8 8,8 h 23.75 c 4.418,0 8,-3.582 8,-8 v -41.399 c 9.447,-3.148 16.272,-11.998 16.272,-22.404 V 364.01 l 37.566,-18.977 c 0.056,-0.028 0.111,-0.057 0.166,-0.086 20.337,-10.879 42.287,-38.075 42.287,-63.042 v -116.03 c 10e-4,-12.879 -12.489,-21.854 -23.699,-21.854 z m -96.342,288 v -32.167 h 7.75 v 32.167 z m 24.023,-55.802 c 0,4.21 -3.524,7.636 -7.857,7.636 h -24.162 c -4.332,0 -7.856,-3.425 -7.856,-7.636 v -7.947 h 39.876 v 7.947 z m 46.263,-45.423 -42.512,21.476 h -47.96 l -42.514,-21.475 c -15.775,-8.483 -33.383,-31.16 -33.383,-48.893 v -116.03 c 0,-3.227 2.618,-5.853 5.836,-5.853 h 139.164 c 4.418,0 8,-3.582 8,-8 0,-4.418 -3.582,-8 -8,-8 h -121 V 32 c 0,-8.822 7.178,-16 16,-16 h 15.396 v 79.917 c 0,4.418 3.582,8 8,8 4.418,0 8,-3.582 8,-8 V 16 h 20.177 v 79.917 c 0,4.418 3.582,8 8,8 4.418,0 8,-3.582 8,-8 V 16 h 19.99 v 79.917 c 0,4.418 3.582,8 8,8 4.418,0 8,-3.582 8,-8 V 16 h 16.164 c 8.822,0 16,7.178 16,16 v 112.03 c -4.339,0.091 -7.831,3.63 -7.831,7.991 0,4.418 3.582,8 8,8 h 16.529 c 3.599,0 7.7,3.118 7.7,5.853 v 116.03 c 0,17.619 -17.804,40.316 -33.756,48.892 z"
           id="path111" />
        <g
           id="g113" />
        <g
           id="g115" />
        <g
           id="g117" />
        <g
           id="g119" />
        <g
           id="g121" />
        <g
           id="g123" />
        <g
           id="g125" />
        <g
           id="g127" />
        <g
           id="g129" />
        <g
           id="g131" />
        <g
           id="g133" />
        <g
           id="g135" />
        <g
           id="g137" />
        <g
           id="g139" />
        <g
           id="g141" />
      </g>
      <text
         xml:space="preserve"
         id="text574"
         style="font-size:7.05556px;line-height:100%;font-family:Quicksand;-inkscape-font-specification:'Quicksand, Normal';letter-spacing:0px;word-spacing:0px;writing-mode:lr-tb;white-space:pre;shape-inside:url(#rect576);"
         transform="translate(-13.922132,-7.3072953)"><tspan
           x="60.019531"
           y="36.18937"><tspan
             style="shape-inside:url(#rect576)">USB</tspan></tspan></text>
    </g>
    <g
       id="g1912"
       transform="translate(0.79320583,30.885557)">
      <g
         transform="matrix(0.00328125,0,0,-0.00328125,74.400573,53.289561)"
         id="g230">
        <g
           id="g262"
           transform="matrix(0.62195758,0,0,0.62195758,863.75279,1769.4472)">
          <path
             d="M 4664.1,4995.4 C 3593.2,4848.3 2704.5,4063.3 2443.5,3033.8 c -78.7,-312.8 -97.4,-553.1 -84.9,-1172.4 8.3,-507.5 14.5,-582.1 62.1,-778.9 219.6,-921.8 874.2,-1638.5 1762.8,-1934.7 89.1,-29 176.1,-53.9 190.6,-53.9 22.8,0 29,53.9 29,265.1 v 267.2 l -169.9,64.2 c -457.8,174 -882.4,555.2 -1112.3,998.4 -72.5,140.8 -188.5,449.5 -188.5,503.3 0,12.4 49.7,-51.8 109.8,-142.9 281.7,-430.9 664.9,-747.8 1128.9,-934.2 95.3,-39.3 188.5,-68.3 203,-64.2 16.6,4.2 53.9,55.9 80.8,116 45.6,99.4 47.6,109.8 14.5,120.2 -323.1,101.5 -629.7,275.5 -867.9,493 -281.7,256.8 -532.3,679.4 -642.1,1079.2 -51.8,188.5 -55.9,238.2 -55.9,548.9 0,397.7 29,538.6 184.4,863.8 604.9,1278.1 2251.6,1621.9 3310.1,693.9 348,-304.5 602.8,-743.7 685.6,-1184.9 145,-756.1 -184.4,-1613.6 -805.8,-2106.6 -180.2,-142.9 -449.5,-292.1 -633.9,-348 L 5525.8,289 5579.7,173 c 29,-64.2 53.8,-118.1 55.9,-122.2 8.3,-12.4 240.3,78.7 383.2,151.2 393.6,198.9 698.1,472.3 954.9,859.6 116,171.9 118.1,149.1 16.6,-132.6 C 6795.6,390.4 6321.2,-98.4 5801.3,-297.3 L 5646,-357.2 V -630.6 -904 l 107.7,33.1 c 824.4,244.5 1501.8,901.1 1766.9,1715.2 111.9,343.9 124.3,466.1 124.3,1180.7 0,613.2 -4.2,679.4 -47.6,880.4 -120.1,548.9 -381.1,1008.8 -793.3,1396.1 -362.5,339.7 -791.3,561.4 -1292.6,664.9 -198.9,41.4 -650.5,58 -847.3,29 z"
             id="path224" />
          <path
             d="m 4836,206.3 c -37.3,-24.9 -91.1,-78.7 -116,-116 l -47.6,-70.4 v -1269.8 c 0,-1628.1 37.3,-1559.8 -470.2,-890.7 -111.9,147.1 -227.9,285.9 -256.9,308.6 -31.1,22.8 -97.4,45.6 -149.1,49.7 -203,22.8 -387.4,-142.9 -387.4,-348 0,-109.8 -6.2,-97.4 488.9,-857.6 194.7,-296.2 441.2,-677.4 548.9,-847.2 281.7,-447.4 455.7,-623.5 776.8,-785.1 273.4,-136.7 416.4,-169.9 754,-169.9 256.9,0 323.1,6.2 455.7,47.6 604.9,190.6 1021.2,627.6 1162.1,1215.9 37.3,157.4 41.4,252.7 43.5,930.1 2.1,714.6 0,756.1 -37.3,822.4 -120.2,205.1 -399.8,238.2 -561.4,66.3 -89.1,-93.2 -130.5,-82.9 -161.6,41.4 -45.6,182.3 -167.8,283.8 -337.6,283.8 -128.4,0 -219.6,-45.6 -294.1,-149.2 -76.6,-105.6 -111.9,-111.8 -120.1,-26.9 -10.4,118.1 -26.9,157.4 -97.4,236.2 -126.4,140.9 -327.3,157.4 -476.4,39.3 -68.4,-53.8 -132.6,-188.5 -134.6,-279.6 0,-37.3 -8.3,-68.3 -20.7,-68.3 -12.4,0 -20.7,279.6 -22.8,793.3 -2.1,801.6 -6.2,855.5 -80.8,959.1 -95.4,132.6 -323.2,176.1 -457.9,85 z"
             id="path228" />
          <text
             xml:space="preserve"
             style="font-size:4121.32px;line-height:100%;font-family:Quicksand;-inkscape-font-specification:'Quicksand, Normal';letter-spacing:0px;word-spacing:0px;writing-mode:lr-tb;stroke-width:309.099"
             x="4450.3867"
             y="-999.47424"
             id="text250"
             transform="scale(1,-1)"><tspan
               sodipodi:role="line"
               id="tspan248"
               x="4450.3867"
               y="-999.47424"
               style="font-weight:bold;font-size:4121.32px;stroke-width:309.099">!</tspan></text>
        </g>
        <text
           xml:space="preserve"
           id="text252"
           style="font-size:430.053px;line-height:100%;font-family:Quicksand;-inkscape-font-specification:'Quicksand, Normal';letter-spacing:0px;word-spacing:0px;writing-mode:lr-tb;white-space:pre;shape-inside:url(#rect254);" />
      </g>
      <text
         xml:space="preserve"
         id="text582"
         style="font-size:7.05556px;line-height:100%;font-family:Quicksand;-inkscape-font-specification:'Quicksand, Normal';letter-spacing:0px;word-spacing:0px;writing-mode:lr-tb;white-space:pre;shape-inside:url(#rect584);"
         transform="translate(19.199455,-7.5188264)"><tspan
           x="60.019531"
           y="36.18937"><tspan
             style="shape-inside:url(#rect584)">reset</tspan></tspan></text>
    </g>
    <g
       id="g1871"
       transform="translate(6.1436738,30.885557)">
      <g
         id="g406"
         transform="matrix(0.02414307,-0.02414307,0.02414307,0.02414307,129.7857,46.18935)">
        <path
           d="m 285.51,284.12 8.26,0.44 c 6.18,0.38 12.22,-1.91 16.58,-6.29 l 45.99,-46.01 -76.65,-76.67 -46.01,46.01 c -4.38,4.36 -6.69,10.38 -6.31,16.54 l 0.44,8.24 57.72,57.72 z m -36.5,24.8 -45.99,-45.97 -153.32,153.3 c -8.47,8.45 -8.47,22.19 0,30.64 l 15.33,15.35 c 8.47,8.47 22.19,8.47 30.66,0 z m -45.99,-137.97 45.99,-45.97 c 16.92,-16.94 44.38,-16.94 61.32,0 h 0.02 L 387,201.63 c 16.92,16.94 16.92,44.38 0,61.32 l -45.97,45.97 c -13.09,13.11 -31.13,20.01 -49.61,18.97 L 126.37,492.88 c -25.41,25.41 -66.57,25.41 -91.98,0 L 19.06,477.57 C -6.35,452.18 -6.35,411 19.06,385.59 L 184.09,220.56 c -1.06,-18.49 5.84,-36.55 18.95,-49.63 z m 183.98,0 c -8.47,-8.47 -8.47,-22.19 0,-30.66 L 432.99,94.3 c 8.32,-8.62 22.06,-8.85 30.66,-0.53 8.62,8.32 8.85,22.04 0.55,30.66 l -0.55,0.53 -45.99,45.99 c -8.45,8.47 -22.19,8.49 -30.66,0.02 z m 40.38,36.29 c -3.09,-11.56 3.77,-23.46 15.33,-26.55 l 41.9,-11.24 c 11.54,-3.13 23.46,3.66 26.62,15.22 3.15,11.56 -3.66,23.48 -15.22,26.62 l -0.19,0.06 -41.86,11.22 c -11.59,3.11 -23.47,-3.75 -26.58,-15.33 z m -86.37,-82.28 c -8.47,-8.47 -8.47,-22.19 0,-30.66 L 387,48.31 c 8.45,-8.47 22.19,-8.47 30.66,0 8.47,8.47 8.47,22.19 0,30.66 l -45.99,45.99 c -8.47,8.47 -22.19,8.47 -30.66,0 z M 304.72,84.58 C 293.16,81.49 286.3,69.61 289.39,58.03 h 0.02 l 11.2,-41.88 C 303.7,4.56 315.6,-2.3 327.16,0.81 338.74,3.9 345.6,15.8 342.49,27.36 l -11.2,41.88 c -3.11,11.58 -14.99,18.44 -26.55,15.35 z"
           id="path404" />
      </g>
      <text
         xml:space="preserve"
         id="text586"
         style="font-size:7.05556px;line-height:100%;font-family:Quicksand;-inkscape-font-specification:'Quicksand, Normal';text-align:center;letter-spacing:0px;word-spacing:0px;writing-mode:lr-tb;white-space:pre;shape-inside:url(#rect588);"
         transform="translate(63.798951,-10.83494)"
         x="5.9160819"
         y="0"><tspan
           x="74.940002"
           y="36.18937"><tspan
             style="shape-inside:url(#rect588)">IR
</tspan></tspan><tspan
           x="71.768521"
           y="43.244931"><tspan
             style="shape-inside:url(#rect588)">LED</tspan></tspan></text>
    </g>
    <g
       id="g648"
       transform="translate(39.548009,20.261118)">
      <g
         id="g572"
         transform="matrix(0.04062497,0,0,0.04062497,130.27599,47.883624)">
        <g
           id="g506">
          <g
             id="g504">
            <path
               d="M 369.582,123.428 H 122.726 C 55.053,123.428 0,178.476 0,246.149 0,313.822 55.053,368.88 122.726,368.88 h 246.856 c 67.673,0 122.726,-55.058 122.726,-122.731 0,-67.673 -55.053,-122.721 -122.726,-122.721 z m 0,225.76 H 122.726 c -56.813,0 -103.034,-46.221 -103.034,-103.039 0,-56.808 46.221,-103.029 103.034,-103.029 h 246.856 c 56.813,0 103.034,46.221 103.034,103.029 -10e-4,56.817 -46.222,103.039 -103.034,103.039 z"
               id="path502" />
          </g>
        </g>
        <g
           id="g512">
          <g
             id="g510">
            <path
               d="m 122.913,173.188 c -40.236,0 -72.971,32.731 -72.971,72.962 0,40.24 32.736,72.971 72.971,72.971 40.236,0 72.971,-32.731 72.971,-72.971 0.001,-40.232 -32.735,-72.962 -72.971,-72.962 z m 0,126.24 c -29.38,0 -53.279,-23.904 -53.279,-53.279 0,-29.375 23.899,-53.269 53.279,-53.269 29.38,0 53.279,23.894 53.279,53.269 0,29.375 -23.899,53.279 -53.279,53.279 z"
               id="path508" />
          </g>
        </g>
        <g
           id="g514" />
        <g
           id="g516" />
        <g
           id="g518" />
        <g
           id="g520" />
        <g
           id="g522" />
        <g
           id="g524" />
        <g
           id="g526" />
        <g
           id="g528" />
        <g
           id="g530" />
        <g
           id="g532" />
        <g
           id="g534" />
        <g
           id="g536" />
        <g
           id="g538" />
        <g
           id="g540" />
        <g
           id="g542" />
      </g>
      <text
         xml:space="preserve"
         id="text590"
         style="font-size:7.05556px;line-height:100%;font-family:Quicksand;-inkscape-font-specification:'Quicksand, Normal';letter-spacing:0px;word-spacing:0px;writing-mode:lr-tb;white-space:pre;shape-inside:url(#rect592);"
         transform="translate(69.57435,3.211439)"><tspan
           x="60.019531"
           y="36.18937"><tspan
             style="shape-inside:url(#rect592)">on/off</tspan></tspan></text>
    </g>
    <g
       id="g719"
       transform="translate(-12.700001,30.691669)">
      <path
         d="m 81.619042,65.880736 c -2.185492,0.300201 -3.999151,1.902229 -4.5318,4.003233 -0.160611,0.638362 -0.198774,1.128766 -0.173264,2.392634 0.01694,1.035706 0.02959,1.18795 0.126734,1.589579 0.448159,1.881209 1.784067,3.343851 3.597522,3.948336 0.181835,0.05918 0.359385,0.109999 0.388976,0.109999 0.04653,0 0.05918,-0.109999 0.05918,-0.541016 V 76.838199 L 80.739662,76.70718 C 79.805383,76.35208 78.93886,75.574128 78.46968,74.669645 78.321722,74.3823 78.084989,73.752305 78.084989,73.64251 c 0,-0.02531 0.101428,0.105714 0.22408,0.291631 0.574893,0.87938 1.356928,1.52611 2.303859,1.906515 0.194488,0.0802 0.384691,0.139387 0.414282,0.131019 0.03388,-0.0086 0.109999,-0.11408 0.164897,-0.236732 0.09306,-0.202856 0.09714,-0.22408 0.02959,-0.245305 -0.659383,-0.207141 -1.285092,-0.56224 -1.771211,-1.006114 -0.574893,-0.524077 -1.086318,-1.38652 -1.310397,-2.202431 -0.105714,-0.384691 -0.114081,-0.486119 -0.114081,-1.120195 0,-0.811627 0.05918,-1.099175 0.376323,-1.762844 1.23448,-2.608346 4.595066,-3.309973 6.755252,-1.416111 0.710199,0.621424 1.230195,1.517743 1.399173,2.418144 0.295916,1.543049 -0.376324,3.293035 -1.644477,4.29915 -0.367752,0.29163 -0.917339,0.596117 -1.293663,0.710198 l -0.241018,0.07612 0.109999,0.236733 c 0.05918,0.131019 0.109795,0.241018 0.11408,0.249385 0.01694,0.02531 0.490405,-0.160611 0.782035,-0.308569 0.803259,-0.405915 1.424683,-0.963869 1.94876,-1.754271 0.236733,-0.350814 0.241018,-0.304284 0.03388,0.27061 -0.397344,1.099175 -1.365499,2.096718 -2.426511,2.502633 l -0.316936,0.122244 v 0.557954 0.557955 l 0.219794,-0.06755 c 1.682435,-0.498976 3.064873,-1.838965 3.605889,-3.50038 0.228366,-0.701832 0.253672,-0.951217 0.253672,-2.409573 0,-1.251419 -0.0086,-1.38652 -0.09714,-1.79672 -0.2451,-1.120195 -0.777749,-2.058759 -1.618967,-2.849161 -0.73979,-0.69326 -1.614885,-1.145705 -2.637938,-1.356928 -0.405915,-0.08449 -1.32754,-0.118367 -1.72917,-0.05918 z"
         id="path655"
         style="stroke-width:0.0020408" />
      <path
         d="m 81.969856,75.654331 c -0.07612,0.05082 -0.185917,0.160611 -0.236733,0.236733 l -0.09714,0.143672 v 2.591408 c 0,3.322626 0.07612,3.18324 -0.959584,1.81774 -0.228366,-0.300201 -0.465099,-0.583464 -0.524282,-0.62979 -0.06347,-0.04653 -0.198774,-0.09306 -0.304283,-0.101428 -0.414282,-0.04653 -0.790606,0.29163 -0.790606,0.710198 0,0.22408 -0.01265,0.198774 0.997747,1.75019 0.397344,0.604485 0.900401,1.382438 1.120195,1.728966 0.574894,0.913054 0.929993,1.272439 1.585294,1.602232 0.557954,0.278978 0.849789,0.346732 1.538763,0.346732 0.524281,0 0.659382,-0.01265 0.929992,-0.09714 1.23448,-0.388976 2.084065,-1.280806 2.371614,-2.481409 0.07612,-0.321222 0.08449,-0.51571 0.08877,-1.898148 0.0043,-1.458355 0,-1.543049 -0.07612,-1.678354 -0.245304,-0.418568 -0.815912,-0.486118 -1.145705,-0.135305 -0.181835,0.190203 -0.266324,0.169183 -0.329793,-0.08449 -0.09306,-0.372038 -0.342447,-0.579179 -0.688974,-0.579179 -0.262039,0 -0.44816,0.09306 -0.6002,0.304487 -0.156325,0.215509 -0.228365,0.228162 -0.2451,0.0549 -0.02122,-0.241019 -0.0549,-0.321222 -0.198774,-0.482037 -0.257957,-0.287549 -0.667953,-0.321222 -0.972237,-0.0802 -0.13959,0.109795 -0.27061,0.38469 -0.274691,0.570607 0,0.07612 -0.01694,0.139387 -0.04225,0.139387 -0.02531,0 -0.04224,-0.570608 -0.04653,-1.618967 -0.0043,-1.635905 -0.01265,-1.745904 -0.164897,-1.957331 -0.194692,-0.27061 -0.659586,-0.359385 -0.934482,-0.173468 z"
         id="path657"
         style="stroke-width:0.0020408" />
      <text
         xml:space="preserve"
         style="font-size:8.41079px;line-height:100%;font-family:Quicksand;-inkscape-font-specification:'Quicksand, Normal';letter-spacing:0px;word-spacing:0px;writing-mode:lr-tb;stroke-width:0.630809"
         x="80.53894"
         y="74.035622"
         id="text661"><tspan
           sodipodi:role="line"
           id="tspan659"
           x="80.53894"
           y="74.035622"
           style="font-weight:bold;font-size:8.41079px;stroke-width:0.630809">1</tspan></text>
    </g>
    <text
       xml:space="preserve"
       id="text667"
       style="font-size:430.053px;line-height:100%;font-family:Quicksand;-inkscape-font-specification:'Quicksand, Normal';letter-spacing:0px;word-spacing:0px;writing-mode:lr-tb;white-space:pre;shape-inside:url(#rect675);"
       transform="matrix(0.00328125,0,0,-0.00328125,67.14969,112.57302)" />
    <g
       id="g725"
       transform="translate(0.52914303,30.691669)">
      <path
         d="m 102.78571,65.880736 c -2.18549,0.300201 -3.999151,1.902229 -4.5318,4.003233 -0.160611,0.638362 -0.198774,1.128766 -0.173264,2.392634 0.01694,1.035706 0.02959,1.18795 0.126734,1.589579 0.448159,1.881209 1.784067,3.343851 3.59752,3.948336 0.18184,0.05918 0.35939,0.109999 0.38898,0.109999 0.0465,0 0.0592,-0.109999 0.0592,-0.541016 v -0.545302 l -0.34673,-0.131019 c -0.93428,-0.3551 -1.8008,-1.133052 -2.269982,-2.037535 -0.147958,-0.287345 -0.384691,-0.91734 -0.384691,-1.027135 0,-0.02531 0.101428,0.105714 0.22408,0.291631 0.574893,0.87938 1.356923,1.52611 2.303863,1.906515 0.19448,0.0802 0.38469,0.139387 0.41428,0.131019 0.0339,-0.0086 0.11,-0.11408 0.16489,-0.236732 0.0931,-0.202856 0.0971,-0.22408 0.0296,-0.245305 -0.65938,-0.207141 -1.28509,-0.56224 -1.77121,-1.006114 -0.57489,-0.524077 -1.086314,-1.38652 -1.310393,-2.202431 -0.105714,-0.384691 -0.114081,-0.486119 -0.114081,-1.120195 0,-0.811627 0.05918,-1.099175 0.376323,-1.762844 1.234481,-2.608346 4.595061,-3.309973 6.755251,-1.416111 0.7102,0.621424 1.2302,1.517743 1.39918,2.418144 0.29591,1.543049 -0.37633,3.293035 -1.64448,4.29915 -0.36775,0.29163 -0.91734,0.596117 -1.29367,0.710198 l -0.24101,0.07612 0.10999,0.236733 c 0.0592,0.131019 0.1098,0.241018 0.11408,0.249385 0.0169,0.02531 0.49041,-0.160611 0.78204,-0.308569 0.80326,-0.405915 1.42469,-0.963869 1.94876,-1.754271 0.23674,-0.350814 0.24102,-0.304284 0.0339,0.27061 -0.39734,1.099175 -1.3655,2.096718 -2.42651,2.502633 l -0.31694,0.122244 v 0.557954 0.557955 l 0.2198,-0.06755 c 1.68243,-0.498976 3.06487,-1.838965 3.60589,-3.50038 0.22836,-0.701832 0.25367,-0.951217 0.25367,-2.409573 0,-1.251419 -0.009,-1.38652 -0.0971,-1.79672 -0.2451,-1.120195 -0.77775,-2.058759 -1.61897,-2.849161 -0.73979,-0.69326 -1.61488,-1.145705 -2.63794,-1.356928 -0.40591,-0.08449 -1.32754,-0.118367 -1.72917,-0.05918 z"
         id="path699"
         style="stroke-width:0.0020408" />
      <path
         d="m 103.13652,75.654331 c -0.0761,0.05082 -0.18591,0.160611 -0.23673,0.236733 l -0.0971,0.143672 v 2.591408 c 0,3.322626 0.0761,3.18324 -0.95958,1.81774 -0.22837,-0.300201 -0.4651,-0.583464 -0.52429,-0.62979 -0.0635,-0.04653 -0.19877,-0.09306 -0.30428,-0.101428 -0.41428,-0.04653 -0.7906,0.29163 -0.7906,0.710198 0,0.22408 -0.0126,0.198774 0.99774,1.75019 0.39735,0.604485 0.9004,1.382438 1.1202,1.728966 0.57489,0.913054 0.92999,1.272439 1.58529,1.602232 0.55796,0.278978 0.84979,0.346732 1.53877,0.346732 0.52428,0 0.65938,-0.01265 0.92999,-0.09714 1.23448,-0.388976 2.08406,-1.280806 2.37161,-2.481409 0.0761,-0.321222 0.0845,-0.51571 0.0888,-1.898148 0.004,-1.458355 0,-1.543049 -0.0761,-1.678354 -0.2453,-0.418568 -0.81591,-0.486118 -1.1457,-0.135305 -0.18184,0.190203 -0.26633,0.169183 -0.32979,-0.08449 -0.0931,-0.372038 -0.34245,-0.579179 -0.68898,-0.579179 -0.26204,0 -0.44816,0.09306 -0.6002,0.304487 -0.15632,0.215509 -0.22836,0.228162 -0.2451,0.0549 -0.0212,-0.241019 -0.0549,-0.321222 -0.19877,-0.482037 -0.25796,-0.287549 -0.66796,-0.321222 -0.97224,-0.0802 -0.13959,0.109795 -0.27061,0.38469 -0.27469,0.570607 0,0.07612 -0.0169,0.139387 -0.0422,0.139387 -0.0253,0 -0.0422,-0.570608 -0.0465,-1.618967 -0.004,-1.635905 -0.0127,-1.745904 -0.1649,-1.957331 -0.19469,-0.27061 -0.65959,-0.359385 -0.93448,-0.173468 z"
         id="path701"
         style="stroke-width:0.0020408" />
      <text
         xml:space="preserve"
         style="font-size:8.41079px;line-height:100%;font-family:Quicksand;-inkscape-font-specification:'Quicksand, Normal';letter-spacing:0px;word-spacing:0px;writing-mode:lr-tb;stroke-width:0.630809"
         x="101.27093"
         y="74.035622"
         id="text705"><tspan
           sodipodi:role="line"
           id="tspan703"
           x="101.27093"
           y="74.035622"
           style="font-weight:bold;font-size:8.41079px;stroke-width:0.630809">2</tspan></text>
    </g>
    <g
       id="g731"
       transform="translate(8.4666659,30.691669)">
      <path
         d="m 129.24406,65.880736 c -2.18549,0.300201 -3.99915,1.902229 -4.5318,4.003233 -0.16061,0.638362 -0.19878,1.128766 -0.17327,2.392634 0.0169,1.035706 0.0296,1.18795 0.12674,1.589579 0.44816,1.881209 1.78406,3.343851 3.59752,3.948336 0.18184,0.05918 0.35939,0.109999 0.38898,0.109999 0.0465,0 0.0592,-0.109999 0.0592,-0.541016 V 76.838199 L 128.3647,76.70718 c -0.93428,-0.3551 -1.8008,-1.133052 -2.26999,-2.037535 -0.14795,-0.287345 -0.38469,-0.91734 -0.38469,-1.027135 0,-0.02531 0.10143,0.105714 0.22408,0.291631 0.5749,0.87938 1.35693,1.52611 2.30387,1.906515 0.19448,0.0802 0.38469,0.139387 0.41428,0.131019 0.0339,-0.0086 0.11,-0.11408 0.16489,-0.236732 0.0931,-0.202856 0.0971,-0.22408 0.0296,-0.245305 -0.65938,-0.207141 -1.28509,-0.56224 -1.77121,-1.006114 -0.57489,-0.524077 -1.08632,-1.38652 -1.3104,-2.202431 -0.10571,-0.384691 -0.11408,-0.486119 -0.11408,-1.120195 0,-0.811627 0.0592,-1.099175 0.37633,-1.762844 1.23448,-2.608346 4.59506,-3.309973 6.75525,-1.416111 0.7102,0.621424 1.2302,1.517743 1.39918,2.418144 0.29591,1.543049 -0.37633,3.293035 -1.64448,4.29915 -0.36775,0.29163 -0.91734,0.596117 -1.29367,0.710198 l -0.24101,0.07612 0.10999,0.236733 c 0.0592,0.131019 0.1098,0.241018 0.11408,0.249385 0.0169,0.02531 0.49041,-0.160611 0.78204,-0.308569 0.80326,-0.405915 1.42469,-0.963869 1.94876,-1.754271 0.23674,-0.350814 0.24102,-0.304284 0.0339,0.27061 -0.39734,1.099175 -1.3655,2.096718 -2.42651,2.502633 l -0.31694,0.122244 v 0.557954 0.557955 l 0.2198,-0.06755 c 1.68243,-0.498976 3.06487,-1.838965 3.60589,-3.50038 0.22836,-0.701832 0.25367,-0.951217 0.25367,-2.409573 0,-1.251419 -0.009,-1.38652 -0.0971,-1.79672 -0.2451,-1.120195 -0.77775,-2.058759 -1.61897,-2.849161 -0.73979,-0.69326 -1.61488,-1.145705 -2.63794,-1.356928 -0.40591,-0.08449 -1.32754,-0.118367 -1.72917,-0.05918 z"
         id="path707"
         style="stroke-width:0.0020408" />
      <path
         d="m 129.59487,75.654331 c -0.0761,0.05082 -0.18591,0.160611 -0.23673,0.236733 l -0.0971,0.143672 v 2.591408 c 0,3.322626 0.0761,3.18324 -0.95958,1.81774 -0.22837,-0.300201 -0.4651,-0.583464 -0.52429,-0.62979 -0.0635,-0.04653 -0.19877,-0.09306 -0.30428,-0.101428 -0.41428,-0.04653 -0.7906,0.29163 -0.7906,0.710198 0,0.22408 -0.0126,0.198774 0.99774,1.75019 0.39735,0.604485 0.9004,1.382438 1.1202,1.728966 0.57489,0.913054 0.92999,1.272439 1.58529,1.602232 0.55796,0.278978 0.84979,0.346732 1.53877,0.346732 0.52428,0 0.65938,-0.01265 0.92999,-0.09714 1.23448,-0.388976 2.08406,-1.280806 2.37161,-2.481409 0.0761,-0.321222 0.0845,-0.51571 0.0888,-1.898148 0.004,-1.458355 0,-1.543049 -0.0761,-1.678354 -0.2453,-0.418568 -0.81591,-0.486118 -1.1457,-0.135305 -0.18184,0.190203 -0.26633,0.169183 -0.32979,-0.08449 -0.0931,-0.372038 -0.34245,-0.579179 -0.68898,-0.579179 -0.26204,0 -0.44816,0.09306 -0.6002,0.304487 -0.15632,0.215509 -0.22836,0.228162 -0.2451,0.0549 -0.0212,-0.241019 -0.0549,-0.321222 -0.19877,-0.482037 -0.25796,-0.287549 -0.66796,-0.321222 -0.97224,-0.0802 -0.13959,0.109795 -0.27061,0.38469 -0.27469,0.570607 0,0.07612 -0.0169,0.139387 -0.0422,0.139387 -0.0253,0 -0.0422,-0.570608 -0.0465,-1.618967 -0.004,-1.635905 -0.0127,-1.745904 -0.1649,-1.957331 -0.19469,-0.27061 -0.65959,-0.359385 -0.93448,-0.173468 z"
         id="path709"
         style="stroke-width:0.0020408" />
      <text
         xml:space="preserve"
         style="font-size:8.41079px;line-height:100%;font-family:Quicksand;-inkscape-font-specification:'Quicksand, Normal';letter-spacing:0px;word-spacing:0px;writing-mode:lr-tb;stroke-width:0.630809"
         x="127.8332"
         y="74.035622"
         id="text713"><tspan
           sodipodi:role="line"
           id="tspan711"
           x="127.8332"
           y="74.035622"
           style="font-weight:bold;font-size:8.41079px;stroke-width:0.630809">3</tspan></text>
    </g>
    <path
       style="fill:none;stroke:#000000;stroke-width:0.75;stroke-linecap:butt;stroke-linejoin:miter;stroke-opacity:1"
       d="M 77.549424,139.31984 C 53.945382,134.41216 58.986643,100.12798 58.723378,88.542242"
       id="path733"
       sodipodi:nodetypes="cc" />
    <path
       style="fill:none;stroke:#000000;stroke-width:0.75;stroke-linecap:butt;stroke-linejoin:miter;stroke-opacity:1"
       d="M 84.37041,139.33166 C 82.444672,118.50604 71.718891,127.82155 71.658391,117.11182"
       id="path1558"
       sodipodi:nodetypes="cc" />
    <path
       style="fill:none;stroke:#000000;stroke-width:0.75;stroke-linecap:butt;stroke-linejoin:miter;stroke-opacity:1"
       d="M 92.982814,139.76207 C 92.921574,88.430078 90.017072,139.93555 90.10418,88.718439"
       id="path1560"
       sodipodi:nodetypes="cc" />
    <path
       style="fill:none;stroke:#000000;stroke-width:0.75;stroke-linecap:butt;stroke-linejoin:miter;stroke-opacity:1"
       d="m 101.64663,139.06928 c 0.2707,-21.45026 3.30942,-5.21541 4.46367,-22.02684"
       id="path1562"
       sodipodi:nodetypes="cc" />
    <path
       style="fill:none;stroke:#000000;stroke-width:0.75;stroke-linecap:butt;stroke-linejoin:miter;stroke-opacity:1"
       d="m 112.42629,139.77751 c 0.21205,-51.52156 7.58284,0.1966 6.69743,-50.658337"
       id="path1564"
       sodipodi:nodetypes="cc" />
    <path
       style="fill:none;stroke:#000000;stroke-width:0.75;stroke-linecap:butt;stroke-linejoin:miter;stroke-opacity:1"
       d="m 126.62244,139.24538 c 0.25236,-9.15989 13.71032,-12.28576 13.8183,-22.2073"
       id="path1566"
       sodipodi:nodetypes="cc" />
    <path
       style="fill:none;stroke:#000000;stroke-width:0.75;stroke-linecap:butt;stroke-linejoin:miter;stroke-opacity:1"
       d="m 134.16749,142.01129 c 15.51598,-6.30898 47.08948,-24.33469 46.84865,-58.16984"
       id="path1568"
       sodipodi:nodetypes="cc" />
    <g
       id="g1918"
       transform="translate(-3.3778195,26.458333)">
      <text
         xml:space="preserve"
         id="text1645"
         style="font-size:7.05556px;line-height:100%;font-family:Quicksand;-inkscape-font-specification:'Quicksand, Normal';letter-spacing:0px;word-spacing:0px;writing-mode:lr-tb;white-space:pre;shape-inside:url(#rect1647);"
         transform="translate(-40.123447,82.318841)"><tspan
           x="60.019531"
           y="36.18937"><tspan
             style="shape-inside:url(#rect1647)">vibration</tspan></tspan></text>
      <g
         transform="matrix(0.0019843,0,0,-0.0019843,16.683328,133.83996)"
         id="g2002">
        <g
           id="g2030"
           transform="matrix(1.5813929,-0.50952465,0.50952465,1.5813929,-2599.7269,2196.8533)">
          <path
             d="m 7343,3136.1 c -96.9,-74 -104.6,-260.2 -12.8,-316.3 17.9,-12.8 262.8,-119.9 540.9,-239.8 l 507.7,-219.4 -5.1,-576.6 c -5.1,-568.9 -5.1,-574 53.6,-640.4 38.3,-43.4 239.8,-145.4 556.2,-280.6 L 9481,648.7 9493.8,46.6 c 15.2,-673.6 17.8,-691.4 191.2,-691.4 191.3,0 211.7,91.9 214.3,921 2.5,553.6 0,566.4 -53.6,627.6 -35.7,35.7 -267.9,150.5 -561.3,275.5 l -502.6,214.3 -2.6,589.3 c 0,428.6 -7.6,599.5 -30.6,630.2 -43.4,56.1 -1201.6,553.6 -1293.5,553.6 -38.1,0 -89.2,-15.3 -112.1,-30.6 z"
             id="path1994" />
          <path
             d="m 6416.9,2521.3 c -84.2,-74 -94.4,-201.6 -20.4,-270.4 25.5,-25.5 244.9,-130.1 482.2,-232.2 239.8,-102.1 469.4,-201.5 510.2,-222 l 76.5,-35.7 -10.2,-548.5 c -5.1,-387.8 0,-568.9 23,-622.5 33.2,-81.7 30.6,-79.1 671,-357.2 L 8575.3,49.1 v -594.4 -597 l 66.3,-51 c 89.3,-68.9 168.4,-66.3 255.1,5.1 l 68.9,61.2 12.8,678.6 c 10.2,581.7 5.1,688.8 -28,739.9 -25.5,40.8 -201.6,130.1 -563.8,285.7 l -525.5,227.1 v 589.3 c 0,579.1 0,591.9 -56.1,642.9 -68.9,61.2 -1194,543.4 -1268,543.4 -28.3,0.1 -81.8,-28 -120.1,-58.6 z"
             id="path1996" />
          <path
             d="m 4846.3743,3197.914 c -66.3,-48.5 -86.7,-262.8 -86.7,-913.3 -2.6,-512.8 0,-530.7 56.1,-589.3 30.6,-35.7 267.9,-153.1 558.7,-275.5 l 502.5,-214.4 2.6,-589.30003 c 0,-525.500004 5.1,-597.000004 45.9,-642.900004 66.3,-76.499996 1237.4,-566.399996 1311.4,-548.499996 135.2,33.2 191.3,142.9 140.3,270.4 -30.6,74 -79.1,99.5 -568.9,313.7999963 l -533.2,232.2000037 10.2,574 c 7.7,571.50003 7.7,574.00003 -53.6,637.80003 -35.7,40.8 -252.6,148 -561.3,278.1 l -502.6,214.3 -2.6,594.4 c 0,556.2 -2.6,594.5 -51,642.9 -58.6,58.7 -196.4,68.9 -267.8,15.3 z"
             id="path1998"
             sodipodi:nodetypes="cccccccccccccccccc" />
          <path
             d="m 3912.5743,2580.514 c -58.7,-63.8 -61.2,-68.9 -68.9,-734.8 l -10.2,-668.4 58.7,-68.9 c 40.8,-43.4 237.3,-142.90003 558.7,-280.60003 l 497.5,-214.3 7.7,-599.500004 c 5.1,-530.699996 10.2,-604.599996 51,-640.399996 53.6,-48.5 1224.6,-553.59997 1285.8,-553.59997 23,0 74,28.1 112.3,58.7 86.7,74 94.4,201.59997 17.9,275.49997 -28.1,30.6 -273,150.5 -543.4,265.3 -270.4,117.3 -497.5,222 -507.7,229.6 -7.7,10.2 -10.2,267.899996 -5.1,576.6 5.1,469.4 2.6,568.9 -30.6,620 -28.1,40.8 -201.6,127.6 -563.8,283.20003 l -525.7,224.5 v 591.9 c 0,584.2 0,591.9 -58.7,645.5 -81.6,76.5 -196.4,73.9 -275.5,-10.3 z"
             id="path2000"
             sodipodi:nodetypes="ccccccccsccccccccscc" />
        </g>
      </g>
    </g>
    <path
       style="fill:none;stroke:#000000;stroke-width:0.75;stroke-linecap:butt;stroke-linejoin:miter;stroke-opacity:1"
       d="m 74.966438,152.88195 c -34.842678,0.0118 -0.426588,9.94634 -33.953353,10.31775"
       id="path1687"
       sodipodi:nodetypes="cc" />
    <g
       id="g2498"
       transform="translate(1.3381056,59.795865)">
      <g
         id="g1759"
         transform="matrix(0.63802997,0,0,0.63802997,82.802067,76.73829)">
        <g
           id="g2224"
           transform="translate(0,0.72465136)">
          <path
             d="m 153.84751,121.41725 h 1.23914 c 0.27917,0 0.50567,0.22649 0.50567,0.50566 0,0.27917 -0.2265,0.50567 -0.50567,0.50567 h -1.23914 v 1.28128 h 1.23914 c 0.27917,0 0.50567,0.22649 0.50567,0.50566 0,0.27917 -0.2265,0.50567 -0.50567,0.50567 h -1.23914 v 1.28127 h 1.23914 c 0.27917,0 0.50567,0.2265 0.50567,0.50567 0,0.27917 -0.2265,0.50566 -0.50567,0.50566 h -1.23914 v 1.28128 h 1.23914 c 0.27917,0 0.50567,0.2265 0.50567,0.50567 0,0.27916 -0.2265,0.50566 -0.50567,0.50566 h -1.23914 v 1.28128 h 1.23914 c 0.27917,0 0.50567,0.2265 0.50567,0.50566 0,0.27918 -0.2265,0.50567 -0.50567,0.50567 h -1.23914 v 1.28128 h 1.23914 c 0.27917,0 0.50567,0.22649 0.50567,0.50566 0,0.27918 -0.2265,0.50567 -0.50567,0.50567 h -1.23914 v 1.13248 c 0,0.20937 -0.0856,0.399 -0.22254,0.53595 -0.13695,0.13695 -0.32658,0.22254 -0.53596,0.22254 h -7.98791 c -0.20675,0 -0.39637,-0.0856 -0.53464,-0.22254 l -0.001,0.001 c -0.13695,-0.13695 -0.22254,-0.32658 -0.22254,-0.53595 v -1.13248 -1.01133 -1.28128 -1.01133 -1.28127 -1.01133 -1.28128 l -3e-5,-1.01133 v -1.28126 -1.01133 -1.28127 -1.01133 -1.05874 c 0,-0.20938 0.0856,-0.399 0.22255,-0.53595 0.13827,-0.13564 0.32789,-0.22123 0.53595,-0.22123 h 7.98791 c 0.20938,0 0.39901,0.0856 0.53596,0.22255 0.0158,0.0158 0.0303,0.0329 0.0434,0.05 0.11061,0.133 0.17777,0.30155 0.17777,0.48591 v 1.0561 z m -1.01133,13.35533 v -14.1586 h -7.48093 v 14.1586 z"
             id="path1736"
             style="stroke-width:0.131683"
             sodipodi:nodetypes="csssccsssccsssccsssccsssccssscssssccsccccccccccccscssscsccccccc" />
          <path
             d="m 153.84751,135.07286 h 1.23914 c 0.27917,0 0.50567,0.22649 0.50567,0.50566 0,0.27917 -0.2265,0.50567 -0.50567,0.50567 h -1.23914 v 1.28128 h 1.23914 c 0.27917,0 0.50567,0.22649 0.50567,0.50566 0,0.27917 -0.2265,0.50567 -0.50567,0.50567 h -1.23914 v 1.28127 h 1.23914 c 0.27917,0 0.50567,0.2265 0.50567,0.50567 0,0.27917 -0.22662,0.49732 -0.50567,0.50566 h -1.23914 v 1.28128 h 1.23914 c 0.27917,0 0.50567,0.2265 0.50567,0.50567 0,0.27916 -0.22662,0.49732 -0.50567,0.50566 h -1.23914 v 1.28128 h 1.23914 c 0.27917,0 0.50567,0.2265 0.50567,0.50566 0,0.27918 -0.22662,0.49733 -0.50567,0.50567 h -1.23914 v 1.28128 h 1.23914 c 0.27917,0 0.50567,0.22649 0.50567,0.50566 0,0.27918 -0.2265,0.50567 -0.50567,0.50567 h -1.23914 v 1.13248 c 0,0.20937 -0.0856,0.399 -0.22254,0.53595 -0.13695,0.13695 -0.32658,0.22254 -0.53596,0.22254 h -7.98791 c -0.20675,0 -0.39637,-0.0856 -0.53464,-0.22254 l -0.001,10e-4 c -0.13695,-0.13695 -0.22254,-0.32658 -0.22254,-0.53595 v -1.13248 -1.01133 -1.28128 -1.01133 -1.28127 -1.01133 -1.28128 l -3e-5,-1.01133 v -1.28126 -1.01133 -1.28127 -1.01133 -1.05874 c 0,-0.20938 0.0856,-0.399 0.22255,-0.53595 0.13827,-0.13564 0.32789,-0.22123 0.53595,-0.22123 h 7.98791 c 0.20938,0 0.39901,0.0856 0.53596,0.22255 0.0158,0.0158 0.0303,0.0329 0.0434,0.05 0.11061,0.133 0.17777,0.30155 0.17777,0.48591 v 1.0561 z m -1.01133,13.35533 v -14.1586 h -7.48093 v 14.1586 z"
             id="path1752"
             style="stroke-width:0.131683"
             sodipodi:nodetypes="csssccsssccsssccsssccsssccssscssssccsccccccccccccscssscsccccccc" />
          <rect
             style="fill:#ffffff;fill-opacity:1;stroke:#ffffff;stroke-width:0.587679;stroke-opacity:1"
             id="rect1754"
             width="6.8942499"
             height="2.3197074"
             x="145.64883"
             y="133.30229" />
        </g>
      </g>
      <text
         xml:space="preserve"
         id="text1761"
         style="font-size:7.05556px;line-height:100%;font-family:Quicksand;-inkscape-font-specification:'Quicksand, Normal';text-align:center;letter-spacing:0px;word-spacing:0px;writing-mode:lr-tb;white-space:pre;shape-inside:url(#rect1763);"
         transform="translate(91.536489,105.30781)"
         x="20.514008"
         y="0"><tspan
           x="65.945035"
           y="36.18937"><tspan
             style="text-align:center;text-anchor:middle;shape-inside:url(#rect1763)">FeatherWing
</tspan></tspan><tspan
           x="70.420009"
           y="43.244931"><tspan
             style="text-align:center;text-anchor:middle;shape-inside:url(#rect1763)">expansion</tspan></tspan></text>
    </g>
    <path
       style="fill:none;stroke:#000000;stroke-width:0.75;stroke-linecap:butt;stroke-linejoin:miter;stroke-opacity:1"
       d="m 133.92322,152.88195 c 38.52717,0.16494 -0.76663,11.79318 37.16271,11.94564"
       id="path1765"
       sodipodi:nodetypes="cc" />
    <g
       id="g2502"
       transform="translate(-3.37782,-9.5250005)" />
    <path
       style="fill:none;stroke:#000000;stroke-width:0.75;stroke-linecap:butt;stroke-linejoin:miter;stroke-opacity:1"
       d="M 75.150478,169.39445 C 42.83295,169.37485 70.549453,201.5789 38.504297,201.97391"
       id="path1773"
       sodipodi:nodetypes="cc" />
    <g
       id="g1901"
       transform="translate(5.5377315,30.885557)">
      <text
         xml:space="preserve"
         id="text1861"
         style="font-size:7.05556px;line-height:100%;font-family:Quicksand;-inkscape-font-specification:'Quicksand, Normal';text-align:center;letter-spacing:0px;word-spacing:0px;writing-mode:lr-tb;white-space:pre;shape-inside:url(#rect1863);"
         x="6.9391303"
         y="0"
         transform="translate(35.527432,-10.83494)"><tspan
           x="63.538236"
           y="36.18937"><tspan
             style="shape-inside:url(#rect1863)">micro SD
</tspan></tspan><tspan
           x="70.844252"
           y="43.244931"><tspan
             style="shape-inside:url(#rect1863)">card</tspan></tspan></text>
      <g
         id="g1890">
        <path
           style="fill:#ffffff;fill-opacity:1;stroke:#000000;stroke-width:0.75;stroke-opacity:1"
           d="m 108.65468,37.339913 h 11.64192 c 0.50304,0.0018 0.9104,0.40913 0.91217,0.912172 v 18.014206 c -0.003,0.502678 -0.40949,0.909525 -0.91217,0.912175 h -12.55409 c -1.43526,-0.02099 -1.75815,-0.384243 -1.75815,-1.654827 V 50.84976 l 0.81692,-0.978369 v -1.754923 h -0.81692 v -2.529867 l 1.75815,-1.672584 v -5.661932 c 8.9e-4,-0.503409 0.40876,-0.911282 0.91217,-0.912172 z"
           id="path1830" />
        <path
           style="fill:none;fill-opacity:1;stroke:#000000;stroke-width:0.25;stroke-opacity:1"
           d="m 118.77577,38.883321 h 0.98805 c 0.0493,-2e-6 0.0895,0.0395 0.0904,0.0888 v 3.348403 c -8.8e-4,0.04929 -0.0411,0.08879 -0.0904,0.08879 h -0.98966 c -0.049,2e-6 -0.0888,-0.03975 -0.0888,-0.08879 v -3.348403 c 0,-0.04904 0.0398,-0.0888 0.0888,-0.0888 z"
           id="path1859" />
        <path
           style="fill:none;fill-opacity:1;stroke:#000000;stroke-width:0.25;stroke-opacity:1"
           d="m 116.86263,38.883321 h 0.98805 c 0.049,-2e-6 0.0888,0.03976 0.0888,0.0888 v 3.348403 c 0,0.04904 -0.0398,0.08879 -0.0888,0.08879 h -0.98966 c -0.049,2e-6 -0.0888,-0.03975 -0.0888,-0.08879 v -3.348403 c 0,-0.04904 0.0398,-0.0888 0.0888,-0.0888 z"
           id="path1857" />
        <path
           style="fill:none;fill-opacity:1;stroke:#000000;stroke-width:0.25;stroke-opacity:1"
           d="m 114.9511,38.883321 h 0.98805 c 0.0493,-2e-6 0.0895,0.0395 0.0904,0.0888 v 3.348403 c -8.8e-4,0.04929 -0.0411,0.08879 -0.0904,0.08879 h -0.98966 c -0.049,2e-6 -0.0888,-0.03975 -0.0888,-0.08879 v -3.348403 c 0,-0.04904 0.0398,-0.0888 0.0888,-0.0888 z"
           id="path1855" />
        <path
           style="fill:none;fill-opacity:1;stroke:#000000;stroke-width:0.25;stroke-opacity:1"
           d="m 113.03796,38.883321 h 0.98967 c 0.049,-2e-6 0.0888,0.03976 0.0888,0.0888 v 3.348403 c 0,0.04904 -0.0398,0.08879 -0.0888,0.08879 h -0.99128 c -0.049,2e-6 -0.0888,-0.03975 -0.0888,-0.08879 v -3.348403 c 0,-0.04904 0.0398,-0.0888 0.0888,-0.0888 z"
           id="path1853" />
        <path
           style="fill:none;fill-opacity:1;stroke:#000000;stroke-width:0.25;stroke-opacity:1"
           d="m 111.12643,38.883321 h 0.9929 c 0.0493,-2e-6 0.0895,0.0395 0.0904,0.0888 v 3.348403 c -8.8e-4,0.04929 -0.0411,0.08879 -0.0904,0.08879 h -0.99451 c -0.0493,2e-6 -0.0895,-0.0395 -0.0904,-0.08879 v -3.348403 c 8.8e-4,-0.0493 0.0411,-0.0888 0.0904,-0.0888 z"
           id="path1851" />
        <path
           style="fill:none;fill-opacity:1;stroke:#000000;stroke-width:0.25;stroke-opacity:1"
           d="m 109.21329,38.883321 h 0.98967 c 0.049,-2e-6 0.0888,0.03976 0.0888,0.0888 v 3.348403 c 0,0.04904 -0.0398,0.08879 -0.0888,0.08879 h -0.98967 c -0.049,2e-6 -0.0888,-0.03975 -0.0888,-0.08879 v -3.348403 c 0,-0.04904 0.0398,-0.0888 0.0888,-0.0888 z"
           id="path1849" />
      </g>
    </g>
    <path
       style="fill:none;stroke:#000000;stroke-width:0.75;stroke-linecap:butt;stroke-linejoin:miter;stroke-opacity:1"
       d="m 120.89301,139.77751 c -0.81438,-64.332207 27.49014,-38.5639 27.41654,-50.843275"
       id="path1914"
       sodipodi:nodetypes="cc" />
    <path
       style="line-height:normal;-inkscape-font-specification:'Bitstream Vera Sans';text-indent:0;text-align:start;text-transform:none;stroke-width:0.833326"
       d="m 137.26165,249.44015 c -5.51294,0 -9.99994,4.487 -9.99994,9.99995 0,2.45847 0.89206,4.7148 2.36975,6.45829 l -1.06768,1.04166 c -0.0157,-6.5e-4 -0.035,0 -0.052,0 -0.69036,0 -1.24998,0.55966 -1.24998,1.24998 0,0.69036 0.55962,1.25001 1.24998,1.25001 0.69036,0 1.25001,-0.55965 1.25001,-1.25001 0,-0.0157 6.5e-4,-0.0353 0,-0.052 l 1.04163,-1.06771 c 1.74349,1.47769 3.99982,2.36978 6.45833,2.36978 5.51294,0 9.99994,-4.487 9.99994,-9.99994 0,-2.45848 -0.89209,-4.71481 -2.36978,-6.4583 l 1.06768,-1.04166 c 0.0157,6.5e-4 0.035,0 0.052,0 0.69036,0 1.25001,-0.55965 1.25001,-1.25001 0,-0.69033 -0.55965,-1.24998 -1.25001,-1.24998 -0.69036,0 -1.24998,0.55965 -1.24998,1.24998 0,0.0157 -6.5e-4,0.0353 0,0.052 l -1.04166,1.06771 c -1.74349,-1.47772 -3.99982,-2.36978 -6.4583,-2.36978 z m 0,1.66667 c 1.81007,0 3.4792,0.5873 4.84373,1.56248 -0.1663,-0.007 -0.33112,0.007 -0.4948,0.0252 -0.65481,0.0768 -1.32311,0.33669 -2.05728,0.70311 -0.55248,0.27591 -1.14775,0.65656 -1.74478,1.06771 -0.75373,-0.49795 -1.48525,-0.87952 -2.21353,-1.14582 -1.52116,-0.55628 -3.08314,-0.64085 -4.08852,0.36456 -1.00541,1.00542 -0.92084,2.56736 -0.36459,4.08852 0.26645,0.72828 0.64787,1.45983 1.14581,2.21353 -0.41111,0.59703 -0.79195,1.19231 -1.06767,1.74478 -0.36643,0.7342 -0.6263,1.40251 -0.70314,2.05728 -0.0189,0.16378 -0.035,0.3296 -0.0252,0.4948 -0.97518,-1.36453 -1.56251,-3.03366 -1.56251,-4.84372 0,-4.61223 3.72108,-8.33328 8.33331,-8.33328 z m 4.53122,3.25516 c 0.36145,-0.0425 0.47424,0.0315 0.49477,0.052 0.022,0.0221 0.0945,0.13323 0.052,0.4948 -0.0425,0.36145 -0.21134,0.91628 -0.52082,1.53643 -0.16346,0.32778 -0.39124,0.67692 -0.625,1.04167 -0.29606,-0.35055 -0.59801,-0.70217 -0.93751,-1.04167 -0.33946,-0.33946 -0.69112,-0.64129 -1.04166,-0.93747 0.36475,-0.2337 0.71388,-0.46142 1.04166,-0.625 0.62019,-0.30961 1.17501,-0.47843 1.53646,-0.52085 z m -8.28121,0.20819 c 0.39257,-0.0126 0.90192,0.0901 1.51042,0.31243 0.42727,0.15623 0.87867,0.39846 1.35416,0.67707 -0.52658,0.4384 -1.06847,0.8862 -1.58855,1.40626 -0.52006,0.52006 -0.96784,1.06195 -1.40623,1.58853 -0.27875,-0.47549 -0.52082,-0.92686 -0.67707,-1.35416 -0.44504,-1.21697 -0.34583,-2.02396 -0.0252,-2.34374 0.16,-0.16 0.44075,-0.27527 0.83332,-0.28629 z m 10.52079,0.0252 c 0.97518,1.36453 1.56248,3.03366 1.56248,4.84373 0,4.61222 -3.72108,8.33328 -8.33328,8.33328 -1.8101,0 -3.47922,-0.58731 -4.84371,-1.56249 0.16503,0.009 0.33108,-0.007 0.49476,-0.0252 0.6548,-0.0769 1.32311,-0.33669 2.05729,-0.70312 0.5525,-0.27559 1.14773,-0.65656 1.74477,-1.06771 0.75373,0.49795 1.48528,0.87952 2.21353,1.14582 1.52116,0.55628 3.08313,0.64085 4.08851,-0.36456 1.00542,-1.00542 0.92085,-2.56736 0.3646,-4.08851 -0.26645,-0.72828 -0.64787,-1.45984 -1.14582,-2.21354 0.41111,-0.59703 0.79197,-1.1923 1.06768,-1.74477 0.36642,-0.7342 0.62633,-1.40252 0.70315,-2.05728 0.0189,-0.16379 0.0349,-0.32961 0.0252,-0.4948 z m -6.22393,1.92708 c 0.42815,0.3383 0.83473,0.70453 1.24998,1.11977 0.41524,0.41524 0.7815,0.82182 1.1198,1.25001 -0.48069,0.60312 -1.03175,1.21402 -1.64062,1.82289 -0.60888,0.60888 -1.21977,1.15993 -1.82292,1.64062 -0.42816,-0.3383 -0.83474,-0.70453 -1.24998,-1.11977 -0.41524,-0.41524 -0.7815,-0.82183 -1.1198,-1.25001 0.48069,-0.60311 1.03174,-1.21401 1.64062,-1.82289 0.60888,-0.60891 1.21977,-1.15993 1.82292,-1.64062 z m -0.54687,2.08333 c -0.46024,0 -0.83335,0.37307 -0.83335,0.83332 0,0.46021 0.37311,0.83332 0.83335,0.83332 0.46022,0 0.83332,-0.37311 0.83332,-0.83332 0,-0.46025 -0.3731,-0.83332 -0.83332,-0.83332 z m 3.88017,1.71873 c 0.27874,0.47546 0.52085,0.92686 0.6771,1.35417 0.44501,1.21696 0.3458,2.02395 0.0252,2.34373 -0.31978,0.31975 -1.12676,0.41899 -2.34376,-0.0252 -0.42728,-0.15622 -0.87868,-0.39845 -1.35414,-0.67706 0.52655,-0.4384 1.06847,-0.8862 1.58853,-1.40626 0.52006,-0.52006 0.96784,-1.06195 1.40622,-1.58853 z m -7.81246,1.06771 c 0.29606,0.35052 0.59801,0.70217 0.93751,1.04166 0.33946,0.33947 0.69111,0.64129 1.04166,0.93748 -0.36475,0.23369 -0.71389,0.46141 -1.04166,0.625 -0.62019,0.30961 -1.17502,0.47843 -1.53646,0.52082 -0.36145,0.0425 -0.47424,-0.0315 -0.49477,-0.052 -0.022,-0.0221 -0.0945,-0.13323 -0.052,-0.4948 0.0425,-0.36145 0.21134,-0.91628 0.52085,-1.53643 0.16346,-0.32779 0.39124,-0.67691 0.62497,-1.04167 z"
       id="path1920" />
    <text
       xml:space="preserve"
       id="text1922"
       style="font-size:7.05556px;line-height:100%;font-family:Quicksand;-inkscape-font-specification:'Quicksand, Normal';letter-spacing:0px;word-spacing:0px;writing-mode:lr-tb;white-space:pre;shape-inside:url(#rect1926);"
       transform="translate(69.668057,206.05516)"><tspan
         x="60.019531"
         y="36.18937"><tspan
           style="shape-inside:url(#rect1926)">gyro</tspan></tspan></text>
    <path
       style="fill:none;stroke:#000000;stroke-width:0.75;stroke-linecap:butt;stroke-linejoin:miter;stroke-opacity:1"
       d="m 134.06033,176.79624 c 38.52717,0.16494 3.62395,45.83233 41.55329,45.98479"
       id="path2032"
       sodipodi:nodetypes="cc" />
    <g
       id="g2211"
       transform="translate(-59.850313,-3.6886341)">
      <g
         id="g2135"
         transform="matrix(0.26458333,0,0,0.26458333,80.79722,200.7581)"
         style="fill:#000000">
        <path
           class="st0"
           d="m 38,17.2 c 0,-3 -2.4,-5.5 -5.5,-5.5 -3,0 -5.5,2.4 -5.5,5.5 0,2.4 1.5,4.4 3.6,5.1 L 28,61.2 C 28,63.3 30,65 32.5,65 35,65 37,63.3 37,61.2 L 34.4,22.3 C 36.5,21.6 38,19.6 38,17.2"
           id="path2109"
           style="fill:#000000" />
        <path
           class="st0"
           d="m 25.1,22.5 c -0.2,0 -0.4,-0.1 -0.5,-0.3 -1,-1.5 -1.5,-3.2 -1.5,-5 0,-1.8 0.5,-3.5 1.5,-5 0.2,-0.3 0.6,-0.4 0.9,-0.2 0.3,0.2 0.4,0.6 0.2,0.9 -0.8,1.3 -1.3,2.8 -1.3,4.3 0,1.5 0.4,3 1.3,4.3 0.2,0.3 0.1,0.7 -0.2,0.9 -0.1,0.1 -0.3,0.1 -0.4,0.1"
           id="path2111"
           style="fill:#000000" />
        <path
           class="st0"
           d="m 39.9,22.5 c -0.1,0 -0.2,0 -0.3,-0.1 -0.3,-0.2 -0.4,-0.6 -0.2,-0.9 0.8,-1.3 1.3,-2.8 1.3,-4.3 0,-1.5 -0.4,-3 -1.3,-4.3 -0.2,-0.3 -0.1,-0.7 0.2,-0.9 0.3,-0.2 0.7,-0.1 0.9,0.2 1,1.5 1.5,3.2 1.5,5 0,1.8 -0.5,3.5 -1.5,5 -0.2,0.2 -0.4,0.3 -0.6,0.3"
           id="path2113"
           style="fill:#000000" />
        <path
           class="st0"
           d="m 43,24.7 c -0.1,0 -0.3,0 -0.4,-0.1 -0.4,-0.2 -0.5,-0.7 -0.2,-1.1 1.2,-1.9 1.8,-4 1.8,-6.3 0,-2.2 -0.6,-4.4 -1.8,-6.3 -0.2,-0.4 -0.1,-0.8 0.2,-1.1 0.4,-0.2 0.8,-0.1 1.1,0.2 1.3,2.1 2.1,4.6 2.1,7.1 0,2.5 -0.7,5 -2.1,7.1 -0.2,0.3 -0.4,0.5 -0.7,0.5"
           id="path2115"
           style="fill:#000000" />
        <path
           class="st0"
           d="m 22,24.7 c -0.3,0 -0.5,-0.1 -0.7,-0.4 -1.3,-2.1 -2.1,-4.6 -2.1,-7.1 0,-2.5 0.7,-5 2.1,-7.1 0.2,-0.4 0.7,-0.5 1.1,-0.2 0.4,0.2 0.5,0.7 0.2,1.1 -1.2,1.9 -1.8,4 -1.8,6.3 0,2.2 0.6,4.4 1.8,6.3 0.2,0.4 0.1,0.8 -0.2,1.1 -0.1,-0.1 -0.3,0 -0.4,0"
           id="path2117"
           style="fill:#000000" />
        <path
           class="st0"
           d="M 18.5,27 C 18.2,27 17.9,26.9 17.7,26.6 15.9,23.8 15,20.6 15,17.2 15,13.9 15.9,10.6 17.7,7.8 18,7.4 18.6,7.3 19,7.6 c 0.4,0.3 0.5,0.8 0.3,1.2 -1.6,2.5 -2.4,5.4 -2.4,8.4 0,3 0.8,5.9 2.4,8.4 0.3,0.4 0.1,1 -0.3,1.2 -0.2,0.1 -0.3,0.2 -0.5,0.2"
           id="path2119"
           style="fill:#000000" />
        <path
           class="st0"
           d="m 46.5,27 c -0.2,0 -0.3,0 -0.5,-0.1 -0.4,-0.3 -0.5,-0.8 -0.3,-1.2 1.6,-2.5 2.4,-5.4 2.4,-8.4 0,-3 -0.8,-5.9 -2.4,-8.4 -0.3,-0.4 -0.1,-1 0.3,-1.2 0.4,-0.3 1,-0.1 1.2,0.3 1.8,2.8 2.7,6 2.7,9.4 0,3.3 -0.9,6.6 -2.7,9.4 -0.1,0 -0.4,0.2 -0.7,0.2"
           id="path2121"
           style="fill:#000000" />
        <path
           class="st0"
           d="m 50.1,29.4 c -0.2,0 -0.4,-0.1 -0.6,-0.2 C 49,28.9 48.9,28.3 49.2,27.8 51.2,24.6 52.3,21 52.3,17.2 52.3,13.4 51.2,9.8 49.2,6.6 48.9,6.1 49,5.5 49.5,5.2 50,4.9 50.6,5 51,5.5 c 2.2,3.5 3.4,7.6 3.4,11.7 0,4.2 -1.2,8.2 -3.4,11.7 -0.2,0.3 -0.6,0.5 -0.9,0.5"
           id="path2123"
           style="fill:#000000" />
        <path
           class="st0"
           d="M 14.9,29.4 C 14.6,29.4 14.2,29.2 14,28.9 11.8,25.4 10.6,21.3 10.6,17.2 10.6,13 11.8,9 14,5.5 14.4,5 15,4.9 15.5,5.2 c 0.5,0.3 0.6,0.9 0.3,1.4 -2,3.2 -3.1,6.8 -3.1,10.6 0,3.8 1.1,7.4 3.1,10.6 0.3,0.5 0.2,1.1 -0.3,1.4 -0.2,0.1 -0.4,0.2 -0.6,0.2"
           id="path2125"
           style="fill:#000000" />
        <path
           class="st0"
           d="m 11.2,31.9 c -0.4,0 -0.8,-0.2 -1,-0.5 -2.7,-4.2 -4.1,-9.1 -4.1,-14.1 0,-5 1.4,-9.9 4.1,-14.1 0.3,-0.5 1.1,-0.7 1.6,-0.4 0.5,0.3 0.7,1.1 0.4,1.6 -2.4,3.8 -3.7,8.3 -3.7,12.9 0,4.6 1.3,9 3.7,12.9 0.3,0.5 0.2,1.3 -0.4,1.6 -0.1,0 -0.4,0.1 -0.6,0.1"
           id="path2127"
           style="fill:#000000" />
        <path
           class="st0"
           d="m 53.8,31.9 c -0.2,0 -0.4,-0.1 -0.6,-0.2 -0.5,-0.3 -0.7,-1.1 -0.4,-1.6 2.4,-3.8 3.7,-8.3 3.7,-12.9 0,-4.6 -1.3,-9 -3.7,-12.9 -0.3,-0.5 -0.2,-1.3 0.4,-1.6 0.5,-0.3 1.3,-0.2 1.6,0.4 2.7,4.2 4.1,9.1 4.1,14.1 0,5 -1.4,9.9 -4.1,14.1 -0.3,0.4 -0.6,0.6 -1,0.6"
           id="path2129"
           style="fill:#000000" />
        <path
           class="st0"
           d="M 7.4,34.4 C 7,34.4 6.6,34.2 6.3,33.8 3.1,28.8 1.5,23.1 1.5,17.2 1.5,11.3 3.2,5.6 6.3,0.6 6.7,0 7.5,-0.2 8.1,0.2 8.7,0.6 8.9,1.4 8.5,2 5.6,6.5 4.1,11.8 4.1,17.2 c 0,5.4 1.5,10.7 4.4,15.2 0.4,0.6 0.2,1.4 -0.4,1.8 -0.2,0.1 -0.4,0.2 -0.7,0.2"
           id="path2131"
           style="fill:#000000" />
        <path
           class="st0"
           d="m 57.6,34.4 c -0.2,0 -0.5,-0.1 -0.7,-0.2 C 56.3,33.8 56.1,33 56.5,32.4 59.4,27.9 60.9,22.6 60.9,17.2 60.9,11.8 59.4,6.5 56.5,2 56.1,1.4 56.3,0.6 56.9,0.2 c 0.6,-0.4 1.4,-0.2 1.8,0.4 3.2,5 4.8,10.7 4.8,16.6 0,5.9 -1.7,11.6 -4.8,16.6 -0.3,0.4 -0.7,0.6 -1.1,0.6"
           id="path2133"
           style="fill:#000000" />
      </g>
      <text
         xml:space="preserve"
         id="text2160"
         style="font-size:7.05556px;line-height:100%;font-family:Quicksand;-inkscape-font-specification:'Quicksand, Normal';text-align:center;letter-spacing:0px;word-spacing:0px;writing-mode:lr-tb;white-space:pre;shape-inside:url(#rect2162);"
         transform="translate(11.087156,149.7564)"
         x="7.9833474"
         y="0"><tspan
           x="69.708305"
           y="36.18937"><tspan
             style="shape-inside:url(#rect2162)">LoRa
</tspan></tspan><tspan
           x="69.768285"
           y="43.244931"><tspan
             style="shape-inside:url(#rect2162)">radio</tspan></tspan></text>
    </g>
    <text
       xml:space="preserve"
       id="text2368"
       style="font-size:1.41111px;line-height:100%;font-family:Quicksand;-inkscape-font-specification:'Quicksand, Normal';letter-spacing:0px;word-spacing:0px;writing-mode:lr-tb;white-space:pre;shape-inside:url(#rect2370);"
       transform="translate(55.460939,121.78045)" />
    <g
       id="g2394"
       transform="translate(44.688617,121.78045)">
      <text
         xml:space="preserve"
         id="text2215"
         style="font-size:7.05556px;line-height:100%;font-family:Quicksand;-inkscape-font-specification:'Quicksand, Normal';text-align:center;letter-spacing:0px;word-spacing:0px;writing-mode:lr-tb;white-space:pre;shape-inside:url(#rect2219);"
         transform="translate(-43.476311,80.980077)"
         x="11.391178"
         y="0"><tspan
           x="71.387528"
           y="36.18937"><tspan
             style="text-align:center;text-anchor:middle;shape-inside:url(#rect2219)">LiPo
</tspan></tspan><tspan
           x="66.240512"
           y="43.244931"><tspan
             style="text-align:center;text-anchor:middle;shape-inside:url(#rect2219)">battery</tspan></tspan></text>
      <g
         id="g2366"
         transform="matrix(0.33333333,0,0,0.33333333,24.312625,127.49191)">
        <g
           id="g2309">
          <path
             d="M 42.536,4 H 36 V 0 H 24 V 4 H 17.464 C 15.554,4 14,5.554 14,7.464 V 56.536 C 14,58.446 15.554,60 17.464,60 H 42.535 C 44.446,60 46,58.446 46,56.536 V 7.464 C 46,5.554 44.446,4 42.536,4 Z M 44,56.536 C 44,57.344 43.343,58 42.536,58 H 17.464 C 16.657,58 16,57.344 16,56.536 V 7.464 C 16,6.656 16.657,6 17.464,6 H 24 36 42.536 C 43.343,6 44,6.656 44,7.464 Z"
             id="path2305" />
          <path
             d="M 37,29 H 34 V 17.108 c 0.013,-0.26 -0.069,-0.515 -0.236,-0.72 -0.381,-0.467 -1.264,-0.463 -1.642,0.004 -0.026,0.032 -0.05,0.066 -0.072,0.103 l -9.9,15.979 c -0.191,0.309 -0.2,0.696 -0.023,1.013 C 22.303,33.804 22.637,34 23,34 h 4 l 0.002,12.929 h 0.001 c 0.001,0.235 0.077,0.479 0.215,0.657 0.189,0.247 0.529,0.414 0.84,0.414 0.305,0 0.636,-0.16 0.825,-0.398 0.04,-0.05 0.074,-0.103 0.104,-0.159 l 8.899,-16.979 c 0.163,-0.31 0.151,-0.682 -0.03,-0.981 C 37.675,29.184 37.35,29 37,29 Z"
             id="path2307" />
        </g>
        <g
           id="g2311" />
        <g
           id="g2313" />
        <g
           id="g2315" />
        <g
           id="g2317" />
        <g
           id="g2319" />
        <g
           id="g2321" />
        <g
           id="g2323" />
        <g
           id="g2325" />
        <g
           id="g2327" />
        <g
           id="g2329" />
        <g
           id="g2331" />
        <g
           id="g2333" />
        <g
           id="g2335" />
        <g
           id="g2337" />
        <g
           id="g2339" />
      </g>
    </g>
    <path
       style="fill:none;stroke:#000000;stroke-width:0.75;stroke-linecap:butt;stroke-linejoin:miter;stroke-opacity:1"
       d="m 138.31857,235.97612 c -0.78531,-38.13881 -12.32426,-3.40102 -12.30276,-43.42514"
       id="path2396"
       sodipodi:nodetypes="cc" />
    <path
       style="fill:none;stroke:#000000;stroke-width:0.75;stroke-linecap:butt;stroke-linejoin:miter;stroke-opacity:1"
       d="m 78.200504,232.27001 c 0.14185,-40.26446 6.832896,0.47825 6.893396,-39.60366"
       id="path2398"
       sodipodi:nodetypes="cc" />
    <text
       xml:space="preserve"
       id="text2404"
       style="font-size:7.05556px;line-height:100%;font-family:Quicksand;-inkscape-font-specification:'Quicksand, Normal';text-align:center;letter-spacing:0px;word-spacing:0px;writing-mode:lr-tb;white-space:pre;shape-inside:url(#rect2408);"
       transform="translate(-19.613934,20.050617)"
       x="5.9160819"
       y="0"><tspan
         x="71.108832"
         y="36.18937"><tspan
           style="shape-inside:url(#rect2408)">RGB
</tspan></tspan><tspan
         x="71.768521"
         y="43.244931"><tspan
           style="shape-inside:url(#rect2408)">LED</tspan></tspan></text>
    <path
       style="fill:none;stroke:#000000;stroke-width:0.75;stroke-linecap:butt;stroke-linejoin:miter;stroke-opacity:1"
       d="M 74.695869,145.17542 C 51.202072,145.26142 30.440963,129.91491 30.592965,88.508686"
       id="path2410"
       sodipodi:nodetypes="cc" />
    <text
       xml:space="preserve"
       id="text2416"
       style="font-style:normal;font-variant:normal;font-weight:normal;font-stretch:normal;font-size:9.87778px;line-height:100%;font-family:Quicksand;-inkscape-font-specification:'Quicksand, Normal';font-variant-ligatures:normal;font-variant-caps:normal;font-variant-numeric:normal;font-feature-settings:normal;text-align:start;letter-spacing:0px;word-spacing:0px;writing-mode:lr-tb;white-space:pre;shape-inside:url(#rect2418);fill:#000000;fill-opacity:1;stroke:none;"
       transform="translate(-11.87244,-85.900212)"><tspan
         x="86.902344"
         y="117.69129"><tspan
           style="shape-inside:url(#rect2418)">the unPhone</tspan></tspan></text>
    <g
       style="overflow:hidden;fill:currentColor"
       id="g2487"
       transform="matrix(0.02232392,0,0,0.02232392,47.307575,66.713784)">
      <path
         d="m 512,234.7 c 31.7,0 62.4,6.2 91.3,18.4 27.9,11.8 53,28.7 74.6,50.3 21.6,21.6 38.5,46.7 50.3,74.6 12.2,28.9 18.4,59.6 18.4,91.3 0,37.7 -8.7,73.6 -25.8,106.9 -16.3,31.7 -40.2,59.8 -69,81.3 -20.8,15.5 -33.3,40.8 -33.3,67.7 v 64.2 H 405.3 V 725 c 0,-26.8 -12.5,-52.1 -33.3,-67.6 -32.9,-24.5 -58.9,-57.2 -75.3,-94.6 -8.3,-19.1 -14.1,-39.3 -17.1,-59.9 -3.1,-21.5 -3.2,-43.7 -0.2,-65.8 3.4,-25.7 11.1,-50.5 23,-73.8 11.6,-22.8 26.8,-43.5 45.3,-61.5 18.4,-18 39.4,-32.9 62.4,-44 23.5,-11.4 48.5,-18.7 74.3,-21.6 9.3,-1 18.5,-1.5 27.6,-1.5 m 0,-42.7 c -10.6,0 -21.4,0.6 -32.3,1.8 -124.5,14.1 -226.1,113.5 -242.5,237.7 -14.1,106.3 32.3,202.7 109.4,260.1 10.4,7.8 16.1,20.4 16.1,33.4 v 64.3 c 0,23.6 19.1,42.7 42.7,42.7 h 213.3 c 23.6,0 42.7,-19.1 42.7,-42.7 v -64.2 c 0,-13 5.6,-25.7 16.1,-33.5 C 745.4,641.1 789.4,560.4 789.4,469.3 789.3,316.2 665.2,192 512,192 Z M 618.7,896 H 405.3 c -11.8,0 -21.3,-9.6 -21.3,-21.3 0,-11.7 9.6,-21.3 21.3,-21.3 h 213.3 c 11.8,0 21.3,9.6 21.3,21.3 0,11.7 -9.5,21.3 -21.2,21.3 z M 576,960 H 448 c -11.8,0 -21.3,-9.6 -21.3,-21.3 0,-11.7 9.6,-21.3 21.3,-21.3 h 128 c 11.8,0 21.3,9.6 21.3,21.3 0,11.7 -9.5,21.3 -21.3,21.3 z M 512,170.7 c -11.8,0 -21.3,-9.6 -21.3,-21.3 v -64 c 0,-11.8 9.6,-21.3 21.3,-21.3 11.7,0 21.3,9.6 21.3,21.3 v 64 c 0,11.7 -9.5,21.3 -21.3,21.3 z m 160,42.8 c -3.6,0 -7.3,-0.9 -10.6,-2.9 -10.2,-5.9 -13.7,-18.9 -7.8,-29.1 l 32,-55.4 c 5.9,-10.2 18.9,-13.7 29.1,-7.8 10.2,5.9 13.7,18.9 7.8,29.1 l -32,55.4 c -4,6.9 -11.1,10.7 -18.5,10.7 z m 117.1,117.2 c -7.4,0 -14.5,-3.8 -18.5,-10.7 -5.9,-10.2 -2.4,-23.3 7.8,-29.1 l 55.4,-32 c 10.2,-5.9 23.3,-2.4 29.1,7.8 5.9,10.2 2.4,23.3 -7.8,29.1 l -55.4,32 c -3.3,1.9 -6.9,2.9 -10.6,2.9 z M 352,213.5 c -7.4,0 -14.5,-3.8 -18.5,-10.7 l -32,-55.4 c -5.9,-10.2 -2.4,-23.3 7.8,-29.1 10.2,-5.9 23.3,-2.4 29.1,7.8 l 32,55.4 c 5.9,10.2 2.4,23.3 -7.8,29.1 -3.3,2 -7,2.9 -10.6,2.9 z M 234.9,330.7 c -3.6,0 -7.3,-0.9 -10.6,-2.9 l -55.4,-32 c -10.2,-5.9 -13.7,-18.9 -7.8,-29.1 5.9,-10.2 18.9,-13.7 29.1,-7.8 l 55.4,32 c 10.2,5.9 13.7,18.9 7.8,29.1 -4,6.8 -11.2,10.7 -18.5,10.7 z"
         fill="#222222"
         id="path2470" />
      <path
         d="m 512,832 c -11.8,0 -21.3,-9.6 -21.3,-21.3 V 631.2 L 592.9,529 c 8.3,-8.3 21.8,-8.3 30.2,0 8.3,8.3 8.3,21.8 0,30.2 L 533.3,649 v 161.8 c 0,11.6 -9.5,21.2 -21.3,21.2 z"
         fill="#222222"
         id="path2472" />
      <path
         d="m 512,661.3 c -4.7,0 -9.4,-1.5 -13.3,-4.7 L 392,571.3 c -9.2,-7.4 -10.7,-20.8 -3.3,-30 7.4,-9.2 20.8,-10.7 30,-3.3 l 106.7,85.3 c 9.2,7.4 10.7,20.8 3.3,30 -4.3,5.3 -10.5,8 -16.7,8 z"
         fill="#222222"
         id="path2474" />
    </g>
    <g
       id="g1151"
       transform="translate(151.07026,-44.998514)">
      <rect
         style="fill:#ffffff;fill-opacity:1;stroke:#000000;stroke-width:0.435761;stroke-opacity:1"
         id="rect1767"
         width="19.56424"
         height="35.9044"
         x="24.239164"
         y="202.37753"
         rx="1.1620277"
         ry="1.1620277"
         transform="translate(-3.3778201,-9.5250005)" />
      <text
         xml:space="preserve"
         id="text1769"
         style="font-size:7.05556px;line-height:100%;font-family:Quicksand;-inkscape-font-specification:'Quicksand, Normal';letter-spacing:0px;word-spacing:0px;writing-mode:lr-tb;white-space:pre;shape-inside:url(#rect1771);"
         transform="translate(-48.972851,148.18446)"><tspan
           x="60.019531"
           y="36.18937"><tspan
             style="shape-inside:url(#rect1771)">touchscreen</tspan></tspan></text>
      <text
         xml:space="preserve"
         id="text3074"
         style="font-size:7.05556px;line-height:100%;font-family:Quicksand;-inkscape-font-specification:'Quicksand, Normal';letter-spacing:0px;word-spacing:0px;writing-mode:lr-tb;white-space:pre;shape-inside:url(#rect3076);"
         transform="matrix(0.66682459,0,0,0.66682459,-18.525198,202.19824)"><tspan
           x="60.019531"
           y="36.18937"><tspan
             style="shape-inside:url(#rect3076)">320x480</tspan></tspan></text>
    </g>
    <g
       inkscape:label="Layer 1"
       id="layer1-6"
       transform="matrix(0.02503119,0,0,0.02503119,88.675916,211.86095)">
      <g
         id="g2961"
         transform="matrix(1.300977,0,0,1.300977,-109.21164,-84.686085)">
        <path
           style="color:#000000;display:inline;overflow:visible;visibility:visible;fill:#000000;fill-opacity:1;fill-rule:nonzero;stroke:none;stroke-width:0.531496;marker:none;enable-background:accumulate"
           d="m 362.46655,399.37379 c -80.4519,0.30312 -160.7693,30.42522 -222.3125,90.28125 l 55.9062,55.28125 c 92.2564,-89.61065 240.7455,-90.14152 333.6562,-1.15625 l 55.7813,-55.81255 C 523.48725,428.577 442.91835,399.07062 362.46655,399.37374 Z m -166.4063,145.5625 -0.125,0.0937 z"
           id="path4391"
           inkscape:connector-curvature="0"
           sodipodi:nodetypes="cccccccccc" />
        <path
           style="color:#000000;display:inline;overflow:visible;visibility:visible;fill:#000000;fill-opacity:1;fill-rule:nonzero;stroke:none;stroke-width:0.531496;marker:none;enable-background:accumulate"
           d="m 362.37275,281.3738 c -110.9452,0.41801 -221.724,41.957 -306.593707,124.49999 l 55.468707,54.84375 c 138.9415,-134.55514 362.2624,-135.23852 502.0313,-1.375 l 56.6562,-55.78125 C 584.42125,321.6603 473.31795,280.95579 362.37275,281.3738 Z m -251.125,179.34374 -0.5625,0.53125 z"
           id="path4395"
           inkscape:connector-curvature="0"
           sodipodi:nodetypes="sccccsccc" />
        <path
           style="color:#000000;display:inline;overflow:visible;visibility:visible;fill:#000000;fill-opacity:1;fill-rule:nonzero;stroke:none;stroke-width:0.531496;marker:none;enable-background:accumulate"
           d="m 362.34155,516.87379 c -50.088,0.18872 -100.1218,18.95343 -138.4375,56.21875 l 53.4375,52.8125 c 47.1813,-45.82127 123.1117,-46.06831 170.625,-0.5625 l 53.2192,-53.3125 c -38.6066,-36.97548 -88.7558,-55.34497 -138.8437,-55.15625 z m -85,109.03125 -0.063,0.0625 z"
           id="path4381"
           inkscape:connector-curvature="0"
           sodipodi:nodetypes="cccccccccc" />
      </g>
    </g>
    <g
       id="g3609"
       transform="matrix(0.0761199,0,0,0.0761199,107.18038,218.90378)">
      <path
         d="M 98.346079,73.712896 129.25272,43.557957 c 1.1767,-1.147553 1.84029,-2.722133 1.84029,-4.365851 0,-1.643718 -0.66359,-3.218298 -1.84029,-4.36585 L 95.335872,1.7349917 C 93.579636,0.021458 90.967988,-0.4713185 88.706774,0.47898777 86.445561,1.4320053 84.975365,3.6471272 84.975365,6.1008424 V 60.668214 L 56.282487,32.674171 c -2.41169,-2.35272 -6.273241,-2.30595 -8.626639,0.10574 -2.352719,2.411691 -2.305272,6.27392 0.106418,8.626639 L 80.874543,73.713574 47.762266,106.0206 c -2.41169,2.35272 -2.459137,6.21495 -0.106418,8.62664 2.35272,2.41169 6.215627,2.45913 8.626639,0.10574 L 84.975365,86.758934 v 54.567376 c 0,2.45371 1.470196,4.66883 3.731409,5.62185 0.764583,0.32264 1.569158,0.47854 2.367632,0.47854 1.56238,0 3.099002,-0.60055 4.261466,-1.73454 l 33.916848,-33.09127 c 1.1767,-1.14755 1.84029,-2.72213 1.84029,-4.36585 0,-1.64372 -0.66359,-3.2183 -1.84029,-4.36585 z M 97.176837,20.575051 116.25752,39.191428 97.176837,57.807806 Z m 0,106.275009 V 89.617309 l 19.080683,18.616381 z"
         id="path3607"
         style="stroke-width:0.677822" />
    </g>
    <text
       xml:space="preserve"
       id="text2895"
       style="font-size:7.05556px;line-height:100%;font-family:Quicksand;-inkscape-font-specification:'Quicksand, Normal';text-align:center;letter-spacing:0px;word-spacing:0px;writing-mode:lr-tb;white-space:pre;shape-inside:url(#rect2897);"
       transform="translate(20.717131,179.76812)"
       x="7.9833474"
       y="0"><tspan
         x="69.856068"
         y="36.18937"><tspan
           style="shape-inside:url(#rect2897)">WiFi   BT</tspan></tspan></text>
    <path
       style="fill:none;stroke:#000000;stroke-width:0.75;stroke-linecap:butt;stroke-linejoin:miter;stroke-opacity:1"
       d="m 98.259972,208.64917 0.14597,-15.78384"
       id="path1185"
       sodipodi:nodetypes="cc" />
    <path
       style="fill:none;stroke:#000000;stroke-width:0.75;stroke-linecap:butt;stroke-linejoin:miter;stroke-opacity:1"
       d="m 114.66414,208.64917 0.14597,-15.78384"
       id="path1187"
       sodipodi:nodetypes="cc" />
    <g
       id="g1279"
       transform="matrix(0.625,0,0,0.625,30.648279,249.44011)">
      <path
         d="M 11,11 V 21 H 21 V 11 Z m 8,8 h -6 v -6 h 6 z"
         id="path1265" />
      <path
         d="M 30,13 V 11 H 26 V 8 A 2,2 0 0 0 24,6 H 21 V 2 H 19 V 6 H 13 V 2 H 11 V 6 H 8 A 2,2 0 0 0 6,8 v 3 H 2 v 2 h 4 v 6 H 2 v 2 h 4 v 3 a 2,2 0 0 0 2,2 h 3 v 4 h 2 v -4 h 6 v 4 h 2 v -4 h 3 a 2,2 0 0 0 2,-2 v -3 h 4 V 19 H 26 V 13 Z M 24,24 H 8 V 8 h 16 z"
         id="path1267" />
      <rect
         id="_Transparent_Rectangle_"
         data-name="&lt;Transparent Rectangle&gt;"
         class="cls-1"
         width="32"
         height="32"
         x="0"
         y="0" />
    </g>
    <text
       xml:space="preserve"
       id="text1285"
       style="font-size:6.35px;line-height:100%;font-family:Quicksand;-inkscape-font-specification:'Quicksand, Normal';text-align:center;letter-spacing:0px;word-spacing:0px;writing-mode:lr-tb;white-space:pre;shape-inside:url(#rect1287);"
       transform="translate(-45.215567,203.89264)"
       x="21.251324"
       y="0"><tspan
         x="76.542059"
         y="35.624922"><tspan
           style="font-size:6.35px;text-align:center;text-anchor:middle">Power
</tspan></tspan><tspan
         x="66.140768"
         y="41.97492"><tspan
           style="font-size:6.35px;text-align:center;text-anchor:middle">Management</tspan></tspan></text>
    <path
       style="fill:none;stroke:#000000;stroke-width:0.75;stroke-linecap:butt;stroke-linejoin:miter;stroke-opacity:1"
       d="m 46.548235,233.91786 c 1.916571,-5.07283 9.575459,-2.59697 11.96846,-4.34235 13.692733,-9.98707 -4.098772,-40.31383 16.330386,-47.34962"
       id="path1289"
       sodipodi:nodetypes="csc" />
    <g
       id="g1297"
       transform="matrix(1.3057395,0,0,1,-20.891157,0.40348)">
      <path
         style="fill:none;stroke:#000000;stroke-width:0.5;stroke-linecap:butt;stroke-linejoin:miter;stroke-opacity:1"
         d="M 71.029511,258.54267 55.245671,258.3967"
         id="path1291"
         sodipodi:nodetypes="cc" />
      <path
         style="fill:none;stroke:#000000;stroke-width:0.5;stroke-linecap:butt;stroke-linejoin:miter;stroke-opacity:1"
         d="m 71.029511,259.67656 -15.78384,-0.14597"
         id="path1293"
         sodipodi:nodetypes="cc" />
    </g>
    <path
       style="fill:none;stroke:#000000;stroke-width:0.75;stroke-linecap:butt;stroke-linejoin:miter;stroke-opacity:1"
       d="M 26.647822,259.17064 C -5.3582138,263.09251 18.600387,225.24912 12.374785,183.89187 2.3895089,117.55876 31.769313,147.75279 30.592965,88.508686"
       id="path1138"
       sodipodi:nodetypes="csc" />
  </g>
  <style
     type="text/css"
     id="style2107">
	.st0{fill:#575756;}
</style>
</svg>
