<?xml version="1.0" encoding="UTF-8" standalone="no"?>
<!-- Created with Inkscape (http://www.inkscape.org/) -->

<svg
   xmlns:dc="http://purl.org/dc/elements/1.1/"
   xmlns:cc="http://creativecommons.org/ns#"
   xmlns:rdf="http://www.w3.org/1999/02/22-rdf-syntax-ns#"
   xmlns:svg="http://www.w3.org/2000/svg"
   xmlns="http://www.w3.org/2000/svg"
   xmlns:sodipodi="http://sodipodi.sourceforge.net/DTD/sodipodi-0.dtd"
   xmlns:inkscape="http://www.inkscape.org/namespaces/inkscape"
   width="1052.3622"
   height="744.09448"
   id="svg2"
   version="1.1"
   inkscape:version="0.91 r13725"
   sodipodi:docname="system-architecture.svg"
   inkscape:export-filename="./system-architecture-trans.png"
   inkscape:export-xdpi="90"
   inkscape:export-ydpi="90">
  <defs
     id="defs4" />
  <sodipodi:namedview
     id="base"
     pagecolor="#ffffff"
     bordercolor="#666666"
     borderopacity="1.0"
     inkscape:pageopacity="0.0"
     inkscape:pageshadow="2"
     inkscape:zoom="0.9716508"
     inkscape:cx="164.9402"
     inkscape:cy="296.40832"
     inkscape:document-units="mm"
     inkscape:current-layer="layer1"
     showgrid="false"
     units="mm"
     inkscape:window-width="1600"
     inkscape:window-height="876"
     inkscape:window-x="0"
     inkscape:window-y="24"
     inkscape:window-maximized="1"
     inkscape:snap-midpoints="false" />
  <metadata
     id="metadata7">
    <rdf:RDF>
      <cc:Work
         rdf:about="">
        <dc:format>image/svg+xml</dc:format>
        <dc:type
           rdf:resource="http://purl.org/dc/dcmitype/StillImage" />
        <dc:title />
      </cc:Work>
    </rdf:RDF>
  </metadata>
  <g
     inkscape:label="Layer 1"
     inkscape:groupmode="layer"
     id="layer1"
     transform="translate(0,-308.26769)">
    <path
       sodipodi:nodetypes="cc"
       inkscape:connector-curvature="0"
       id="path4174"
       d="M 396.73207,576.21558 283.17725,543.38046"
       style="fill:none;stroke:#000000;stroke-width:0.97137254px;stroke-linecap:butt;stroke-linejoin:miter;stroke-opacity:1" />
    <rect
       style="opacity:0.42000008;fill:#ffd5d5;fill-opacity:1;stroke:#000000;stroke-width:1.38902998;stroke-miterlimit:4;stroke-dasharray:none;stroke-opacity:1"
       id="rect4196"
       width="294.00983"
       height="461.91818"
       x="749.12854"
       y="582.45312"
       rx="13.497348"
       ry="11.21689" />
    <path
       sodipodi:type="star"
       style="opacity:0.42000008;fill:none;stroke:#000000;stroke-width:2;stroke-miterlimit:4;stroke-dasharray:none;stroke-opacity:1"
       id="path2985"
       sodipodi:sides="10"
       sodipodi:cx="288"
       sodipodi:cy="398.36218"
       sodipodi:r1="254.80972"
       sodipodi:r2="191.10728"
       sodipodi:arg1="0.82981338"
       sodipodi:arg2="1.1439726"
       inkscape:flatsided="false"
       inkscape:rounded="0"
       inkscape:randomized="0"
       d="m 459.99999,586.36218 -92.88509,-14.03785 -50.46761,79.2321 -66.89438,-65.95335 -87.40061,34.43601 -15.35228,-92.67691 -90.949559,-23.51348 42.053861,-84.00104 -59.758863,-72.48161 83.396861,-43.23963 -5.74231,-93.76423 92.88509,14.03785 50.46761,-79.23211 66.89438,65.95335 87.40061,-34.436 15.35228,92.67691 90.94956,23.51347 -42.05386,84.00104 59.75886,72.48161 -83.39686,43.23963 z"
       inkscape:transform-center-x="3.1155875"
       inkscape:transform-center-y="-7.5355831"
       transform="matrix(0.381072,0.04586225,-0.04586225,0.381072,397.05838,440.0333)" />
    <flowRoot
       xml:space="preserve"
       id="flowRoot2987"
       style="font-style:normal;font-variant:normal;font-weight:normal;font-stretch:normal;font-size:33.05729675px;line-height:125%;font-family:Awery;-inkscape-font-specification:Awery;letter-spacing:0px;word-spacing:0px;fill:#000000;fill-opacity:1;stroke:none"
       transform="translate(-20,0)"><flowRegion
         id="flowRegion2989"><rect
           id="rect2991"
           width="166.93936"
           height="135.53493"
           x="457.22128"
           y="585.91205" /></flowRegion><flowPara
         id="flowPara2993"
         style="font-style:normal;font-variant:normal;font-weight:normal;font-stretch:normal;font-family:FreeSans;-inkscape-font-specification:FreeSans;fill:#000080">ESP32</flowPara></flowRoot>    <flowRoot
       style="font-style:normal;font-variant:normal;font-weight:normal;font-stretch:normal;font-size:33.05730057px;line-height:125%;font-family:FreeSans;-inkscape-font-specification:FreeSans;letter-spacing:0px;word-spacing:0px;fill:#000000;fill-opacity:1;stroke:none"
       id="flowRoot3023"
       xml:space="preserve"
       transform="translate(-20,0)"><flowRegion
         id="flowRegion3025"><rect
           style="font-style:normal;font-variant:normal;font-weight:normal;font-stretch:normal;font-family:FreeSans;-inkscape-font-specification:FreeSans"
           y="372.86948"
           x="469.28503"
           height="135.53493"
           width="166.93936"
           id="rect3027" /></flowRegion><flowPara
         style="font-style:normal;font-variant:normal;font-weight:normal;font-stretch:normal;font-family:FreeSans;-inkscape-font-specification:FreeSans"
         id="flowPara3029">LoRa</flowPara></flowRoot>    <flowRoot
       xml:space="preserve"
       id="flowRoot3031"
       style="font-style:normal;font-variant:normal;font-weight:normal;font-stretch:normal;font-size:24.66683578px;line-height:125%;font-family:FreeSans;-inkscape-font-specification:FreeSans;letter-spacing:0px;word-spacing:0px;fill:#000080;fill-opacity:1;stroke:none"
       transform="matrix(0.97137255,0,0,0.97137255,-6.072871,28.119096)"><flowRegion
         id="flowRegion3033"><rect
           id="rect3035"
           width="124.56752"
           height="101.13403"
           x="457.08801"
           y="396.3027"
           style="font-style:normal;font-variant:normal;font-weight:normal;font-stretch:normal;font-family:FreeSans;-inkscape-font-specification:FreeSans;fill:#000080" /></flowRegion><flowPara
         id="flowPara3037"
         style="font-style:normal;font-variant:normal;font-weight:normal;font-stretch:normal;font-family:FreeSans;-inkscape-font-specification:FreeSans;fill:#000080">RFM95W</flowPara></flowRoot>    <flowRoot
       transform="matrix(0.44617242,0,0,0.44617242,346.76509,282.64163)"
       style="font-style:normal;font-variant:normal;font-weight:normal;font-stretch:normal;font-size:40px;line-height:125%;font-family:FreeSans;-inkscape-font-specification:FreeSans;text-align:center;letter-spacing:0px;word-spacing:0px;text-anchor:middle;fill:#000080;fill-opacity:1;stroke:none"
       id="flowRoot3051"
       xml:space="preserve"><flowRegion
         id="flowRegion3053"><rect
           style="font-style:normal;font-variant:normal;font-weight:normal;font-stretch:normal;font-family:FreeSans;-inkscape-font-specification:FreeSans;text-align:center;text-anchor:middle;fill:#000080"
           y="402.36218"
           x="302"
           height="164"
           width="202"
           id="rect3055" /></flowRegion><flowPara
         style="font-style:normal;font-variant:normal;font-weight:normal;font-stretch:normal;font-family:FreeSans;-inkscape-font-specification:FreeSans;text-align:center;text-anchor:middle;fill:#000000"
         id="flowPara3057">SPI</flowPara><flowPara
         style="font-style:normal;font-variant:normal;font-weight:normal;font-stretch:normal;font-family:FreeSans;-inkscape-font-specification:FreeSans;text-align:center;text-anchor:middle;fill:#000000"
         id="flowPara3059">+3 GPIO</flowPara></flowRoot>    <flowRoot
       style="font-style:normal;font-variant:normal;font-weight:normal;font-stretch:normal;font-size:18.37286568px;line-height:125%;font-family:FreeSans;-inkscape-font-specification:FreeSans;text-align:center;letter-spacing:0px;word-spacing:0px;text-anchor:middle;fill:#000080;fill-opacity:1;stroke:none"
       id="flowRoot3051-2"
       xml:space="preserve"
       transform="matrix(0.97137255,0,0,0.97137255,-6.072871,28.119096)"><flowRegion
         id="flowRegion3053-7"><rect
           style="font-style:normal;font-variant:normal;font-weight:normal;font-stretch:normal;font-family:FreeSans;-inkscape-font-specification:FreeSans;text-align:center;text-anchor:middle;fill:#000080"
           y="573.1178"
           x="292.12906"
           height="75.328751"
           width="92.782967"
           id="rect3055-4" /></flowRegion><flowPara
         style="font-style:normal;font-variant:normal;font-weight:normal;font-stretch:normal;font-family:FreeSans;-inkscape-font-specification:FreeSans;text-align:center;text-anchor:middle;fill:#000000"
         id="flowPara3057-0">SPI</flowPara><flowPara
         style="font-style:normal;font-variant:normal;font-weight:normal;font-stretch:normal;font-family:FreeSans;-inkscape-font-specification:FreeSans;text-align:center;text-anchor:middle;fill:#000000"
         id="flowPara3059-3">+1 CS</flowPara></flowRoot>    <flowRoot
       xml:space="preserve"
       id="flowRoot3279"
       style="font-style:normal;font-variant:normal;font-weight:normal;font-stretch:normal;font-size:40px;line-height:125%;font-family:FreeSans;-inkscape-font-specification:FreeSans;text-align:center;letter-spacing:0px;word-spacing:0px;text-anchor:middle;fill:#000080;fill-opacity:1;stroke:none"
       transform="matrix(0.44617242,0,0,0.44617242,137.12097,471.36038)"><flowRegion
         id="flowRegion3281"><rect
           id="rect3283"
           width="202"
           height="164"
           x="302"
           y="402.36218"
           style="font-style:normal;font-variant:normal;font-weight:normal;font-stretch:normal;font-family:FreeSans;-inkscape-font-specification:FreeSans;text-align:center;text-anchor:middle;fill:#000080" /></flowRegion><flowPara
         id="flowPara3285"
         style="font-style:normal;font-variant:normal;font-weight:normal;font-stretch:normal;font-family:FreeSans;-inkscape-font-specification:FreeSans;text-align:center;text-anchor:middle;fill:#000000">SPI</flowPara><flowPara
         id="flowPara3287"
         style="font-style:normal;font-variant:normal;font-weight:normal;font-stretch:normal;font-family:FreeSans;-inkscape-font-specification:FreeSans;text-align:center;text-anchor:middle;fill:#000000">+1 CS</flowPara></flowRoot>    <flowRoot
       style="font-style:normal;font-variant:normal;font-weight:normal;font-stretch:normal;font-size:17.84689713px;line-height:125%;font-family:FreeSans;-inkscape-font-specification:FreeSans;text-align:center;letter-spacing:0px;word-spacing:0px;text-anchor:middle;fill:#000080;fill-opacity:1;stroke:none"
       id="flowRoot3316"
       xml:space="preserve"
       transform="translate(-20,0)"><flowRegion
         id="flowRegion3318"><rect
           style="font-style:normal;font-variant:normal;font-weight:normal;font-stretch:normal;font-family:FreeSans;-inkscape-font-specification:FreeSans;text-align:center;text-anchor:middle;fill:#000080"
           y="786.63464"
           x="261.30447"
           height="73.172279"
           width="90.126823"
           id="rect3320" /></flowRegion><flowPara
         style="font-style:normal;font-variant:normal;font-weight:normal;font-stretch:normal;font-family:FreeSans;-inkscape-font-specification:FreeSans;text-align:center;text-anchor:middle;fill:#000000"
         id="flowPara3322">SPI</flowPara><flowPara
         style="font-style:normal;font-variant:normal;font-weight:normal;font-stretch:normal;font-family:FreeSans;-inkscape-font-specification:FreeSans;text-align:center;text-anchor:middle;fill:#000000"
         id="flowPara3324">+1 CS</flowPara></flowRoot>    <path
       inkscape:connector-curvature="0"
       id="path3049"
       d="m 488.3968,507.80905 0,-51.98895"
       style="fill:none;stroke:#000000;stroke-width:0.97137254px;stroke-linecap:butt;stroke-linejoin:miter;stroke-opacity:1" />
    <flowRoot
       xml:space="preserve"
       id="flowRoot3419"
       style="font-style:normal;font-variant:normal;font-weight:normal;font-stretch:normal;font-size:40px;line-height:125%;font-family:FreeSans;-inkscape-font-specification:FreeSans;text-align:center;letter-spacing:0px;word-spacing:0px;text-anchor:middle;fill:#000080;fill-opacity:1;stroke:none"
       transform="matrix(0.44617242,0,0,0.44617242,298.56035,624.59098)"><flowRegion
         id="flowRegion3421"><rect
           id="rect3423"
           width="202"
           height="164"
           x="302"
           y="402.36218"
           style="font-style:normal;font-variant:normal;font-weight:normal;font-stretch:normal;font-family:FreeSans;-inkscape-font-specification:FreeSans;text-align:center;text-anchor:middle;fill:#000080" /></flowRegion><flowPara
         id="flowPara3425"
         style="font-style:normal;font-variant:normal;font-weight:normal;font-stretch:normal;font-family:FreeSans;-inkscape-font-specification:FreeSans;text-align:center;text-anchor:middle;fill:#000000">SPI</flowPara><flowPara
         id="flowPara3427"
         style="font-style:normal;font-variant:normal;font-weight:normal;font-stretch:normal;font-family:FreeSans;-inkscape-font-specification:FreeSans;text-align:center;text-anchor:middle;fill:#000000">+1 CS</flowPara></flowRoot>    <flowRoot
       xml:space="preserve"
       id="flowRoot3429"
       style="font-style:normal;font-variant:normal;font-weight:normal;font-stretch:normal;font-size:17.84689713px;line-height:125%;font-family:FreeSans;-inkscape-font-specification:FreeSans;text-align:center;letter-spacing:0px;word-spacing:0px;text-anchor:middle;fill:#008000;fill-opacity:1;stroke:none"
       transform="translate(-20,0)"><flowRegion
         id="flowRegion3431"><rect
           id="rect3433"
           width="90.126831"
           height="73.172279"
           x="153.30907"
           y="841.32703"
           style="font-style:normal;font-variant:normal;font-weight:normal;font-stretch:normal;font-family:FreeSans;-inkscape-font-specification:FreeSans;text-align:center;text-anchor:middle;fill:#008000" /></flowRegion><flowPara
         id="flowPara3435"
         style="font-style:normal;font-variant:normal;font-weight:normal;font-stretch:normal;font-family:FreeSans;-inkscape-font-specification:FreeSans;text-align:center;text-anchor:middle;fill:#008000">SD Card</flowPara><flowPara
         id="flowPara3437"
         style="font-style:normal;font-variant:normal;font-weight:normal;font-stretch:normal;font-family:FreeSans;-inkscape-font-specification:FreeSans;text-align:center;text-anchor:middle;fill:#008000">Slot (internal?)</flowPara></flowRoot>    <rect
       style="opacity:0.42000008;fill:none;stroke:#000000;stroke-width:1.94274509;stroke-miterlimit:4;stroke-dasharray:none;stroke-opacity:1"
       id="rect3021"
       width="195.64264"
       height="98.505379"
       x="391.25955"
       y="358.68286"
       rx="17.209356"
       ry="17.209356" />
    <g
       id="g3065"
       transform="matrix(0.82643246,0,0,0.82643246,304.67513,272.08589)">
      <flowRoot
         xml:space="preserve"
         id="flowRoot3023-0"
         style="font-style:normal;font-variant:normal;font-weight:normal;font-stretch:normal;font-size:40px;line-height:125%;font-family:FreeSans;-inkscape-font-specification:FreeSans;letter-spacing:0px;word-spacing:0px;fill:#000000;fill-opacity:1;stroke:none"
         transform="translate(-365.93035,-271.77053)"><flowRegion
           id="flowRegion3025-6"><rect
             id="rect3027-5"
             width="202"
             height="164"
             x="302"
             y="402.36218"
             style="font-style:normal;font-variant:normal;font-weight:normal;font-stretch:normal;font-family:FreeSans;-inkscape-font-specification:FreeSans" /></flowRegion><flowPara
           id="flowPara3029-0"
           style="font-style:normal;font-variant:normal;font-weight:normal;font-stretch:normal;font-family:FreeSans;-inkscape-font-specification:FreeSans">Battery</flowPara></flowRoot>      <flowRoot
         transform="matrix(0.7248229,0,0,0.7248229,-248.61089,-112.39814)"
         style="font-style:normal;font-variant:normal;font-weight:normal;font-stretch:normal;font-size:40px;line-height:125%;font-family:FreeSans;-inkscape-font-specification:FreeSans;letter-spacing:0px;word-spacing:0px;fill:#000080;fill-opacity:1;stroke:none"
         id="flowRoot3031-8"
         xml:space="preserve"><flowRegion
           id="flowRegion3033-1"><rect
             style="font-style:normal;font-variant:normal;font-weight:normal;font-stretch:normal;font-family:FreeSans;-inkscape-font-specification:FreeSans;fill:#000080"
             y="402.36218"
             x="302"
             height="164"
             width="202"
             id="rect3035-2" /></flowRegion><flowPara
           style="font-style:normal;font-variant:normal;font-weight:normal;font-stretch:normal;font-family:FreeSans;-inkscape-font-specification:FreeSans;fill:#000080"
           id="flowPara3037-2">LiPo</flowPara></flowRoot>    </g>
    <rect
       ry="18.251778"
       rx="11.777795"
       y="362.84113"
       x="237.436"
       height="104.47215"
       width="133.89453"
       id="rect3063"
       style="opacity:0.42000008;fill:none;stroke:#000000;stroke-width:1.65514398;stroke-miterlimit:4;stroke-dasharray:none;stroke-opacity:1" />
    <path
       style="fill:none;stroke:#000000;stroke-width:0.97137254px;stroke-linecap:butt;stroke-linejoin:miter;stroke-opacity:1"
       d="M 432.30346,526.96288 309.79658,467.15569"
       id="path3175"
       inkscape:connector-curvature="0"
       sodipodi:nodetypes="cc" />
    <rect
       ry="25.075571"
       rx="13.347534"
       y="565.33173"
       x="109.48598"
       height="143.53116"
       width="151.73993"
       id="rect3209"
       style="opacity:0.42000008;fill:none;stroke:#000000;stroke-width:2.06527138;stroke-miterlimit:4;stroke-dasharray:none;stroke-opacity:1" />
    <g
       transform="matrix(0.82643246,0,0,0.82643246,183.59559,492.0539)"
       id="g3211">
      <flowRoot
         transform="translate(-337.15837,-249.78944)"
         style="font-style:normal;font-variant:normal;font-weight:normal;font-stretch:normal;font-size:40px;line-height:125%;font-family:FreeSans;-inkscape-font-specification:FreeSans;letter-spacing:0px;word-spacing:0px;fill:#000000;fill-opacity:1;stroke:none"
         id="flowRoot3213"
         xml:space="preserve"><flowRegion
           id="flowRegion3215"><rect
             style="font-style:normal;font-variant:normal;font-weight:normal;font-stretch:normal;font-family:FreeSans;-inkscape-font-specification:FreeSans"
             y="402.36218"
             x="302"
             height="164"
             width="202"
             id="rect3217" /></flowRegion><flowPara
           style="font-style:normal;font-variant:normal;font-weight:normal;font-stretch:normal;font-family:FreeSans;-inkscape-font-specification:FreeSans"
           id="flowPara3219">TFT</flowPara></flowRoot>    </g>
    <rect
       style="opacity:0.42000008;fill:none;stroke:#000000;stroke-width:1.23576832;stroke-miterlimit:4;stroke-dasharray:none;stroke-opacity:1"
       id="rect3229"
       width="151.73993"
       height="51.388515"
       x="109.48598"
       y="708.16455"
       rx="13.347534"
       ry="8.9778166" />
    <g
       id="g3231"
       transform="matrix(0.82643246,0,0,0.82643246,183.59559,588.81537)">
      <flowRoot
         xml:space="preserve"
         id="flowRoot3233"
         style="font-style:normal;font-variant:normal;font-weight:normal;font-stretch:normal;font-size:40px;line-height:125%;font-family:FreeSans;-inkscape-font-specification:FreeSans;letter-spacing:0px;word-spacing:0px;fill:#000000;fill-opacity:1;stroke:none"
         transform="translate(-354.16962,-249.78944)"><flowRegion
           id="flowRegion3235"><rect
             id="rect3237"
             width="202"
             height="164"
             x="302"
             y="402.36218"
             style="font-style:normal;font-variant:normal;font-weight:normal;font-stretch:normal;font-family:FreeSans;-inkscape-font-specification:FreeSans" /></flowRegion><flowPara
           id="flowPara3239"
           style="font-style:normal;font-variant:normal;font-weight:normal;font-stretch:normal;font-family:FreeSans;-inkscape-font-specification:FreeSans">Touch</flowPara></flowRoot>      <path
         style="fill:none;stroke:#000000;stroke-width:1px;stroke-linecap:butt;stroke-linejoin:miter;stroke-opacity:1"
         d="m 412.67606,348.31983 -139.43662,1.40846"
         id="path3245"
         inkscape:connector-curvature="0"
         transform="matrix(1.1753804,0,0,1.1753804,-227.15191,-358.43571)" />
      <path
         style="fill:none;stroke:#000000;stroke-width:1px;stroke-linecap:butt;stroke-linejoin:miter;stroke-opacity:1"
         d="m 445.07042,366.62969 -173.23943,85.9155"
         id="path3247"
         inkscape:connector-curvature="0"
         transform="matrix(1.1753804,0,0,1.1753804,-227.15191,-358.43571)" />
    </g>
    <g
       transform="matrix(0.82643246,0,0,0.82643246,174.45648,643.20493)"
       id="g3306">
      <rect
         transform="matrix(1.1753804,0,0,1.1753804,-232.1183,-815.58377)"
         style="opacity:0.42000008;fill:none;stroke:#000000;stroke-width:0.98936695;stroke-miterlimit:4;stroke-dasharray:none;stroke-opacity:1"
         id="rect3291"
         width="68.616257"
         height="72.841614"
         x="167.10034"
         y="819.46259"
         rx="6.0357075"
         ry="12.725775" />
      <flowRoot
         xml:space="preserve"
         id="flowRoot3295"
         style="font-style:normal;font-variant:normal;font-weight:normal;font-stretch:normal;font-size:40px;line-height:125%;font-family:FreeSans;-inkscape-font-specification:FreeSans;text-align:center;letter-spacing:0px;word-spacing:0px;text-anchor:middle;fill:#000000;fill-opacity:1;stroke:none"
         transform="matrix(0.59728861,0,0,0.59728861,-235.74052,-78.682649)"><flowRegion
           id="flowRegion3297"><rect
             id="rect3299"
             width="202"
             height="164"
             x="302"
             y="402.36218"
             style="font-style:normal;font-variant:normal;font-weight:normal;font-stretch:normal;font-family:FreeSans;-inkscape-font-specification:FreeSans;text-align:center;text-anchor:middle" /></flowRegion><flowPara
           id="flowPara3301"
           style="font-style:normal;font-variant:normal;font-weight:normal;font-stretch:normal;font-family:FreeSans;-inkscape-font-specification:FreeSans;text-align:center;text-anchor:middle">SD</flowPara><flowPara
           style="font-style:normal;font-variant:normal;font-weight:normal;font-stretch:normal;font-family:FreeSans;-inkscape-font-specification:FreeSans;text-align:center;text-anchor:middle"
           id="flowPara3303">card</flowPara></flowRoot>    </g>
    <path
       inkscape:connector-curvature="0"
       id="path3314"
       d="m 218.87512,812.90213 c 6.84066,-5.47252 212.06021,-132.70865 212.06021,-132.70865"
       style="fill:none;stroke:#000000;stroke-width:0.97137254px;stroke-linecap:butt;stroke-linejoin:miter;stroke-opacity:1" />
    <rect
       style="opacity:0.42000008;fill:none;stroke:#000000;stroke-width:2.06527138;stroke-miterlimit:4;stroke-dasharray:none;stroke-opacity:1"
       id="rect3365"
       width="151.73993"
       height="143.53116"
       x="109.48598"
       y="565.33173"
       rx="13.347534"
       ry="25.075571" />
    <rect
       ry="16.537973"
       rx="8.8030357"
       y="875.51343"
       x="388.58456"
       height="94.662422"
       width="100.07632"
       id="rect3377"
       style="opacity:0.42000008;fill:none;stroke:#000000;stroke-width:1.36209869;stroke-miterlimit:4;stroke-dasharray:none;stroke-opacity:1" />
    <path
       style="fill:none;stroke:#000000;stroke-width:0.8834365px;stroke-linecap:butt;stroke-linejoin:miter;stroke-opacity:1"
       d="M 440.51224,873.82252 488.3968,700.71543"
       id="path3381"
       inkscape:connector-curvature="0"
       sodipodi:nodetypes="cc" />
    <flowRoot
       transform="matrix(0.44617242,0,0,0.44617242,249.20496,791.74917)"
       style="font-style:normal;font-variant:normal;font-weight:normal;font-stretch:normal;font-size:40px;line-height:125%;font-family:FreeSans;-inkscape-font-specification:FreeSans;text-align:center;letter-spacing:0px;word-spacing:0px;text-anchor:middle;fill:#008000;fill-opacity:1;stroke:none"
       id="flowRoot3550"
       xml:space="preserve"><flowRegion
         id="flowRegion3552"><rect
           style="font-style:normal;font-variant:normal;font-weight:normal;font-stretch:normal;font-family:FreeSans;-inkscape-font-specification:FreeSans;text-align:center;text-anchor:middle;fill:#008000"
           y="402.36218"
           x="302"
           height="164"
           width="202"
           id="rect3554" /></flowRegion><flowPara
         style="font-style:normal;font-variant:normal;font-weight:normal;font-stretch:normal;font-family:FreeSans;-inkscape-font-specification:FreeSans;text-align:center;text-anchor:middle;fill:#008000"
         id="flowPara3558" /></flowRoot>    <g
       transform="matrix(0.82643246,0,0,0.82643246,462.69418,742.82069)"
       id="g3367">
      <flowRoot
         transform="matrix(0.65952524,0,0,0.65952524,-294.76268,-92.054365)"
         style="font-style:normal;font-variant:normal;font-weight:normal;font-stretch:normal;font-size:40px;line-height:125%;font-family:FreeSans;-inkscape-font-specification:FreeSans;text-align:center;letter-spacing:0px;word-spacing:0px;text-anchor:middle;fill:#000000;fill-opacity:1;stroke:none"
         id="flowRoot3369"
         xml:space="preserve"><flowRegion
           id="flowRegion3371"><rect
             style="font-style:normal;font-variant:normal;font-weight:normal;font-stretch:normal;font-family:FreeSans;-inkscape-font-specification:FreeSans;text-align:center;text-anchor:middle"
             y="402.36218"
             x="302"
             height="164"
             width="202"
             id="rect3373" /></flowRegion><flowPara
           id="flowPara3379"
           style="font-style:normal;font-variant:normal;font-weight:normal;font-stretch:normal;font-family:FreeSans;-inkscape-font-specification:FreeSans;text-align:center;text-anchor:middle">Buttons</flowPara><flowPara
           style="font-style:normal;font-variant:normal;font-weight:normal;font-stretch:normal;font-family:FreeSans;-inkscape-font-specification:FreeSans;text-align:center;text-anchor:middle"
           id="flowPara3699">(3)</flowPara></flowRoot>    </g>
    <flowRoot
       xml:space="preserve"
       id="flowRoot3617"
       style="font-style:normal;font-variant:normal;font-weight:normal;font-stretch:normal;font-size:40px;line-height:125%;font-family:FreeSans;-inkscape-font-specification:FreeSans;letter-spacing:0px;word-spacing:0px;fill:#000080;fill-opacity:1;stroke:none"
       transform="matrix(0.47417495,0,0,0.47417495,262.1972,752.15982)"><flowRegion
         id="flowRegion3619"><rect
           id="rect3621"
           width="202"
           height="164"
           x="302"
           y="402.36218"
           style="font-style:normal;font-variant:normal;font-weight:normal;font-stretch:normal;font-family:FreeSans;-inkscape-font-specification:FreeSans;fill:#000080" /></flowRegion><flowPara
         id="flowPara3623"
         style="font-style:normal;font-variant:normal;font-weight:normal;font-stretch:normal;font-family:FreeSans;-inkscape-font-specification:FreeSans;fill:#000080" /></flowRoot>    <path
       style="fill:none;stroke:#000000;stroke-width:0.97137254px;stroke-linecap:butt;stroke-linejoin:miter;stroke-opacity:1"
       d="m 511.65502,674.11898 49.25269,198.3789"
       id="path3643"
       inkscape:connector-curvature="0" />
    <g
       transform="matrix(0.82643246,0,0,0.82643246,587.19403,751.99867)"
       id="g3591">
      <flowRoot
         transform="matrix(0.65952524,0,0,0.65952524,-294.76268,-92.054365)"
         style="font-style:normal;font-variant:normal;font-weight:normal;font-stretch:normal;font-size:40px;line-height:125%;font-family:FreeSans;-inkscape-font-specification:FreeSans;text-align:center;letter-spacing:0px;word-spacing:0px;text-anchor:middle;fill:#000000;fill-opacity:1;stroke:none"
         id="flowRoot3593"
         xml:space="preserve"><flowRegion
           id="flowRegion3595"><rect
             style="font-style:normal;font-variant:normal;font-weight:normal;font-stretch:normal;font-family:FreeSans;-inkscape-font-specification:FreeSans;text-align:center;text-anchor:middle"
             y="402.36218"
             x="302"
             height="164"
             width="202"
             id="rect3597" /></flowRegion><flowPara
           id="flowPara3601"
           style="font-style:normal;font-variant:normal;font-weight:normal;font-stretch:normal;font-family:FreeSans;-inkscape-font-specification:FreeSans;text-align:center;text-anchor:middle">LED</flowPara></flowRoot>    </g>
    <rect
       style="opacity:0.42000008;fill:none;stroke:#000000;stroke-width:1.36209869;stroke-miterlimit:4;stroke-dasharray:none;stroke-opacity:1"
       id="rect3603"
       width="100.07632"
       height="94.662422"
       x="513.08435"
       y="874.14526"
       rx="8.8030357"
       ry="16.537973" />
    <flowRoot
       xml:space="preserve"
       id="flowRoot3607"
       style="font-style:normal;font-variant:normal;font-weight:normal;font-stretch:normal;font-size:40px;line-height:125%;font-family:FreeSans;-inkscape-font-specification:FreeSans;text-align:center;letter-spacing:0px;word-spacing:0px;text-anchor:middle;fill:#008000;fill-opacity:1;stroke:none"
       transform="matrix(0.44617242,0,0,0.44617242,384.93024,795.43083)"><flowRegion
         id="flowRegion3609"><rect
           id="rect3611"
           width="202"
           height="164"
           x="302"
           y="402.36218"
           style="font-style:normal;font-variant:normal;font-weight:normal;font-stretch:normal;font-family:FreeSans;-inkscape-font-specification:FreeSans;text-align:center;text-anchor:middle;fill:#008000" /></flowRegion><flowPara
         style="font-style:normal;font-variant:normal;font-weight:normal;font-stretch:normal;font-family:FreeSans;-inkscape-font-specification:FreeSans;text-align:center;text-anchor:middle;fill:#008000"
         id="flowPara3615">RGB</flowPara></flowRoot>    <flowRoot
       xml:space="preserve"
       id="flowRoot3645"
       style="font-style:normal;font-variant:normal;font-weight:normal;font-stretch:normal;font-size:17.84689713px;line-height:125%;font-family:FreeSans;-inkscape-font-specification:FreeSans;text-align:center;letter-spacing:0px;word-spacing:0px;text-anchor:middle;fill:#000080;fill-opacity:1;stroke:none"
       transform="translate(-20,0)"><flowRegion
         id="flowRegion3647"><rect
           id="rect3649"
           width="90.126823"
           height="73.172279"
           x="547.63666"
           y="790.11487"
           style="font-style:normal;font-variant:normal;font-weight:normal;font-stretch:normal;font-family:FreeSans;-inkscape-font-specification:FreeSans;text-align:center;text-anchor:middle;fill:#000080" /></flowRegion><flowPara
         id="flowPara3651"
         style="font-style:normal;font-variant:normal;font-weight:normal;font-stretch:normal;font-family:FreeSans;-inkscape-font-specification:FreeSans;text-align:center;text-anchor:middle;fill:#000000">GPIOs</flowPara></flowRoot>    <g
       id="g3713"
       transform="matrix(0.76185031,0,0,0.63313115,298.13459,369.17077)">
      <g
         transform="matrix(0.85078836,0,0,0.85078836,838.32861,218.45257)"
         id="g3653">
        <flowRoot
           transform="matrix(0.49408051,0,0,0.49408051,-228.9026,-45.624783)"
           style="font-style:normal;font-variant:normal;font-weight:normal;font-stretch:normal;font-size:40px;line-height:125%;font-family:FreeSans;-inkscape-font-specification:FreeSans;text-align:center;letter-spacing:0px;word-spacing:0px;text-anchor:middle;fill:#000000;fill-opacity:1;stroke:none"
           id="flowRoot3655"
           xml:space="preserve"><flowRegion
             id="flowRegion3657"><rect
               style="font-style:normal;font-variant:normal;font-weight:normal;font-stretch:normal;font-family:FreeSans;-inkscape-font-specification:FreeSans;text-align:center;text-anchor:middle"
               y="402.36218"
               x="302"
               height="164"
               width="202"
               id="rect3659" /></flowRegion><flowPara
             id="flowPara3661"
             style="font-style:normal;font-variant:normal;font-weight:normal;font-stretch:normal;font-family:FreeSans;-inkscape-font-specification:FreeSans;text-align:center;text-anchor:middle">Temp/Humid/ Pressure</flowPara></flowRoot>      </g>
      <rect
         ry="18.874746"
         rx="8.963665"
         y="347.63416"
         x="762.95148"
         height="108.03798"
         width="101.90241"
         id="rect3675"
         style="opacity:0.42000008;fill:none;stroke:#000000;stroke-width:1.46836674;stroke-miterlimit:4;stroke-dasharray:none;stroke-opacity:1" />
    </g>
    <rect
       ry="8.2788191"
       rx="9.9198904"
       y="666.8017"
       x="901.9729"
       height="47.387489"
       width="112.77314"
       id="rect3733"
       style="opacity:0.42000008;fill:none;stroke:#000000;stroke-width:1.023031;stroke-miterlimit:4;stroke-dasharray:none;stroke-opacity:1" />
    <rect
       ry="9.5184641"
       rx="9.3495226"
       y="721.81732"
       x="921.47766"
       height="54.48315"
       width="106.28899"
       id="rect3747"
       style="opacity:0.42000008;fill:none;stroke:#000000;stroke-width:1.06495023;stroke-miterlimit:4;stroke-dasharray:none;stroke-opacity:1" />
    <rect
       style="opacity:0.42000008;fill:none;stroke:#000000;stroke-width:0.96691197;stroke-miterlimit:4;stroke-dasharray:none;stroke-opacity:1"
       id="rect3775"
       width="78.497787"
       height="60.814655"
       x="930.11963"
       y="824.27411"
       rx="6.9049187"
       ry="10.624609" />
    <g
       transform="matrix(0.64817337,0,0,0.53866059,978.29889,807.27834)"
       id="g3779">
      <flowRoot
         transform="matrix(0.65952524,0,0,0.65952524,-294.76268,-113.57542)"
         style="font-style:normal;font-variant:normal;font-weight:normal;font-stretch:normal;font-size:40px;line-height:125%;font-family:FreeSans;-inkscape-font-specification:FreeSans;text-align:center;letter-spacing:0px;word-spacing:0px;text-anchor:middle;fill:#000000;fill-opacity:1;stroke:none"
         id="flowRoot3781"
         xml:space="preserve"><flowRegion
           id="flowRegion3783"><rect
             style="font-style:normal;font-variant:normal;font-weight:normal;font-stretch:normal;font-family:FreeSans;-inkscape-font-specification:FreeSans;text-align:center;text-anchor:middle"
             y="402.36218"
             x="302"
             height="164"
             width="202"
             id="rect3785" /></flowRegion><flowPara
           id="flowPara3787"
           style="font-style:normal;font-variant:normal;font-weight:normal;font-stretch:normal;font-family:FreeSans;-inkscape-font-specification:FreeSans;text-align:center;text-anchor:middle">Water Temp</flowPara></flowRoot>    </g>
    <rect
       ry="9.3067074"
       rx="6.8289709"
       y="891.0672"
       x="920.87256"
       height="53.271069"
       width="77.634384"
       id="rect3789"
       style="opacity:0.42000008;fill:none;stroke:#000000;stroke-width:0.89996737;stroke-miterlimit:4;stroke-dasharray:none;stroke-opacity:1" />
    <rect
       ry="10.808683"
       rx="6.8289709"
       y="947.3067"
       x="887.44788"
       height="61.868294"
       width="77.634384"
       id="rect3803"
       style="opacity:0.42000008;fill:none;stroke:#000000;stroke-width:0.96987373;stroke-miterlimit:4;stroke-dasharray:none;stroke-opacity:1" />
    <flowRoot
       transform="matrix(0.37189678,0,0,0.3090626,777.4191,510.26011)"
       style="font-style:normal;font-variant:normal;font-weight:normal;font-stretch:normal;font-size:40px;line-height:125%;font-family:FreeSans;-inkscape-font-specification:FreeSans;letter-spacing:0px;word-spacing:0px;fill:#000080;fill-opacity:1;stroke:none"
       id="flowRoot3850"
       xml:space="preserve"><flowRegion
         id="flowRegion3852"><rect
           style="font-style:normal;font-variant:normal;font-weight:normal;font-stretch:normal;font-family:FreeSans;-inkscape-font-specification:FreeSans;fill:#000080"
           y="402.36218"
           x="302"
           height="164"
           width="202"
           id="rect3854" /></flowRegion><flowPara
         style="font-style:normal;font-variant:normal;font-weight:normal;font-stretch:normal;font-family:FreeSans;-inkscape-font-specification:FreeSans;fill:#000080"
         id="flowPara3856">BME280</flowPara></flowRoot>    <g
       id="g3874"
       transform="matrix(1.0867437,0,0,0.90313185,72.902077,227.59125)">
      <g
         id="g3723"
         transform="matrix(0.85078836,0,0,0.85078836,839.73706,358.50891)">
        <flowRoot
           xml:space="preserve"
           id="flowRoot3725"
           style="font-style:normal;font-variant:normal;font-weight:normal;font-stretch:normal;font-size:40px;line-height:125%;font-family:FreeSans;-inkscape-font-specification:FreeSans;text-align:center;letter-spacing:0px;word-spacing:0px;text-anchor:middle;fill:#000000;fill-opacity:1;stroke:none"
           transform="matrix(0.65952524,0,0,0.65952524,-294.76268,-111.91995)"><flowRegion
             id="flowRegion3727"><rect
               id="rect3729"
               width="202"
               height="164"
               x="302"
               y="402.36218"
               style="font-style:normal;font-variant:normal;font-weight:normal;font-stretch:normal;font-family:FreeSans;-inkscape-font-specification:FreeSans;text-align:center;text-anchor:middle" /></flowRegion><flowPara
             style="font-style:normal;font-variant:normal;font-weight:normal;font-stretch:normal;font-family:FreeSans;-inkscape-font-specification:FreeSans;text-align:center;text-anchor:middle"
             id="flowPara3731">Dust</flowPara></flowRoot>      </g>
      <flowRoot
         transform="matrix(0.29187094,0,0,0.29187094,684.22031,401.95567)"
         style="font-style:normal;font-variant:normal;font-weight:normal;font-stretch:normal;font-size:40px;line-height:125%;font-family:FreeSans;-inkscape-font-specification:FreeSans;letter-spacing:0px;word-spacing:0px;fill:#000080;fill-opacity:1;stroke:none"
         id="flowRoot3860"
         xml:space="preserve"><flowRegion
           id="flowRegion3862"><rect
             style="font-style:normal;font-variant:normal;font-weight:normal;font-stretch:normal;font-family:FreeSans;-inkscape-font-specification:FreeSans;fill:#000080"
             y="402.36218"
             x="302"
             height="132.26186"
             width="300.09973"
             id="rect3864" /></flowRegion><flowPara
           style="font-style:normal;font-variant:normal;font-weight:normal;font-stretch:normal;font-family:FreeSans;-inkscape-font-specification:FreeSans;fill:#000080"
           id="flowPara3866">GP2Y1010AU0F</flowPara></flowRoot>    </g>
    <g
       transform="matrix(0.64817337,0,0,0.53866059,993.36413,638.46682)"
       id="g3737">
      <flowRoot
         transform="matrix(0.65952524,0,0,0.65952524,-294.76268,-92.054365)"
         style="font-style:normal;font-variant:normal;font-weight:normal;font-stretch:normal;font-size:40px;line-height:125%;font-family:FreeSans;-inkscape-font-specification:FreeSans;text-align:center;letter-spacing:0px;word-spacing:0px;text-anchor:middle;fill:#000000;fill-opacity:1;stroke:none"
         id="flowRoot3739"
         xml:space="preserve"><flowRegion
           id="flowRegion3741"><rect
             style="font-style:normal;font-variant:normal;font-weight:normal;font-stretch:normal;font-family:FreeSans;-inkscape-font-specification:FreeSans;text-align:center;text-anchor:middle"
             y="402.36218"
             x="302"
             height="164"
             width="202"
             id="rect3743" /></flowRegion><flowPara
           id="flowPara3745"
           style="font-style:normal;font-variant:normal;font-weight:normal;font-stretch:normal;font-family:FreeSans;-inkscape-font-specification:FreeSans;text-align:center;text-anchor:middle">Air Quality</flowPara></flowRoot>    </g>
    <flowRoot
       xml:space="preserve"
       id="flowRoot3891"
       style="font-style:normal;font-variant:normal;font-weight:normal;font-stretch:normal;font-size:19.52597618px;line-height:125%;font-family:FreeSans;-inkscape-font-specification:FreeSans;letter-spacing:0px;word-spacing:0px;fill:#000080;fill-opacity:1;stroke:none"
       transform="matrix(0.76185031,0,0,0.63313115,242.20833,383.43851)"><flowRegion
         id="flowRegion3893"><rect
           id="rect3895"
           width="98.606186"
           height="80.056503"
           x="925.53992"
           y="580.82031"
           style="font-style:normal;font-variant:normal;font-weight:normal;font-stretch:normal;font-family:FreeSans;-inkscape-font-specification:FreeSans;fill:#000080" /></flowRegion><flowPara
         id="flowPara3897"
         style="font-style:normal;font-variant:normal;font-weight:normal;font-stretch:normal;font-family:FreeSans;-inkscape-font-specification:FreeSans;fill:#000080">MQ-135</flowPara></flowRoot>    <rect
       style="opacity:0.42000008;fill:none;stroke:#000000;stroke-width:0.77581602;stroke-miterlimit:4;stroke-dasharray:none;stroke-opacity:1"
       id="rect3761"
       width="77.634384"
       height="39.587254"
       x="937.01093"
       y="781.38391"
       rx="6.8289709"
       ry="6.91608" />
    <g
       id="g3751"
       transform="matrix(0.64817337,0,0,0.53866059,994.08937,690.39268)">
      <flowRoot
         xml:space="preserve"
         id="flowRoot3753"
         style="font-style:normal;font-variant:normal;font-weight:normal;font-stretch:normal;font-size:40px;line-height:125%;font-family:FreeSans;-inkscape-font-specification:FreeSans;text-align:center;letter-spacing:0px;word-spacing:0px;text-anchor:middle;fill:#000000;fill-opacity:1;stroke:none"
         transform="matrix(0.65952524,0,0,0.65952524,-294.76268,-92.054365)"><flowRegion
           id="flowRegion3755"><rect
             id="rect3757"
             width="202"
             height="164"
             x="302"
             y="402.36218"
             style="font-style:normal;font-variant:normal;font-weight:normal;font-stretch:normal;font-family:FreeSans;-inkscape-font-specification:FreeSans;text-align:center;text-anchor:middle" /></flowRegion><flowPara
           style="font-style:normal;font-variant:normal;font-weight:normal;font-stretch:normal;font-family:FreeSans;-inkscape-font-specification:FreeSans;text-align:center;text-anchor:middle"
           id="flowPara3759">Light</flowPara></flowRoot>    </g>
    <flowRoot
       xml:space="preserve"
       id="flowRoot3910"
       style="font-style:normal;font-variant:normal;font-weight:normal;font-stretch:normal;font-size:19.52597618px;line-height:125%;font-family:FreeSans;-inkscape-font-specification:FreeSans;letter-spacing:0px;word-spacing:0px;fill:#000080;fill-opacity:1;stroke:none"
       transform="matrix(0.76185031,0,0,0.63313115,242.20833,383.43851)"><flowRegion
         id="flowRegion3912"><rect
           id="rect3914"
           width="98.606186"
           height="80.056503"
           x="924.76965"
           y="663.87695"
           style="font-style:normal;font-variant:normal;font-weight:normal;font-stretch:normal;font-family:FreeSans;-inkscape-font-specification:FreeSans;fill:#000080" /></flowRegion><flowPara
         id="flowPara3916"
         style="font-style:normal;font-variant:normal;font-weight:normal;font-stretch:normal;font-family:FreeSans;-inkscape-font-specification:FreeSans;fill:#000080">TSL2591</flowPara></flowRoot>    <g
       id="g3982"
       transform="matrix(0.76185031,0,0,0.63313115,344.27118,372.13472)">
      <g
         transform="matrix(0.85078836,0,0,0.85078836,846.77931,589.49483)"
         id="g3765">
        <flowRoot
           transform="matrix(0.65952524,0,0,0.65952524,-296.41815,-110.26448)"
           style="font-style:normal;font-variant:normal;font-weight:normal;font-stretch:normal;font-size:40px;line-height:125%;font-family:FreeSans;-inkscape-font-specification:FreeSans;text-align:center;letter-spacing:0px;word-spacing:0px;text-anchor:middle;fill:#000000;fill-opacity:1;stroke:none"
           id="flowRoot3767"
           xml:space="preserve"><flowRegion
             id="flowRegion3769"><rect
               style="font-style:normal;font-variant:normal;font-weight:normal;font-stretch:normal;font-family:FreeSans;-inkscape-font-specification:FreeSans;text-align:center;text-anchor:middle"
               y="402.36218"
               x="302"
               height="164"
               width="202"
               id="rect3771" /></flowRegion><flowPara
             id="flowPara3773"
             style="font-style:normal;font-variant:normal;font-weight:normal;font-stretch:normal;font-family:FreeSans;-inkscape-font-specification:FreeSans;text-align:center;text-anchor:middle">pH</flowPara></flowRoot>      </g>
      <flowRoot
         xml:space="preserve"
         id="flowRoot3968"
         style="font-style:normal;font-variant:normal;font-weight:normal;font-stretch:normal;font-size:40px;line-height:125%;font-family:FreeSans;-inkscape-font-specification:FreeSans;letter-spacing:0px;word-spacing:0px;fill:#000080;fill-opacity:1;stroke:none"
         transform="matrix(0.48814942,0,0,0.48814942,635.97699,554.788)"><flowRegion
           id="flowRegion3970"><rect
             id="rect3972"
             width="202"
             height="164"
             x="302"
             y="402.36218"
             style="font-style:normal;font-variant:normal;font-weight:normal;font-stretch:normal;font-family:FreeSans;-inkscape-font-specification:FreeSans;fill:#000080" /></flowRegion><flowPara
           id="flowPara3974"
           style="font-style:normal;font-variant:normal;font-weight:normal;font-stretch:normal;font-family:FreeSans;-inkscape-font-specification:FreeSans;fill:#000080">Sparky's Widgets</flowPara></flowRoot>    </g>
    <flowRoot
       style="font-style:normal;font-variant:normal;font-weight:normal;font-stretch:normal;font-size:19.52597618px;line-height:125%;font-family:FreeSans;-inkscape-font-specification:FreeSans;letter-spacing:0px;word-spacing:0px;fill:#000080;fill-opacity:1;stroke:none"
       id="flowRoot4002"
       xml:space="preserve"
       transform="matrix(0.76185031,0,0,0.63313115,242.20833,383.43851)"><flowRegion
         id="flowRegion4004"><rect
           style="font-style:normal;font-variant:normal;font-weight:normal;font-stretch:normal;font-family:FreeSans;-inkscape-font-specification:FreeSans;fill:#000080"
           y="856.87665"
           x="899.91553"
           height="80.056503"
           width="98.606186"
           id="rect4006" /></flowRegion><flowPara
         style="font-style:normal;font-variant:normal;font-weight:normal;font-stretch:normal;font-family:FreeSans;-inkscape-font-specification:FreeSans;fill:#000080"
         id="flowPara4008">DS18B20</flowPara></flowRoot>    <g
       transform="matrix(0.64817337,0,0,0.53866059,944.61649,866.40898)"
       id="g3793">
      <flowRoot
         transform="matrix(0.65952524,0,0,0.65952524,-294.76268,-99.106649)"
         style="font-style:normal;font-variant:normal;font-weight:normal;font-stretch:normal;font-size:40px;line-height:125%;font-family:FreeSans;-inkscape-font-specification:FreeSans;text-align:center;letter-spacing:0px;word-spacing:0px;text-anchor:middle;fill:#000000;fill-opacity:1;stroke:none"
         id="flowRoot3795"
         xml:space="preserve"><flowRegion
           id="flowRegion3797"><rect
             style="font-style:normal;font-variant:normal;font-weight:normal;font-stretch:normal;font-family:FreeSans;-inkscape-font-specification:FreeSans;text-align:center;text-anchor:middle"
             y="402.36218"
             x="302"
             height="164"
             width="202"
             id="rect3799" /></flowRegion><flowPara
           id="flowPara3801"
           style="font-style:normal;font-variant:normal;font-weight:normal;font-stretch:normal;font-family:FreeSans;-inkscape-font-specification:FreeSans;text-align:center;text-anchor:middle">Ultrasonic</flowPara><flowPara
           style="font-style:normal;font-variant:normal;font-weight:normal;font-stretch:normal;font-family:FreeSans;-inkscape-font-specification:FreeSans;text-align:center;text-anchor:middle"
           id="flowPara4072">x3</flowPara></flowRoot>    </g>
    <flowRoot
       xml:space="preserve"
       id="flowRoot4016"
       style="font-style:normal;font-variant:normal;font-weight:normal;font-stretch:normal;font-size:40px;line-height:125%;font-family:FreeSans;-inkscape-font-specification:FreeSans;letter-spacing:0px;word-spacing:0px;fill:#000080;fill-opacity:1;stroke:none"
       transform="matrix(0.37189678,0,0,0.3090626,781.73196,867.95645)"><flowRegion
         id="flowRegion4018"><rect
           id="rect4020"
           width="202"
           height="164"
           x="302"
           y="402.36218"
           style="font-style:normal;font-variant:normal;font-weight:normal;font-stretch:normal;font-family:FreeSans;-inkscape-font-specification:FreeSans;fill:#000080" /></flowRegion><flowPara
         id="flowPara4022"
         style="font-style:normal;font-variant:normal;font-weight:normal;font-stretch:normal;font-family:FreeSans;-inkscape-font-specification:FreeSans;fill:#000080">HC-SR04</flowPara></flowRoot>    <flowRoot
       transform="matrix(0.34993433,0,0,0.29081083,720.73348,801.33181)"
       style="font-style:normal;font-variant:normal;font-weight:normal;font-stretch:normal;font-size:40px;line-height:125%;font-family:FreeSans;-inkscape-font-specification:FreeSans;text-align:center;letter-spacing:0px;word-spacing:0px;text-anchor:middle;fill:#000080;fill-opacity:1;stroke:none"
       id="flowRoot4055"
       xml:space="preserve"><flowRegion
         id="flowRegion4057"><rect
           style="font-style:normal;font-variant:normal;font-weight:normal;font-stretch:normal;font-family:FreeSans;-inkscape-font-specification:FreeSans;text-align:center;text-anchor:middle;fill:#000080"
           y="402.36218"
           x="302"
           height="305.05307"
           width="290.92477"
           id="rect4059" /></flowRegion><flowPara
         style="font-style:normal;font-variant:normal;font-weight:normal;font-stretch:normal;font-family:FreeSans;-inkscape-font-specification:FreeSans;text-align:center;text-anchor:middle;fill:#000000"
         id="flowPara4074">4 GPIO</flowPara></flowRoot>    <flowRoot
       transform="matrix(0.34993433,0,0,0.29081083,713.92627,750.60433)"
       style="font-style:normal;font-variant:normal;font-weight:normal;font-stretch:normal;font-size:40px;line-height:125%;font-family:FreeSans;-inkscape-font-specification:FreeSans;text-align:center;letter-spacing:0px;word-spacing:0px;text-anchor:middle;fill:#000080;fill-opacity:1;stroke:none"
       id="flowRoot4086"
       xml:space="preserve"><flowRegion
         id="flowRegion4088"><rect
           style="font-style:normal;font-variant:normal;font-weight:normal;font-stretch:normal;font-family:FreeSans;-inkscape-font-specification:FreeSans;text-align:center;text-anchor:middle;fill:#000080"
           y="402.36218"
           x="302"
           height="305.05307"
           width="290.92477"
           id="rect4090" /></flowRegion><flowPara
         style="font-style:normal;font-variant:normal;font-weight:normal;font-stretch:normal;font-family:FreeSans;-inkscape-font-specification:FreeSans;text-align:center;text-anchor:middle;fill:#000000"
         id="flowPara4092">1-Wire</flowPara></flowRoot>    <flowRoot
       xml:space="preserve"
       id="flowRoot4094"
       style="font-style:normal;font-variant:normal;font-weight:normal;font-stretch:normal;font-size:40px;line-height:125%;font-family:FreeSans;-inkscape-font-specification:FreeSans;text-align:center;letter-spacing:0px;word-spacing:0px;text-anchor:middle;fill:#000080;fill-opacity:1;stroke:none"
       transform="matrix(0.34993433,0,0,0.29081083,723.63754,699.98258)"><flowRegion
         id="flowRegion4096"><rect
           id="rect4098"
           width="202"
           height="164"
           x="302"
           y="402.36218"
           style="font-style:normal;font-variant:normal;font-weight:normal;font-stretch:normal;font-family:FreeSans;-inkscape-font-specification:FreeSans;text-align:center;text-anchor:middle;fill:#000080" /></flowRegion><flowPara
         id="flowPara4100"
         style="font-style:normal;font-variant:normal;font-weight:normal;font-stretch:normal;font-family:FreeSans;-inkscape-font-specification:FreeSans;text-align:center;text-anchor:middle;fill:#000000">I2C</flowPara></flowRoot>    <flowRoot
       transform="matrix(0.34993433,0,0,0.29081083,715.58973,655.39587)"
       style="font-style:normal;font-variant:normal;font-weight:normal;font-stretch:normal;font-size:40px;line-height:125%;font-family:FreeSans;-inkscape-font-specification:FreeSans;text-align:center;letter-spacing:0px;word-spacing:0px;text-anchor:middle;fill:#000080;fill-opacity:1;stroke:none"
       id="flowRoot4102"
       xml:space="preserve"><flowRegion
         id="flowRegion4104"><rect
           style="font-style:normal;font-variant:normal;font-weight:normal;font-stretch:normal;font-family:FreeSans;-inkscape-font-specification:FreeSans;text-align:center;text-anchor:middle;fill:#000080"
           y="402.36218"
           x="302"
           height="164"
           width="202"
           id="rect4106" /></flowRegion><flowPara
         style="font-style:normal;font-variant:normal;font-weight:normal;font-stretch:normal;font-family:FreeSans;-inkscape-font-specification:FreeSans;text-align:center;text-anchor:middle;fill:#000000"
         id="flowPara4108">I2C</flowPara></flowRoot>    <flowRoot
       xml:space="preserve"
       id="flowRoot4110"
       style="font-style:normal;font-variant:normal;font-weight:normal;font-stretch:normal;font-size:40px;line-height:125%;font-family:FreeSans;-inkscape-font-specification:FreeSans;text-align:center;letter-spacing:0px;word-spacing:0px;text-anchor:middle;fill:#000080;fill-opacity:1;stroke:none"
       transform="matrix(0.34993433,0,0,0.29081083,648.5255,525.20271)"><flowRegion
         id="flowRegion4112"><rect
           id="rect4114"
           width="202"
           height="164"
           x="302"
           y="402.36218"
           style="font-style:normal;font-variant:normal;font-weight:normal;font-stretch:normal;font-family:FreeSans;-inkscape-font-specification:FreeSans;text-align:center;text-anchor:middle;fill:#000080" /></flowRegion><flowPara
         id="flowPara4116"
         style="font-style:normal;font-variant:normal;font-weight:normal;font-stretch:normal;font-family:FreeSans;-inkscape-font-specification:FreeSans;text-align:center;text-anchor:middle;fill:#000000">I2C</flowPara></flowRoot>    <flowRoot
       xml:space="preserve"
       id="flowRoot4118"
       style="font-style:normal;font-variant:normal;font-weight:normal;font-stretch:normal;font-size:40px;line-height:125%;font-family:FreeSans;-inkscape-font-specification:FreeSans;text-align:center;letter-spacing:0px;word-spacing:0px;text-anchor:middle;fill:#000080;fill-opacity:1;stroke:none"
       transform="matrix(0.34993433,0,0,0.29081083,646.09405,561.81808)"><flowRegion
         id="flowRegion4120"><rect
           id="rect4122"
           width="202"
           height="164"
           x="302"
           y="402.36218"
           style="font-style:normal;font-variant:normal;font-weight:normal;font-stretch:normal;font-family:FreeSans;-inkscape-font-specification:FreeSans;text-align:center;text-anchor:middle;fill:#000080" /></flowRegion><flowPara
         id="flowPara4124"
         style="font-style:normal;font-variant:normal;font-weight:normal;font-stretch:normal;font-family:FreeSans;-inkscape-font-specification:FreeSans;text-align:center;text-anchor:middle;fill:#000000">1 Analog</flowPara><flowPara
         id="flowPara4126"
         style="font-style:normal;font-variant:normal;font-weight:normal;font-stretch:normal;font-family:FreeSans;-inkscape-font-specification:FreeSans;text-align:center;text-anchor:middle;fill:#000000">+1 GPIO</flowPara></flowRoot>    <flowRoot
       style="font-style:normal;font-variant:normal;font-weight:normal;font-stretch:normal;font-size:18.37286568px;line-height:125%;font-family:FreeSans;-inkscape-font-specification:FreeSans;text-align:center;letter-spacing:0px;word-spacing:0px;text-anchor:middle;fill:#000080;fill-opacity:1;stroke:none"
       id="flowRoot4128"
       xml:space="preserve"
       transform="matrix(0.76185031,0,0,0.63313115,242.20833,383.43851)"><flowRegion
         id="flowRegion4130"><rect
           style="font-style:normal;font-variant:normal;font-weight:normal;font-stretch:normal;font-family:FreeSans;-inkscape-font-specification:FreeSans;text-align:center;text-anchor:middle;fill:#000080"
           y="547.5415"
           x="725.89526"
           height="75.328751"
           width="92.782967"
           id="rect4132" /></flowRegion><flowPara
         style="font-style:normal;font-variant:normal;font-weight:normal;font-stretch:normal;font-family:FreeSans;-inkscape-font-specification:FreeSans;text-align:center;text-anchor:middle;fill:#000000"
         id="flowPara4134">1 Analog</flowPara><flowPara
         style="font-style:normal;font-variant:normal;font-weight:normal;font-stretch:normal;font-family:FreeSans;-inkscape-font-specification:FreeSans;text-align:center;text-anchor:middle;fill:#000000"
         id="flowPara4136" /></flowRoot>    <g
       id="g4156"
       transform="matrix(0.55739733,0,0,0.55739733,160.32296,432.8685)">
      <flowRoot
         xml:space="preserve"
         id="flowRoot4158"
         style="font-style:normal;font-variant:normal;font-weight:normal;font-stretch:normal;font-size:40px;line-height:125%;font-family:FreeSans;-inkscape-font-specification:FreeSans;letter-spacing:0px;word-spacing:0px;fill:#000000;fill-opacity:1;stroke:none"
         transform="translate(-335.5029,-246.47851)"><flowRegion
           id="flowRegion4160"><rect
             id="rect4162"
             width="283.1178"
             height="132.54616"
             x="302"
             y="402.36218"
             style="font-style:normal;font-variant:normal;font-weight:normal;font-stretch:normal;font-family:FreeSans;-inkscape-font-specification:FreeSans" /></flowRegion><flowPara
           id="flowPara4164"
           style="font-style:normal;font-variant:normal;font-weight:normal;font-stretch:normal;font-family:FreeSans;-inkscape-font-specification:FreeSans">Charging port</flowPara></flowRoot>    </g>
    <flowRoot
       xml:space="preserve"
       id="flowRoot4166"
       style="font-style:normal;font-variant:normal;font-weight:normal;font-stretch:normal;font-size:40px;line-height:125%;font-family:FreeSans;-inkscape-font-specification:FreeSans;text-align:center;letter-spacing:0px;word-spacing:0px;text-anchor:middle;fill:#008000;fill-opacity:1;stroke:none"
       transform="matrix(0.44583915,0.01724185,-0.01724185,0.44583915,-83.617027,338.14641)"><flowRegion
         id="flowRegion4168"><rect
           id="rect4170"
           width="202"
           height="164"
           x="302"
           y="402.36218"
           style="font-style:normal;font-variant:normal;font-weight:normal;font-stretch:normal;font-family:FreeSans;-inkscape-font-specification:FreeSans;text-align:center;text-anchor:middle;fill:#008000" /></flowRegion><flowPara
         id="flowPara4172"
         style="font-style:normal;font-variant:normal;font-weight:normal;font-stretch:normal;font-family:FreeSans;-inkscape-font-specification:FreeSans;text-align:center;text-anchor:middle;fill:#008000">microUSB</flowPara></flowRoot>    <flowRoot
       xml:space="preserve"
       id="flowRoot4176"
       style="font-style:normal;font-variant:normal;font-weight:normal;font-stretch:normal;font-size:40px;line-height:125%;font-family:FreeSans;-inkscape-font-specification:FreeSans;text-align:center;letter-spacing:0px;word-spacing:0px;text-anchor:middle;fill:#008000;fill-opacity:1;stroke:none"
       transform="matrix(0.44617242,0,0,0.44617242,308.97905,159.04361)"><flowRegion
         id="flowRegion4178"><rect
           id="rect4180"
           width="202"
           height="164"
           x="302"
           y="402.36218"
           style="font-style:normal;font-variant:normal;font-weight:normal;font-stretch:normal;font-family:FreeSans;-inkscape-font-specification:FreeSans;text-align:center;text-anchor:middle;fill:#008000" /></flowRegion><flowPara
         id="flowPara4182"
         style="font-style:normal;font-variant:normal;font-weight:normal;font-stretch:normal;font-family:FreeSans;-inkscape-font-specification:FreeSans;text-align:center;text-anchor:middle;fill:#008000">SMA</flowPara></flowRoot>    <flowRoot
       xml:space="preserve"
       id="flowRoot4206"
       style="font-style:normal;font-variant:normal;font-weight:normal;font-stretch:normal;font-size:40px;line-height:92.00000167%;font-family:FreeSans;-inkscape-font-specification:FreeSans;text-align:center;letter-spacing:0px;word-spacing:0px;text-anchor:middle;fill:#000000;fill-opacity:1;stroke:none"
       transform="matrix(0.38714658,0,0,0.32173585,502.96714,459.71372)"><flowRegion
         id="flowRegion4208"><rect
           id="rect4210"
           width="1000.2305"
           height="194.48796"
           x="302"
           y="402.36218"
           style="font-style:normal;font-variant:normal;font-weight:normal;font-stretch:normal;line-height:92.00000167%;font-family:FreeSans;-inkscape-font-specification:FreeSans;text-align:center;text-anchor:middle" /></flowRegion><flowPara
         style="font-style:normal;font-variant:normal;font-weight:600;font-stretch:normal;font-size:68.87510681px;line-height:92.00000167%;font-family:FreeSans;-inkscape-font-specification:'FreeSans Semi-Bold';text-align:center;text-anchor:middle"
         id="flowPara4214">Off board</flowPara><flowPara
         style="font-style:normal;font-variant:normal;font-weight:600;font-stretch:normal;font-size:68.87510681px;line-height:92.00000167%;font-family:FreeSans;-inkscape-font-specification:'FreeSans Semi-Bold';text-align:center;text-anchor:middle"
         id="flowPara3692">options</flowPara></flowRoot>    <flowRoot
       style="font-style:normal;font-variant:normal;font-weight:600;font-stretch:normal;font-size:19.74474907px;line-height:125%;font-family:FreeSans;-inkscape-font-specification:'FreeSans Semi-Bold';text-align:center;letter-spacing:0px;word-spacing:0px;text-anchor:middle;fill:#000000;fill-opacity:1;stroke:none"
       id="flowRoot4216"
       xml:space="preserve"
       transform="translate(-20,0)"><flowRegion
         id="flowRegion4218"><rect
           style="font-style:normal;font-variant:normal;font-weight:600;font-stretch:normal;font-family:FreeSans;-inkscape-font-specification:'FreeSans Semi-Bold';text-align:center;text-anchor:middle"
           y="339.94568"
           x="30.139868"
           height="134.31055"
           width="158.54056"
           id="rect4220" /></flowRegion><flowPara
         id="flowPara4224"
         style="font-style:normal;font-variant:normal;font-weight:600;font-stretch:normal;font-size:33.99803925px;font-family:FreeSans;-inkscape-font-specification:'FreeSans Semi-Bold';text-align:center;text-anchor:middle">Core on-board</flowPara><flowPara
         style="font-style:normal;font-variant:normal;font-weight:600;font-stretch:normal;font-size:33.99803925px;font-family:FreeSans;-inkscape-font-specification:'FreeSans Semi-Bold';text-align:center;text-anchor:middle"
         id="flowPara4228">features</flowPara></flowRoot>    <flowRoot
       xml:space="preserve"
       id="flowRoot4230"
       style="font-style:normal;font-variant:normal;font-weight:normal;font-stretch:normal;font-size:17.84689713px;line-height:125%;font-family:FreeSans;-inkscape-font-specification:FreeSans;text-align:center;letter-spacing:0px;word-spacing:0px;text-anchor:middle;fill:#008000;fill-opacity:1;stroke:none"
       transform="translate(-20,0)"><flowRegion
         id="flowRegion4232"><rect
           id="rect4234"
           width="90.126823"
           height="73.172279"
           x="387.31775"
           y="460.2709"
           style="font-style:normal;font-variant:normal;font-weight:normal;font-stretch:normal;font-family:FreeSans;-inkscape-font-specification:FreeSans;text-align:center;text-anchor:middle;fill:#008000" /></flowRegion><flowPara
         id="flowPara4236"
         style="font-style:normal;font-variant:normal;font-weight:normal;font-stretch:normal;font-family:FreeSans;-inkscape-font-specification:FreeSans;text-align:center;text-anchor:middle;fill:#008000">JST (internal)</flowPara></flowRoot>    <flowRoot
       xml:space="preserve"
       id="flowRoot3429-3"
       style="font-style:normal;font-variant:normal;font-weight:normal;font-stretch:normal;font-size:18.37286568px;line-height:125%;font-family:FreeSans;-inkscape-font-specification:FreeSans;text-align:center;letter-spacing:0px;word-spacing:0px;text-anchor:middle;fill:#008000;fill-opacity:1;stroke:none"
       transform="matrix(1.2591409,0,0,1.2591409,117.60712,481.64215)"><flowRegion
         id="flowRegion3431-6"><rect
           id="rect3433-7"
           width="169.80939"
           height="70.016579"
           x="-12.752491"
           y="-3.6098754"
           style="font-style:normal;font-variant:normal;font-weight:normal;font-stretch:normal;font-family:FreeSans;-inkscape-font-specification:FreeSans;text-align:center;text-anchor:middle;fill:#008000" /></flowRegion><flowPara
         style="font-style:normal;font-variant:normal;font-weight:normal;font-stretch:normal;font-family:FreeSans;-inkscape-font-specification:FreeSans;text-align:center;text-anchor:middle;fill:#008000"
         id="flowPara3649">Power button</flowPara></flowRoot>    <path
       sodipodi:nodetypes="cc"
       style="fill:none;stroke:#000000;stroke-width:1.2639519px;stroke-linecap:butt;stroke-linejoin:miter;stroke-opacity:1"
       d="m 334.9199,983.59156 c 7.56494,-8.37855 138.12778,-299.21414 138.12778,-299.21414"
       id="path3342-5"
       inkscape:connector-curvature="0" />
    <g
       id="g4250"
       transform="matrix(0.5059556,0,0,0.42047137,851.78728,899.89257)">
      <flowRoot
         xml:space="preserve"
         id="flowRoot4252"
         style="font-style:normal;font-variant:normal;font-weight:normal;font-stretch:normal;font-size:40px;line-height:125%;font-family:FreeSans;-inkscape-font-specification:FreeSans;text-align:center;letter-spacing:0px;word-spacing:0px;text-anchor:middle;fill:#000000;fill-opacity:1;stroke:none"
         transform="matrix(0.65952524,0,0,0.65952524,-294.76268,-99.106649)"><flowRegion
           id="flowRegion4254"><rect
             id="rect4256"
             width="202"
             height="164"
             x="302"
             y="402.36218"
             style="font-style:normal;font-variant:normal;font-weight:normal;font-stretch:normal;font-family:FreeSans;-inkscape-font-specification:FreeSans;text-align:center;text-anchor:middle" /></flowRegion><flowPara
           style="font-style:normal;font-variant:normal;font-weight:normal;font-stretch:normal;font-family:FreeSans;-inkscape-font-specification:FreeSans;text-align:center;text-anchor:middle"
           id="flowPara4258">433MHz</flowPara><flowPara
           style="font-style:normal;font-variant:normal;font-weight:normal;font-stretch:normal;font-family:FreeSans;-inkscape-font-specification:FreeSans;text-align:center;text-anchor:middle"
           id="flowPara4262">transmitter</flowPara><flowPara
           id="flowPara4260"
           style="font-style:normal;font-variant:normal;font-weight:normal;font-stretch:normal;font-family:FreeSans;-inkscape-font-specification:FreeSans;text-align:center;text-anchor:middle" /></flowRoot>    </g>
    <rect
       style="opacity:0.42000008;fill:none;stroke:#000000;stroke-width:0.8228271;stroke-miterlimit:4;stroke-dasharray:none;stroke-opacity:1"
       id="rect4248"
       width="76.722656"
       height="45.059399"
       x="799.58167"
       y="962.66931"
       rx="6.7487726"
       ry="7.8720894" />
    <flowRoot
       style="font-style:normal;font-variant:normal;font-weight:normal;font-stretch:normal;font-size:18.37286568px;line-height:125%;font-family:FreeSans;-inkscape-font-specification:FreeSans;text-align:center;letter-spacing:0px;word-spacing:0px;text-anchor:middle;fill:#000080;fill-opacity:1;stroke:none"
       id="flowRoot4266"
       xml:space="preserve"
       transform="matrix(0.76185031,0,0,0.63313115,789.31474,751.01465)"><flowRegion
         id="flowRegion4268"><rect
           style="font-style:normal;font-variant:normal;font-weight:normal;font-stretch:normal;font-family:FreeSans;-inkscape-font-specification:FreeSans;text-align:center;text-anchor:middle;fill:#000080"
           y="304.65784"
           x="-38.473087"
           height="140.11748"
           width="133.62804"
           id="rect4270" /></flowRegion><flowPara
         style="font-style:normal;font-variant:normal;font-weight:normal;font-stretch:normal;font-family:FreeSans;-inkscape-font-specification:FreeSans;text-align:center;text-anchor:middle;fill:#000000"
         id="flowPara4272">1 GPIO</flowPara></flowRoot>    <path
       style="fill:none;stroke:#000000;stroke-width:0.97137254px;stroke-linecap:butt;stroke-linejoin:miter;stroke-opacity:1"
       d="m 282.08627,502.00647 c 6.84065,-5.47252 144.97899,58.21483 144.97899,58.21483"
       id="path3307"
       inkscape:connector-curvature="0"
       sodipodi:nodetypes="cc" />
    <flowRoot
       transform="matrix(0.44617242,0,0,0.44617242,206.25312,648.10618)"
       style="font-style:normal;font-variant:normal;font-weight:normal;font-stretch:normal;font-size:40px;line-height:125%;font-family:FreeSans;-inkscape-font-specification:FreeSans;text-align:center;letter-spacing:0px;word-spacing:0px;text-anchor:middle;fill:#000080;fill-opacity:1;stroke:none"
       id="flowRoot3309"
       xml:space="preserve"><flowRegion
         id="flowRegion3311"><rect
           style="font-style:normal;font-variant:normal;font-weight:normal;font-stretch:normal;font-family:FreeSans;-inkscape-font-specification:FreeSans;text-align:center;text-anchor:middle;fill:#000080"
           y="402.36218"
           x="302"
           height="164"
           width="202"
           id="rect3313" /></flowRegion><flowPara
         style="font-style:normal;font-variant:normal;font-weight:normal;font-stretch:normal;font-family:FreeSans;-inkscape-font-specification:FreeSans;text-align:center;text-anchor:middle;fill:#000000"
         id="flowPara3315">I2C</flowPara></flowRoot>    <rect
       style="opacity:0.42000008;fill:none;stroke:#000000;stroke-width:1.36478889;stroke-miterlimit:4;stroke-dasharray:none;stroke-opacity:1"
       id="rect3317"
       width="158.19363"
       height="60.122055"
       x="241.30679"
       y="977.5741"
       rx="13.915222"
       ry="10.503608" />
    <g
       id="g3335"
       transform="matrix(0.97137255,0,0,0.97137255,-6.066859,29.826297)">
      <flowRoot
         transform="matrix(0.5081662,0,0,0.5081662,104.73545,779.81598)"
         style="font-style:normal;font-variant:normal;font-weight:normal;font-stretch:normal;font-size:40px;line-height:125%;font-family:FreeSans;-inkscape-font-specification:FreeSans;text-align:center;letter-spacing:0px;word-spacing:0px;text-anchor:middle;fill:#000000;fill-opacity:1;stroke:none"
         id="flowRoot3319"
         xml:space="preserve"><flowRegion
           id="flowRegion3321"><rect
             style="font-style:normal;font-variant:normal;font-weight:normal;font-stretch:normal;font-family:FreeSans;-inkscape-font-specification:FreeSans;text-align:center;text-anchor:middle"
             y="402.36218"
             x="302"
             height="147.37019"
             width="304.55045"
             id="rect3323" /></flowRegion><flowPara
           id="flowPara3325"
           style="font-style:normal;font-variant:normal;font-weight:normal;font-stretch:normal;font-family:FreeSans;-inkscape-font-specification:FreeSans;text-align:center;text-anchor:middle">Accelerometer</flowPara></flowRoot>      <flowRoot
         style="font-style:normal;font-variant:normal;font-weight:normal;font-stretch:normal;font-size:19.52597618px;line-height:125%;font-family:FreeSans;-inkscape-font-specification:FreeSans;letter-spacing:0px;word-spacing:0px;fill:#000080;fill-opacity:1;stroke:none"
         id="flowRoot3327"
         xml:space="preserve"
         transform="translate(-2,0)"><flowRegion
           id="flowRegion3329"><rect
             style="font-style:normal;font-variant:normal;font-weight:normal;font-stretch:normal;font-family:FreeSans;-inkscape-font-specification:FreeSans;fill:#000080"
             y="1005.9636"
             x="266.83029"
             height="77.239296"
             width="144.6205"
             id="rect3331"
             ry="0" /></flowRegion><flowPara
           style="font-style:normal;font-variant:normal;font-weight:normal;font-stretch:normal;font-family:FreeSans;-inkscape-font-specification:FreeSans;fill:#000080"
           id="flowPara3345">LSM303D 6DOF</flowPara></flowRoot>    </g>
    <g
       id="g3348"
       transform="matrix(0.97137255,0,0,0.97137255,88.781041,-246.95261)">
      <rect
         style="opacity:0.42000008;fill:none;stroke:#000000;stroke-width:1.56660104;stroke-miterlimit:4;stroke-dasharray:none;stroke-opacity:1"
         id="rect3650"
         width="159.48941"
         height="78.573631"
         x="827.10046"
         y="660.29462"
         rx="14.029204"
         ry="13.727184" />
      <g
         transform="translate(564.45427,-309.16294)"
         id="g3335-3">
        <flowRoot
           transform="translate(4,0)"
           xml:space="preserve"
           id="flowRoot3319-6"
           style="font-style:normal;font-variant:normal;font-weight:normal;font-stretch:normal;font-size:20.32664871px;line-height:125%;font-family:FreeSans;-inkscape-font-specification:FreeSans;text-align:center;letter-spacing:0px;word-spacing:0px;text-anchor:middle;fill:#000000;fill-opacity:1;stroke:none"><flowRegion
             id="flowRegion3321-7"><rect
               id="rect3323-5"
               width="154.76224"
               height="74.88855"
               x="260.20163"
               y="984.28284"
               style="font-style:normal;font-variant:normal;font-weight:normal;font-stretch:normal;font-family:FreeSans;-inkscape-font-specification:FreeSans;text-align:center;text-anchor:middle" /></flowRegion><flowPara
             id="flowPara3691"
             style="font-style:normal;font-variant:normal;font-weight:normal;font-stretch:normal;font-family:FreeSans;-inkscape-font-specification:FreeSans;text-align:center;text-anchor:middle">I2C expander</flowPara><flowPara
             id="flowPara3697"
             style="font-style:normal;font-variant:normal;font-weight:normal;font-stretch:normal;font-family:FreeSans;-inkscape-font-specification:FreeSans;text-align:center;text-anchor:middle">MOSFETS</flowPara></flowRoot>      </g>
    </g>
    <g
       id="g3357"
       transform="matrix(0.97137255,0,0,0.97137255,-71.218959,-98.609048)">
      <rect
         style="opacity:0.42000008;fill:none;stroke:#000000;stroke-width:1.34898567;stroke-miterlimit:4;stroke-dasharray:none;stroke-opacity:1"
         id="rect3650-1"
         width="149.93083"
         height="61.974857"
         x="832.80493"
         y="514.98547"
         rx="13.1884"
         ry="10.827301" />
      <g
         transform="matrix(1.0406697,0,0,1,552.73167,-462.86295)"
         id="g3335-3-2">
        <flowRoot
           transform="translate(4,0)"
           xml:space="preserve"
           id="flowRoot3319-6-7"
           style="font-style:normal;font-variant:normal;font-weight:normal;font-stretch:normal;font-size:20.32664871px;line-height:125%;font-family:FreeSans;-inkscape-font-specification:FreeSans;text-align:center;letter-spacing:0px;word-spacing:0px;text-anchor:middle;fill:#000000;fill-opacity:1;stroke:none"><flowRegion
             id="flowRegion3321-7-0"><rect
               id="rect3323-5-9"
               width="154.76224"
               height="74.88855"
               x="260.20163"
               y="984.28284"
               style="font-style:normal;font-variant:normal;font-weight:normal;font-stretch:normal;font-family:FreeSans;-inkscape-font-specification:FreeSans;text-align:center;text-anchor:middle" /></flowRegion><flowPara
             id="flowPara3748"
             style="font-style:normal;font-variant:normal;font-weight:normal;font-stretch:normal;font-family:FreeSans;-inkscape-font-specification:FreeSans;text-align:center;text-anchor:middle">featherwing</flowPara><flowPara
             id="flowPara3327"
             style="font-style:normal;font-variant:normal;font-weight:normal;font-stretch:normal;font-family:FreeSans;-inkscape-font-specification:FreeSans;text-align:center;text-anchor:middle">sockets</flowPara></flowRoot>      </g>
    </g>
    <flowRoot
       style="font-style:normal;font-variant:normal;font-weight:600;font-stretch:normal;font-size:20.32664871px;line-height:125%;font-family:FreeSans;-inkscape-font-specification:'FreeSans Semi-Bold';text-align:center;letter-spacing:0px;word-spacing:0px;text-anchor:middle;fill:#000000;fill-opacity:1;stroke:none"
       id="flowRoot4216-0"
       xml:space="preserve"
       transform="matrix(0.97137255,0,0,0.97137255,767.90095,-25.06508)"><flowRegion
         id="flowRegion4218-6"><rect
           style="font-style:normal;font-variant:normal;font-weight:600;font-stretch:normal;font-family:FreeSans;-inkscape-font-specification:'FreeSans Semi-Bold';text-align:center;text-anchor:middle"
           y="348.91168"
           x="25.849253"
           height="138.26883"
           width="163.21292"
           id="rect4220-2" /></flowRegion><flowPara
         style="font-style:normal;font-variant:normal;font-weight:600;font-stretch:normal;font-size:35px;font-family:FreeSans;-inkscape-font-specification:'FreeSans Semi-Bold';text-align:center;text-anchor:middle"
         id="flowPara4228-1">Expander</flowPara><flowPara
         style="font-style:normal;font-variant:normal;font-weight:600;font-stretch:normal;font-size:35px;font-family:FreeSans;-inkscape-font-specification:'FreeSans Semi-Bold';text-align:center;text-anchor:middle"
         id="flowPara3779">board</flowPara></flowRoot>    <g
       id="g3339"
       transform="matrix(0.97137255,0,0,0.97137255,-71.218959,-85.662102)">
      <rect
         style="opacity:0.42000008;fill:none;stroke:#000000;stroke-width:1.49948919;stroke-miterlimit:4;stroke-dasharray:none;stroke-opacity:1"
         id="rect3650-8"
         width="152.65701"
         height="75.207603"
         x="830.41138"
         y="573.64075"
         rx="13.428205"
         ry="13.139124" />
      <g
         transform="translate(562.40687,-397.76718)"
         id="g3335-3-7">
        <flowRoot
           transform="translate(4,0)"
           xml:space="preserve"
           id="flowRoot3319-6-9"
           style="font-style:normal;font-variant:normal;font-weight:normal;font-stretch:normal;font-size:20.32664871px;line-height:125%;font-family:FreeSans;-inkscape-font-specification:FreeSans;text-align:center;letter-spacing:0px;word-spacing:0px;text-anchor:middle;fill:#000000;fill-opacity:1;stroke:none"><flowRegion
             id="flowRegion3321-7-2"><rect
               id="rect3323-5-0"
               width="154.76224"
               height="74.88855"
               x="260.20163"
               y="984.28284"
               style="font-style:normal;font-variant:normal;font-weight:normal;font-stretch:normal;font-family:FreeSans;-inkscape-font-specification:FreeSans;text-align:center;text-anchor:middle" /></flowRegion><flowPara
             id="flowPara3816"
             style="font-style:normal;font-variant:normal;font-weight:normal;font-stretch:normal;font-family:FreeSans;-inkscape-font-specification:FreeSans;text-align:center;text-anchor:middle">footprint for</flowPara><flowPara
             id="flowPara3822"
             style="font-style:normal;font-variant:normal;font-weight:normal;font-stretch:normal;font-family:FreeSans;-inkscape-font-specification:FreeSans;text-align:center;text-anchor:middle">5x2 header</flowPara></flowRoot>      </g>
    </g>
    <path
       style="fill:none;stroke:#ff0000;stroke-width:2.86776567;stroke-linecap:butt;stroke-linejoin:miter;stroke-opacity:1"
       d="M 728.44221,520.43753 573.58616,598.86489"
       id="path3329"
       inkscape:connector-curvature="0"
       sodipodi:nodetypes="cc" />
    <flowRoot
       transform="matrix(0.97137255,0,0,0.97137255,70.07725,-254.54523)"
       style="font-style:normal;font-variant:normal;font-weight:normal;font-stretch:normal;font-size:18.37286568px;line-height:125%;font-family:FreeSans;-inkscape-font-specification:FreeSans;text-align:center;letter-spacing:0px;word-spacing:0px;text-anchor:middle;fill:#000080;fill-opacity:1;stroke:none"
       id="flowRoot3331"
       xml:space="preserve"><flowRegion
         id="flowRegion3333"><rect
           style="font-style:normal;font-variant:normal;font-weight:normal;font-stretch:normal;font-family:FreeSans;-inkscape-font-specification:FreeSans;text-align:center;text-anchor:middle;fill:#000080"
           y="784.45264"
           x="549.43854"
           height="75.328751"
           width="92.782967"
           id="rect3335" /></flowRegion><flowPara
         style="font-style:normal;font-variant:normal;font-weight:normal;font-stretch:normal;font-family:FreeSans;-inkscape-font-specification:FreeSans;text-align:center;text-anchor:middle;fill:#000000"
         id="flowPara3337">Flat flex cable</flowPara></flowRoot>    <g
       id="g3357-3"
       transform="matrix(0.97137255,0,0,0.97137255,-573.74707,36.84223)">
      <rect
         style="opacity:0.42000008;fill:#ffffff;stroke:#000000;stroke-width:0.66963655;stroke-miterlimit:4;stroke-dasharray:none;stroke-opacity:1"
         id="rect3650-1-6"
         width="59.804703"
         height="38.285542"
         x="897.84253"
         y="514.64575"
         rx="5.2606149"
         ry="6.6886644" />
      <g
         transform="matrix(0.64019284,0,0,0.6151739,708.68259,-86.820929)"
         id="g3335-3-2-7">
        <flowRoot
           transform="translate(4,0)"
           xml:space="preserve"
           id="flowRoot3319-6-7-5"
           style="font-style:normal;font-variant:normal;font-weight:normal;font-stretch:normal;font-size:20.32664871px;line-height:125%;font-family:FreeSans;-inkscape-font-specification:FreeSans;text-align:center;letter-spacing:0px;word-spacing:0px;text-anchor:middle;fill:#000000;fill-opacity:1;stroke:none"><flowRegion
             id="flowRegion3321-7-0-3"><rect
               id="rect3323-5-9-5"
               width="154.76224"
               height="74.88855"
               x="260.20163"
               y="984.28284"
               style="font-style:normal;font-variant:normal;font-weight:normal;font-stretch:normal;font-family:FreeSans;-inkscape-font-specification:FreeSans;text-align:center;text-anchor:middle" /></flowRegion><flowPara
             id="flowPara3327-2"
             style="font-style:normal;font-variant:normal;font-weight:normal;font-stretch:normal;font-family:FreeSans;-inkscape-font-specification:FreeSans;text-align:center;text-anchor:middle">usb/uart</flowPara><flowPara
             style="font-style:normal;font-variant:normal;font-weight:normal;font-stretch:normal;font-family:FreeSans;-inkscape-font-specification:FreeSans;text-align:center;text-anchor:middle"
             id="flowPara3702">CP2104</flowPara></flowRoot>      </g>
    </g>
    <rect
       style="opacity:0.42000008;fill:none;stroke:#000000;stroke-width:0.94216913;stroke-miterlimit:4;stroke-dasharray:none;stroke-opacity:1"
       id="rect3603-1"
       width="111.81719"
       height="40.536007"
       x="616.53632"
       y="646.91138"
       rx="9.8358002"
       ry="7.0818319" />
    <g
       transform="matrix(0.82643246,0,0,0.82643246,696.7445,510.5501)"
       id="g3591-2">
      <flowRoot
         transform="matrix(0.65952524,0,0,0.65952524,-294.76268,-92.054365)"
         style="font-style:normal;font-variant:normal;font-weight:normal;font-stretch:normal;font-size:40px;line-height:125%;font-family:FreeSans;-inkscape-font-specification:FreeSans;text-align:center;letter-spacing:0px;word-spacing:0px;text-anchor:middle;fill:#000000;fill-opacity:1;stroke:none"
         id="flowRoot3593-7"
         xml:space="preserve"><flowRegion
           id="flowRegion3595-0"><rect
             style="font-style:normal;font-variant:normal;font-weight:normal;font-stretch:normal;font-family:FreeSans;-inkscape-font-specification:FreeSans;text-align:center;text-anchor:middle"
             y="402.36218"
             x="302"
             height="164"
             width="202"
             id="rect3597-9" /></flowRegion><flowPara
           id="flowPara3601-3"
           style="font-style:normal;font-variant:normal;font-weight:normal;font-stretch:normal;font-family:FreeSans;-inkscape-font-specification:FreeSans;text-align:center;text-anchor:middle">Vibe motor</flowPara></flowRoot>    </g>
    <rect
       style="opacity:0.42000008;fill:none;stroke:#000000;stroke-width:0.94216913;stroke-miterlimit:4;stroke-dasharray:none;stroke-opacity:1"
       id="rect3603-1-6"
       width="111.81719"
       height="40.536007"
       x="615.15674"
       y="716.8161"
       rx="9.8358002"
       ry="7.0818319" />
    <g
       transform="matrix(0.82643246,0,0,0.82643246,695.36489,580.45483)"
       id="g3591-2-0">
      <flowRoot
         transform="matrix(0.65952524,0,0,0.65952524,-294.76268,-92.054365)"
         style="font-style:normal;font-variant:normal;font-weight:normal;font-stretch:normal;font-size:40px;line-height:125%;font-family:FreeSans;-inkscape-font-specification:FreeSans;text-align:center;letter-spacing:0px;word-spacing:0px;text-anchor:middle;fill:#000000;fill-opacity:1;stroke:none"
         id="flowRoot3593-7-6"
         xml:space="preserve"><flowRegion
           id="flowRegion3595-0-2"><rect
             style="font-style:normal;font-variant:normal;font-weight:normal;font-stretch:normal;font-family:FreeSans;-inkscape-font-specification:FreeSans;text-align:center;text-anchor:middle"
             y="402.36218"
             x="302"
             height="164"
             width="202"
             id="rect3597-9-6" /></flowRegion><flowPara
           id="flowPara3601-3-1"
           style="font-style:normal;font-variant:normal;font-weight:normal;font-stretch:normal;font-family:FreeSans;-inkscape-font-specification:FreeSans;text-align:center;text-anchor:middle">IR blaster</flowPara></flowRoot>    </g>
    <path
       style="fill:none;fill-rule:evenodd;stroke:#000000;stroke-width:1px;stroke-linecap:butt;stroke-linejoin:miter;stroke-opacity:1"
       d="m 575.30957,640.69164 c 39.1087,29.84612 39.1087,29.84612 39.1087,29.84612"
       id="path3791"
       inkscape:connector-curvature="0" />
    <path
       style="fill:none;fill-rule:evenodd;stroke:#000000;stroke-width:1px;stroke-linecap:butt;stroke-linejoin:miter;stroke-opacity:1"
       d="m 548.55098,666.42105 c 64.83811,69.98399 65.86729,69.98399 65.86729,69.98399"
       id="path3793"
       inkscape:connector-curvature="0" />
    <flowRoot
       xml:space="preserve"
       id="flowRoot3645-8"
       style="font-style:normal;font-variant:normal;font-weight:normal;font-stretch:normal;font-size:17.84689713px;line-height:125%;font-family:FreeSans;-inkscape-font-specification:FreeSans;text-align:center;letter-spacing:0px;word-spacing:0px;text-anchor:middle;fill:#000080;fill-opacity:1;stroke:none"
       transform="translate(28.786599,-93.99851)"><flowRegion
         id="flowRegion3647-7"><rect
           id="rect3649-9"
           width="90.126823"
           height="73.172279"
           x="547.63666"
           y="790.11487"
           style="font-style:normal;font-variant:normal;font-weight:normal;font-stretch:normal;font-family:FreeSans;-inkscape-font-specification:FreeSans;text-align:center;text-anchor:middle;fill:#000080" /></flowRegion><flowPara
         style="font-style:normal;font-variant:normal;font-weight:normal;font-stretch:normal;font-family:FreeSans;-inkscape-font-specification:FreeSans;text-align:center;text-anchor:middle;fill:#000000"
         id="flowPara3819">1 GPIO</flowPara></flowRoot>    <flowRoot
       xml:space="preserve"
       id="flowRoot3645-8-0"
       style="font-style:normal;font-variant:normal;font-weight:normal;font-stretch:normal;font-size:17.84689713px;line-height:125%;font-family:FreeSans;-inkscape-font-specification:FreeSans;text-align:center;letter-spacing:0px;word-spacing:0px;text-anchor:middle;fill:#000080;fill-opacity:1;stroke:none"
       transform="translate(16.203935,-163.73218)"><flowRegion
         id="flowRegion3647-7-2"><rect
           id="rect3649-9-3"
           width="90.126823"
           height="73.172279"
           x="547.63666"
           y="790.11487"
           style="font-style:normal;font-variant:normal;font-weight:normal;font-stretch:normal;font-family:FreeSans;-inkscape-font-specification:FreeSans;text-align:center;text-anchor:middle;fill:#000080" /></flowRegion><flowPara
         style="font-style:normal;font-variant:normal;font-weight:normal;font-stretch:normal;font-family:FreeSans;-inkscape-font-specification:FreeSans;text-align:center;text-anchor:middle;fill:#000000"
         id="flowPara3819-7">1 GPIO</flowPara></flowRoot>    <text
       xml:space="preserve"
       style="font-style:normal;font-weight:normal;font-size:40px;line-height:125%;font-family:sans-serif;letter-spacing:0px;word-spacing:0px;fill:#000000;fill-opacity:1;stroke:none;stroke-width:1px;stroke-linecap:butt;stroke-linejoin:miter;stroke-opacity:1"
       x="1220.7656"
       y="853.0033"
       id="text3847"
       sodipodi:linespacing="125%"><tspan
         sodipodi:role="line"
         id="tspan3849"
         x="1220.7656"
         y="853.0033" /></text>
    <flowRoot
       xml:space="preserve"
       id="flowRoot4206-3"
       style="font-style:normal;font-variant:normal;font-weight:normal;font-stretch:normal;font-size:40px;line-height:92.00000167%;font-family:FreeSans;-inkscape-font-specification:FreeSans;text-align:start;letter-spacing:0px;word-spacing:0px;text-anchor:start;fill:#000000;fill-opacity:1;stroke:none"
       transform="matrix(0.38714658,0,0,0.32173585,642.43922,879.17749)"><flowRegion
         id="flowRegion4208-6"><rect
           id="rect4210-7"
           width="1000.2305"
           height="194.48796"
           x="302"
           y="402.36218"
           style="font-style:normal;font-variant:normal;font-weight:normal;font-stretch:normal;line-height:92.00000167%;font-family:FreeSans;-inkscape-font-specification:FreeSans;text-align:start;text-anchor:start" /></flowRegion><flowPara
         style="font-style:normal;font-variant:normal;font-weight:600;font-stretch:normal;font-size:68.87510681px;line-height:92.00000167%;font-family:FreeSans;-inkscape-font-specification:'FreeSans Semi-Bold';text-align:start;text-anchor:start"
         id="flowPara4214-5">Etc.: GPS, motors,</flowPara><flowPara
         style="font-style:normal;font-variant:normal;font-weight:600;font-stretch:normal;font-size:68.87510681px;line-height:92.00000167%;font-family:FreeSans;-inkscape-font-specification:'FreeSans Semi-Bold';text-align:start;text-anchor:start"
         id="flowPara3728">PIR, etc etc</flowPara><flowPara
         style="font-style:normal;font-variant:normal;font-weight:600;font-stretch:normal;font-size:68.87510681px;line-height:92.00000167%;font-family:FreeSans;-inkscape-font-specification:'FreeSans Semi-Bold';text-align:start;text-anchor:start"
         id="flowPara3692-3" /></flowRoot>  </g>
</svg>
