# partitions.csv
# copied from
# tooling/esp32-arduino-lib-builder/components/arduino/tools/partitions/rainmaker.csv
#
# as noted at https://github.com/espressif/arduino-esp32/issues/4551 the IDE
# will pick this up, but NOT the max app size implied, so choose a big
# partitioning scheme (single app) to avoid "too smalL" errors
#
# Name,   Type, SubType, Offset,  Size, Flags
nvs,       data,  nvs,     0x9000,   0x5000,
otadata,   data,  ota,     0xe000,   0x2000,
ota_0,     app,   ota_0,   0x10000,  0x1E0000,
ota_1,     app,   ota_1,   0x1F0000, 0x1E0000,
fctry,     data,  nvs,     0x3D0000, 0x6000,
