(export (version D)
  (design
    (source /home/enduser/kicad/pumperv3/pumperv3.sch)
    (date "Wed 27 Mar 2019 18:21:43 GMT")
    (tool "Eeschema 5.0.2+dfsg1-1~bpo9+1")
    (sheet (number 1) (name /) (tstamps /)
      (title_block
        (title "Pump, solenoid and ultrasonic breakout board")
        (company BitFIXit)
        (rev 3)
        (date 2019-02-06)
        (source pumperv3.sch)
        (comment (number 1) (value ""))
        (comment (number 2) (value ""))
        (comment (number 3) (value ""))
        (comment (number 4) (value "")))))
  (components
    (comp (ref J1)
      (value 8P8C)
      (footprint boardlibrary:TE-Connectivity-5520259-4)
      (datasheet ~)
      (libsource (lib pumperv3-rescue) (part 8P8C-Connector) (description ""))
      (sheetpath (names /) (tstamps /))
      (tstamp 5BD9AE2E))
    (comp (ref J4)
      (value Conn_01x04_Female)
      (footprint Connector_PinHeader_2.54mm:PinHeader_1x04_P2.54mm_Vertical)
      (datasheet ~)
      (libsource (lib pumperv3-rescue) (part Conn_01x04_Female-Connector) (description ""))
      (sheetpath (names /) (tstamps /))
      (tstamp 5BD9B228))
    (comp (ref J2)
      (value Conn_01x02_Female)
      (footprint Connector_JST:JST_XH_B02B-XH-A_1x02_P2.50mm_Vertical)
      (datasheet ~)
      (libsource (lib pumperv3-rescue) (part Conn_01x02_Female-Connector) (description ""))
      (sheetpath (names /) (tstamps /))
      (tstamp 5BD9B351))
    (comp (ref J3)
      (value Conn_01x02_Female)
      (footprint Connector_JST:JST_XH_B02B-XH-A_1x02_P2.50mm_Vertical)
      (datasheet ~)
      (libsource (lib pumperv3-rescue) (part Conn_01x02_Female-Connector) (description ""))
      (sheetpath (names /) (tstamps /))
      (tstamp 5BD9B3AF))
    (comp (ref D1)
      (value 1N4148)
      (footprint Diode_SMD:D_SOD-123)
      (datasheet http://www.vishay.com/docs/88503/1n4001.pdf)
      (libsource (lib pumperv3-rescue) (part 1N4001-Diode) (description ""))
      (sheetpath (names /) (tstamps /))
      (tstamp 5BD9EB90))
    (comp (ref D2)
      (value 1N4148)
      (footprint Diode_SMD:D_SOD-123)
      (datasheet http://www.vishay.com/docs/88503/1n4001.pdf)
      (libsource (lib pumperv3-rescue) (part 1N4001-Diode) (description ""))
      (sheetpath (names /) (tstamps /))
      (tstamp 5BD9F07E))
    (comp (ref D3)
      (value LED_RABG)
      (footprint boardlibrary:LED_Lite-On_LTST-S310F3WT_3.2x1.5mmx1_Side_View)
      (datasheet ~)
      (libsource (lib LED) (part ASMB-MTB1-0A3A2) (description "Tricolor Black Surface LED, Common Anode Pin 4, PLCC-4"))
      (sheetpath (names /) (tstamps /))
      (tstamp 5BDC90CF))
    (comp (ref R2)
      (value 200R)
      (footprint Resistor_SMD:R_0805_2012Metric_Pad1.15x1.40mm_HandSolder)
      (datasheet ~)
      (libsource (lib pumperv3-rescue) (part R-Device) (description ""))
      (sheetpath (names /) (tstamps /))
      (tstamp 5BDC9CDC))
    (comp (ref R1)
      (value 330R)
      (footprint Resistor_SMD:R_0805_2012Metric_Pad1.15x1.40mm_HandSolder)
      (datasheet ~)
      (libsource (lib pumperv3-rescue) (part R-Device) (description ""))
      (sheetpath (names /) (tstamps /))
      (tstamp 5BDCE990))
    (comp (ref R3)
      (value 200R)
      (footprint Resistor_SMD:R_0805_2012Metric_Pad1.15x1.40mm_HandSolder)
      (datasheet ~)
      (libsource (lib pumperv3-rescue) (part R-Device) (description ""))
      (sheetpath (names /) (tstamps /))
      (tstamp 5BDCE9C2)))
  (libparts
    (libpart (lib LED) (part ASMB-MTB1-0A3A2)
      (description "Tricolor Black Surface LED, Common Anode Pin 4, PLCC-4")
      (docs https://docs.broadcom.com/docs/AV02-4194EN)
      (footprints
        (fp *Avago*PLCC4*3.2x2.8mm*))
      (fields
        (field (name Reference) D)
        (field (name Value) ASMB-MTB1-0A3A2)
        (field (name Footprint) LED_SMD:LED_Avago_PLCC4_3.2x2.8mm_CW))
      (pins
        (pin (num 1) (name RK) (type passive))
        (pin (num 2) (name GK) (type passive))
        (pin (num 3) (name BK) (type passive))
        (pin (num 4) (name A) (type passive))))
    (libpart (lib pumperv3-rescue) (part 1N4001-Diode)
      (footprints
        (fp D*DO?41*))
      (fields
        (field (name Reference) D)
        (field (name Value) 1N4001-Diode)
        (field (name Footprint) Diode_THT:D_DO-41_SOD81_P10.16mm_Horizontal))
      (pins
        (pin (num 1) (name K) (type passive))
        (pin (num 2) (name A) (type passive))))
    (libpart (lib pumperv3-rescue) (part 8P8C-Connector)
      (footprints
        (fp 8P8C*)
        (fp RJ31*)
        (fp RJ32*)
        (fp RJ33*)
        (fp RJ34*)
        (fp RJ35*)
        (fp RJ41*)
        (fp RJ45*)
        (fp RJ49*)
        (fp RJ61*))
      (fields
        (field (name Reference) J)
        (field (name Value) 8P8C-Connector))
      (pins
        (pin (num 1) (name ~) (type passive))
        (pin (num 2) (name ~) (type passive))
        (pin (num 3) (name ~) (type passive))
        (pin (num 4) (name ~) (type passive))
        (pin (num 5) (name ~) (type passive))
        (pin (num 6) (name ~) (type passive))
        (pin (num 7) (name ~) (type passive))
        (pin (num 8) (name ~) (type passive))))
    (libpart (lib pumperv3-rescue) (part Conn_01x02_Female-Connector)
      (footprints
        (fp Connector*:*_1x??_*))
      (fields
        (field (name Reference) J)
        (field (name Value) Conn_01x02_Female-Connector))
      (pins
        (pin (num 1) (name Pin_1) (type passive))
        (pin (num 2) (name Pin_2) (type passive))))
    (libpart (lib pumperv3-rescue) (part Conn_01x04_Female-Connector)
      (footprints
        (fp Connector*:*_1x??_*))
      (fields
        (field (name Reference) J)
        (field (name Value) Conn_01x04_Female-Connector))
      (pins
        (pin (num 1) (name Pin_1) (type passive))
        (pin (num 2) (name Pin_2) (type passive))
        (pin (num 3) (name Pin_3) (type passive))
        (pin (num 4) (name Pin_4) (type passive))))
    (libpart (lib pumperv3-rescue) (part R-Device)
      (footprints
        (fp R_*))
      (fields
        (field (name Reference) R)
        (field (name Value) R-Device))
      (pins
        (pin (num 1) (name ~) (type passive))
        (pin (num 2) (name ~) (type passive)))))
  (libraries
    (library (logical LED)
      (uri /usr/share/kicad/library/LED.lib))
    (library (logical pumperv3-rescue)
      (uri /home/enduser/kicad/pumperv3/pumperv3-rescue.lib)))
  (nets
    (net (code 1) (name "Net-(J1-Pad5)")
      (node (ref J1) (pin 5)))
    (net (code 3) (name "Net-(D3-Pad3)")
      (node (ref D3) (pin 3))
      (node (ref R3) (pin 1)))
    (net (code 4) (name "Net-(D3-Pad1)")
      (node (ref R1) (pin 1))
      (node (ref D3) (pin 1)))
    (net (code 5) (name /RX)
      (node (ref J1) (pin 2))
      (node (ref J4) (pin 2)))
    (net (code 6) (name /SOL)
      (node (ref J1) (pin 8))
      (node (ref D2) (pin 2))
      (node (ref J3) (pin 1))
      (node (ref R3) (pin 2)))
    (net (code 7) (name /PMP)
      (node (ref D1) (pin 2))
      (node (ref J1) (pin 7))
      (node (ref J2) (pin 1))
      (node (ref R1) (pin 2)))
    (net (code 8) (name /GND)
      (node (ref R2) (pin 2))
      (node (ref J4) (pin 4))
      (node (ref J1) (pin 1)))
    (net (code 9) (name /3V)
      (node (ref J1) (pin 6))
      (node (ref D1) (pin 1))
      (node (ref J3) (pin 2))
      (node (ref D2) (pin 1))
      (node (ref J2) (pin 2)))
    (net (code 10) (name /TX)
      (node (ref J1) (pin 3))
      (node (ref J4) (pin 3)))
    (net (code 11) (name "Net-(D3-Pad2)")
      (node (ref R2) (pin 1))
      (node (ref D3) (pin 2)))
    (net (code 12) (name /5V)
      (node (ref D3) (pin 4))
      (node (ref J1) (pin 4))
      (node (ref J4) (pin 1)))))