%TF.GenerationSoftware,KiCad,Pcbnew,(5.0.2)-1*%
%TF.CreationDate,2019-01-20T19:52:30+00:00*%
%TF.ProjectId,waterelfv6,77617465-7265-46c6-9676-362e6b696361,rev?*%
%TF.SameCoordinates,Original*%
%TF.FileFunction,Copper,L2,Bot*%
%TF.FilePolarity,Positive*%
%FSLAX46Y46*%
G04 Gerber Fmt 4.6, Leading zero omitted, Abs format (unit mm)*
G04 Created by KiCad (PCBNEW (5.0.2)-1) date 20/01/2019 19:52:30*
%MOMM*%
%LPD*%
G01*
G04 APERTURE LIST*
%ADD10C,0.200000*%
%ADD11R,1.700000X1.700000*%
%ADD12O,1.700000X1.700000*%
%ADD13R,1.500000X1.500000*%
%ADD14C,1.500000*%
%ADD15C,1.616000*%
%ADD16C,0.800000*%
%ADD17C,0.250000*%
%ADD18C,0.254000*%
G04 APERTURE END LIST*
D10*
X106800000Y-43000000D02*
X161600000Y-43000000D01*
X106800000Y-115700000D02*
X106800000Y-43000000D01*
X161600000Y-115700000D02*
X106800000Y-115700000D01*
X161600000Y-43000000D02*
X161600000Y-115700000D01*
D11*
X156000000Y-112200000D03*
D12*
X153460000Y-112200000D03*
X150920000Y-112200000D03*
X148380000Y-112200000D03*
D11*
X156200000Y-107425000D03*
D12*
X158740000Y-107425000D03*
D11*
X140500000Y-112300000D03*
D12*
X137960000Y-112300000D03*
X135420000Y-112300000D03*
X132880000Y-112300000D03*
X130340000Y-112300000D03*
X127800000Y-112300000D03*
D13*
X115900000Y-102500000D03*
D14*
X115900000Y-100460000D03*
X115900000Y-98420000D03*
X115900000Y-96380000D03*
X117680000Y-101480000D03*
X117680000Y-99440000D03*
X117680000Y-97400000D03*
X117680000Y-95360000D03*
D15*
X158360000Y-68810000D03*
X158360000Y-71350000D03*
X158360000Y-73890000D03*
X158360000Y-76430000D03*
X158360000Y-78970000D03*
X158360000Y-81510000D03*
X158360000Y-84050000D03*
X158360000Y-86590000D03*
X158360000Y-89130000D03*
X158360000Y-91670000D03*
X158360000Y-94210000D03*
X158360000Y-96750000D03*
X138040000Y-58650000D03*
X138040000Y-61190000D03*
X138040000Y-63730000D03*
X138040000Y-66270000D03*
X138040000Y-68810000D03*
X138040000Y-71350000D03*
X138040000Y-73890000D03*
X138040000Y-76430000D03*
X138040000Y-78970000D03*
X138040000Y-81510000D03*
X138040000Y-84050000D03*
X138040000Y-86590000D03*
X138040000Y-89130000D03*
X138040000Y-91670000D03*
X138040000Y-96750000D03*
X138040000Y-94210000D03*
D14*
X117680000Y-75860000D03*
X117680000Y-77900000D03*
X117680000Y-79940000D03*
X117680000Y-81980000D03*
X115900000Y-76880000D03*
X115900000Y-78920000D03*
X115900000Y-80960000D03*
D13*
X115900000Y-83000000D03*
D14*
X117680000Y-56160000D03*
X117680000Y-58200000D03*
X117680000Y-60240000D03*
X117680000Y-62280000D03*
X115900000Y-57180000D03*
X115900000Y-59220000D03*
X115900000Y-61260000D03*
D13*
X115900000Y-63300000D03*
D12*
X132620000Y-47975000D03*
X135160000Y-47975000D03*
D11*
X137700000Y-47975000D03*
D12*
X118020000Y-48000000D03*
X120560000Y-48000000D03*
D11*
X123100000Y-48000000D03*
D16*
X127700000Y-56000000D03*
X134650000Y-56250000D03*
X138050000Y-56250000D03*
X135450000Y-52150000D03*
X127550000Y-63550000D03*
X134800000Y-63500000D03*
X136050000Y-84950000D03*
X135700000Y-96900000D03*
X126900000Y-102350000D03*
X142000000Y-107200000D03*
X141850000Y-94300000D03*
X139400000Y-99050000D03*
X135600000Y-105700000D03*
X135850000Y-109200000D03*
X149200000Y-102600000D03*
X155550000Y-114450000D03*
X159950000Y-114250000D03*
X160150000Y-103650000D03*
X151600000Y-79450000D03*
X145000000Y-71950000D03*
X160000000Y-63800000D03*
X160100000Y-44750000D03*
X130750000Y-44250000D03*
X147600000Y-52850000D03*
X108650000Y-44650000D03*
X115850000Y-50700000D03*
X116600000Y-69850000D03*
X109100000Y-69750000D03*
X135700000Y-90150000D03*
X117550000Y-91300000D03*
X117150000Y-86500000D03*
X109200000Y-89100000D03*
X108650000Y-113850000D03*
X124750000Y-114300000D03*
X124800000Y-109100000D03*
X122125000Y-88875000D03*
X121000000Y-83500000D03*
X120950000Y-99300000D03*
X121025000Y-64325000D03*
X119100000Y-59200000D03*
X119100000Y-57200000D03*
X119100000Y-76900000D03*
X119100000Y-78850000D03*
X119100000Y-96450000D03*
X119100000Y-98350000D03*
X139175000Y-107300000D03*
X122350000Y-84025000D03*
X129600000Y-59700000D03*
X129150000Y-79375000D03*
X122100000Y-78900000D03*
X120000000Y-77900000D03*
X128850000Y-98850000D03*
D17*
X153460000Y-113402081D02*
X152912081Y-113950000D01*
X153460000Y-112200000D02*
X153460000Y-113402081D01*
X141600000Y-112300000D02*
X140500000Y-112300000D01*
X143250000Y-113950000D02*
X141600000Y-112300000D01*
X152912081Y-113950000D02*
X143250000Y-113950000D01*
X138040000Y-61190000D02*
X140500000Y-63650000D01*
X140500000Y-63650000D02*
X140500000Y-112300000D01*
X137232001Y-79777999D02*
X137232001Y-80067999D01*
X138040000Y-78970000D02*
X137232001Y-79777999D01*
X137232001Y-80067999D02*
X134050000Y-83250000D01*
X134050000Y-83250000D02*
X134050000Y-88475000D01*
X134050000Y-88475000D02*
X133650000Y-88875000D01*
X133650000Y-88875000D02*
X122125000Y-88875000D01*
X121000000Y-83700000D02*
X121000000Y-83500000D01*
X121000000Y-99250000D02*
X120950000Y-99300000D01*
X121000000Y-83500000D02*
X121000000Y-99250000D01*
X121000000Y-64350000D02*
X121025000Y-64325000D01*
X121000000Y-83500000D02*
X121000000Y-64350000D01*
X128050000Y-71350000D02*
X121025000Y-64325000D01*
X138040000Y-71350000D02*
X128050000Y-71350000D01*
X117680000Y-60240000D02*
X118060000Y-60240000D01*
X118060000Y-60240000D02*
X119100000Y-59200000D01*
X117680000Y-60240000D02*
X119100000Y-61650000D01*
X119100000Y-61650000D02*
X119100000Y-76900000D01*
X119100000Y-78850000D02*
X119100000Y-79150000D01*
X118010000Y-79940000D02*
X119100000Y-78850000D01*
X117680000Y-79940000D02*
X118010000Y-79940000D01*
X117680000Y-79940000D02*
X119100000Y-81360000D01*
X119100000Y-81360000D02*
X119100000Y-94700000D01*
X119100000Y-94700000D02*
X119100000Y-96450000D01*
X119100000Y-98350000D02*
X117680000Y-99440000D01*
X119100000Y-98350000D02*
X119100000Y-103500000D01*
X119100000Y-103500000D02*
X119100000Y-103625000D01*
X119100000Y-103625000D02*
X122650000Y-107175000D01*
X122650000Y-107175000D02*
X139050000Y-107175000D01*
X139050000Y-107175000D02*
X139175000Y-107300000D01*
X122749999Y-83625001D02*
X125849999Y-83625001D01*
X122350000Y-84025000D02*
X122749999Y-83625001D01*
X125849999Y-83625001D02*
X126575000Y-82900000D01*
X126575000Y-82900000D02*
X133350000Y-82900000D01*
X133350000Y-82900000D02*
X136100000Y-80150000D01*
X136100000Y-78370000D02*
X138040000Y-76430000D01*
X136100000Y-80150000D02*
X136100000Y-78370000D01*
X150920000Y-112200000D02*
X150920000Y-110920000D01*
X150920000Y-100380000D02*
X150920000Y-112200000D01*
X150920000Y-99330000D02*
X150920000Y-100380000D01*
X158360000Y-96750000D02*
X153500000Y-96750000D01*
X153500000Y-96750000D02*
X150920000Y-99330000D01*
X132620000Y-49177081D02*
X133917919Y-50475000D01*
X132620000Y-47975000D02*
X132620000Y-49177081D01*
X133917919Y-50475000D02*
X147775000Y-50475000D01*
X147775000Y-50475000D02*
X149725000Y-52425000D01*
X149725000Y-52425000D02*
X149725000Y-56625000D01*
X149725000Y-56625000D02*
X155875000Y-62775000D01*
X157552001Y-90862001D02*
X158360000Y-91670000D01*
X155875000Y-89185000D02*
X157552001Y-90862001D01*
X155875000Y-62775000D02*
X155875000Y-89185000D01*
X120560000Y-46797919D02*
X121857919Y-45500000D01*
X120560000Y-48000000D02*
X120560000Y-46797919D01*
X121857919Y-45500000D02*
X144025000Y-45500000D01*
X144025000Y-45500000D02*
X150575000Y-52050000D01*
X150575000Y-52050000D02*
X150575000Y-56375000D01*
X150575000Y-56375000D02*
X156775000Y-62575000D01*
X156775000Y-82465000D02*
X158360000Y-84050000D01*
X156775000Y-62575000D02*
X156775000Y-82465000D01*
X120000000Y-58200000D02*
X120000000Y-77900000D01*
X117680000Y-58200000D02*
X120000000Y-58200000D01*
X120000000Y-77900000D02*
X117680000Y-77900000D01*
X117680000Y-97400000D02*
X119600000Y-97400000D01*
X120000000Y-77900000D02*
X120000000Y-96750000D01*
X119600000Y-97400000D02*
X120000000Y-97000000D01*
X120000000Y-97000000D02*
X120000000Y-96750000D01*
X120000000Y-58275000D02*
X120000000Y-58200000D01*
X121425000Y-59700000D02*
X120000000Y-58275000D01*
X129600000Y-59700000D02*
X121425000Y-59700000D01*
X129150000Y-79375000D02*
X122425000Y-79375000D01*
X122425000Y-79375000D02*
X122100000Y-79050000D01*
X122100000Y-79050000D02*
X122100000Y-78900000D01*
X120000000Y-97800000D02*
X120000000Y-99775000D01*
X119600000Y-97400000D02*
X120000000Y-97800000D01*
X120000000Y-99775000D02*
X120450000Y-100225000D01*
X120450000Y-100225000D02*
X123800000Y-100225000D01*
X123800000Y-100225000D02*
X125175000Y-98850000D01*
X125175000Y-98850000D02*
X128850000Y-98850000D01*
D18*
G36*
X160865001Y-114965000D02*
X107535000Y-114965000D01*
X107535000Y-110646029D01*
X108515000Y-110646029D01*
X108515000Y-111753971D01*
X108938991Y-112777576D01*
X109722424Y-113561009D01*
X110746029Y-113985000D01*
X111853971Y-113985000D01*
X112877576Y-113561009D01*
X113661009Y-112777576D01*
X113858827Y-112300000D01*
X126285908Y-112300000D01*
X126401161Y-112879418D01*
X126729375Y-113370625D01*
X127220582Y-113698839D01*
X127653744Y-113785000D01*
X127946256Y-113785000D01*
X128379418Y-113698839D01*
X128870625Y-113370625D01*
X129070000Y-113072239D01*
X129269375Y-113370625D01*
X129760582Y-113698839D01*
X130193744Y-113785000D01*
X130486256Y-113785000D01*
X130919418Y-113698839D01*
X131410625Y-113370625D01*
X131610000Y-113072239D01*
X131809375Y-113370625D01*
X132300582Y-113698839D01*
X132733744Y-113785000D01*
X133026256Y-113785000D01*
X133459418Y-113698839D01*
X133950625Y-113370625D01*
X134150000Y-113072239D01*
X134349375Y-113370625D01*
X134840582Y-113698839D01*
X135273744Y-113785000D01*
X135566256Y-113785000D01*
X135999418Y-113698839D01*
X136490625Y-113370625D01*
X136703843Y-113051522D01*
X136764817Y-113181358D01*
X137193076Y-113571645D01*
X137603110Y-113741476D01*
X137833000Y-113620155D01*
X137833000Y-112427000D01*
X137813000Y-112427000D01*
X137813000Y-112173000D01*
X137833000Y-112173000D01*
X137833000Y-110979845D01*
X137603110Y-110858524D01*
X137193076Y-111028355D01*
X136764817Y-111418642D01*
X136703843Y-111548478D01*
X136490625Y-111229375D01*
X135999418Y-110901161D01*
X135566256Y-110815000D01*
X135273744Y-110815000D01*
X134840582Y-110901161D01*
X134349375Y-111229375D01*
X134150000Y-111527761D01*
X133950625Y-111229375D01*
X133459418Y-110901161D01*
X133026256Y-110815000D01*
X132733744Y-110815000D01*
X132300582Y-110901161D01*
X131809375Y-111229375D01*
X131610000Y-111527761D01*
X131410625Y-111229375D01*
X130919418Y-110901161D01*
X130486256Y-110815000D01*
X130193744Y-110815000D01*
X129760582Y-110901161D01*
X129269375Y-111229375D01*
X129070000Y-111527761D01*
X128870625Y-111229375D01*
X128379418Y-110901161D01*
X127946256Y-110815000D01*
X127653744Y-110815000D01*
X127220582Y-110901161D01*
X126729375Y-111229375D01*
X126401161Y-111720582D01*
X126285908Y-112300000D01*
X113858827Y-112300000D01*
X114085000Y-111753971D01*
X114085000Y-110646029D01*
X113661009Y-109622424D01*
X112877576Y-108838991D01*
X111853971Y-108415000D01*
X110746029Y-108415000D01*
X109722424Y-108838991D01*
X108938991Y-109622424D01*
X108515000Y-110646029D01*
X107535000Y-110646029D01*
X107535000Y-104840458D01*
X111100000Y-104840458D01*
X111100000Y-105739542D01*
X111444065Y-106570187D01*
X112079813Y-107205935D01*
X112910458Y-107550000D01*
X113809542Y-107550000D01*
X114640187Y-107205935D01*
X115275935Y-106570187D01*
X115620000Y-105739542D01*
X115620000Y-104840458D01*
X115275935Y-104009813D01*
X115151122Y-103885000D01*
X115614250Y-103885000D01*
X115773000Y-103726250D01*
X115773000Y-102627000D01*
X114673750Y-102627000D01*
X114515000Y-102785750D01*
X114515000Y-103322211D01*
X113809542Y-103030000D01*
X112910458Y-103030000D01*
X112079813Y-103374065D01*
X111444065Y-104009813D01*
X111100000Y-104840458D01*
X107535000Y-104840458D01*
X107535000Y-92140458D01*
X111100000Y-92140458D01*
X111100000Y-93039542D01*
X111444065Y-93870187D01*
X112079813Y-94505935D01*
X112910458Y-94850000D01*
X113809542Y-94850000D01*
X114640187Y-94505935D01*
X115275935Y-93870187D01*
X115620000Y-93039542D01*
X115620000Y-92140458D01*
X115275935Y-91309813D01*
X114640187Y-90674065D01*
X113809542Y-90330000D01*
X112910458Y-90330000D01*
X112079813Y-90674065D01*
X111444065Y-91309813D01*
X111100000Y-92140458D01*
X107535000Y-92140458D01*
X107535000Y-85340458D01*
X111100000Y-85340458D01*
X111100000Y-86239542D01*
X111444065Y-87070187D01*
X112079813Y-87705935D01*
X112910458Y-88050000D01*
X113809542Y-88050000D01*
X114640187Y-87705935D01*
X115275935Y-87070187D01*
X115620000Y-86239542D01*
X115620000Y-85340458D01*
X115275935Y-84509813D01*
X115151122Y-84385000D01*
X115614250Y-84385000D01*
X115773000Y-84226250D01*
X115773000Y-83127000D01*
X114673750Y-83127000D01*
X114515000Y-83285750D01*
X114515000Y-83822211D01*
X113809542Y-83530000D01*
X112910458Y-83530000D01*
X112079813Y-83874065D01*
X111444065Y-84509813D01*
X111100000Y-85340458D01*
X107535000Y-85340458D01*
X107535000Y-72640458D01*
X111100000Y-72640458D01*
X111100000Y-73539542D01*
X111444065Y-74370187D01*
X112079813Y-75005935D01*
X112910458Y-75350000D01*
X113809542Y-75350000D01*
X114640187Y-75005935D01*
X115275935Y-74370187D01*
X115620000Y-73539542D01*
X115620000Y-72640458D01*
X115275935Y-71809813D01*
X114640187Y-71174065D01*
X113809542Y-70830000D01*
X112910458Y-70830000D01*
X112079813Y-71174065D01*
X111444065Y-71809813D01*
X111100000Y-72640458D01*
X107535000Y-72640458D01*
X107535000Y-65640458D01*
X111100000Y-65640458D01*
X111100000Y-66539542D01*
X111444065Y-67370187D01*
X112079813Y-68005935D01*
X112910458Y-68350000D01*
X113809542Y-68350000D01*
X114640187Y-68005935D01*
X115275935Y-67370187D01*
X115620000Y-66539542D01*
X115620000Y-65640458D01*
X115275935Y-64809813D01*
X115151122Y-64685000D01*
X115614250Y-64685000D01*
X115773000Y-64526250D01*
X115773000Y-63427000D01*
X114673750Y-63427000D01*
X114515000Y-63585750D01*
X114515000Y-64122211D01*
X113809542Y-63830000D01*
X112910458Y-63830000D01*
X112079813Y-64174065D01*
X111444065Y-64809813D01*
X111100000Y-65640458D01*
X107535000Y-65640458D01*
X107535000Y-56904506D01*
X114515000Y-56904506D01*
X114515000Y-57455494D01*
X114725853Y-57964540D01*
X114961313Y-58200000D01*
X114725853Y-58435460D01*
X114515000Y-58944506D01*
X114515000Y-59495494D01*
X114725853Y-60004540D01*
X114961313Y-60240000D01*
X114725853Y-60475460D01*
X114515000Y-60984506D01*
X114515000Y-61535494D01*
X114725853Y-62044540D01*
X114741644Y-62060331D01*
X114611673Y-62190302D01*
X114515000Y-62423691D01*
X114515000Y-63014250D01*
X114673750Y-63173000D01*
X115773000Y-63173000D01*
X115773000Y-63153000D01*
X116027000Y-63153000D01*
X116027000Y-63173000D01*
X116047000Y-63173000D01*
X116047000Y-63427000D01*
X116027000Y-63427000D01*
X116027000Y-64526250D01*
X116185750Y-64685000D01*
X116776310Y-64685000D01*
X117009699Y-64588327D01*
X117188327Y-64409698D01*
X117285000Y-64176309D01*
X117285000Y-63615499D01*
X117404506Y-63665000D01*
X117955494Y-63665000D01*
X118340000Y-63505733D01*
X118340001Y-74634267D01*
X117955494Y-74475000D01*
X117404506Y-74475000D01*
X116895460Y-74685853D01*
X116505853Y-75075460D01*
X116309144Y-75550359D01*
X116175494Y-75495000D01*
X115624506Y-75495000D01*
X115115460Y-75705853D01*
X114725853Y-76095460D01*
X114515000Y-76604506D01*
X114515000Y-77155494D01*
X114725853Y-77664540D01*
X114961313Y-77900000D01*
X114725853Y-78135460D01*
X114515000Y-78644506D01*
X114515000Y-79195494D01*
X114725853Y-79704540D01*
X114961313Y-79940000D01*
X114725853Y-80175460D01*
X114515000Y-80684506D01*
X114515000Y-81235494D01*
X114725853Y-81744540D01*
X114741644Y-81760331D01*
X114611673Y-81890302D01*
X114515000Y-82123691D01*
X114515000Y-82714250D01*
X114673750Y-82873000D01*
X115773000Y-82873000D01*
X115773000Y-82853000D01*
X116027000Y-82853000D01*
X116027000Y-82873000D01*
X116047000Y-82873000D01*
X116047000Y-83127000D01*
X116027000Y-83127000D01*
X116027000Y-84226250D01*
X116185750Y-84385000D01*
X116776310Y-84385000D01*
X117009699Y-84288327D01*
X117188327Y-84109698D01*
X117285000Y-83876309D01*
X117285000Y-83315499D01*
X117404506Y-83365000D01*
X117955494Y-83365000D01*
X118340000Y-83205733D01*
X118340001Y-94134267D01*
X117955494Y-93975000D01*
X117404506Y-93975000D01*
X116895460Y-94185853D01*
X116505853Y-94575460D01*
X116309144Y-95050359D01*
X116175494Y-94995000D01*
X115624506Y-94995000D01*
X115115460Y-95205853D01*
X114725853Y-95595460D01*
X114515000Y-96104506D01*
X114515000Y-96655494D01*
X114725853Y-97164540D01*
X114961313Y-97400000D01*
X114725853Y-97635460D01*
X114515000Y-98144506D01*
X114515000Y-98695494D01*
X114725853Y-99204540D01*
X114961313Y-99440000D01*
X114725853Y-99675460D01*
X114515000Y-100184506D01*
X114515000Y-100735494D01*
X114725853Y-101244540D01*
X114741644Y-101260331D01*
X114611673Y-101390302D01*
X114515000Y-101623691D01*
X114515000Y-102214250D01*
X114673750Y-102373000D01*
X115773000Y-102373000D01*
X115773000Y-102353000D01*
X116027000Y-102353000D01*
X116027000Y-102373000D01*
X116047000Y-102373000D01*
X116047000Y-102627000D01*
X116027000Y-102627000D01*
X116027000Y-103726250D01*
X116185750Y-103885000D01*
X116776310Y-103885000D01*
X117009699Y-103788327D01*
X117188327Y-103609698D01*
X117285000Y-103376309D01*
X117285000Y-102815499D01*
X117404506Y-102865000D01*
X117955494Y-102865000D01*
X118340001Y-102705733D01*
X118340001Y-103425144D01*
X118340000Y-103425149D01*
X118340000Y-103550153D01*
X118325112Y-103625000D01*
X118340000Y-103699847D01*
X118340000Y-103699852D01*
X118384096Y-103921537D01*
X118552071Y-104172929D01*
X118615529Y-104215330D01*
X122059670Y-107659472D01*
X122102071Y-107722929D01*
X122353463Y-107890904D01*
X122575148Y-107935000D01*
X122575152Y-107935000D01*
X122649999Y-107949888D01*
X122724846Y-107935000D01*
X138346289Y-107935000D01*
X138588720Y-108177431D01*
X138969126Y-108335000D01*
X139380874Y-108335000D01*
X139740001Y-108186245D01*
X139740001Y-110802560D01*
X139650000Y-110802560D01*
X139402235Y-110851843D01*
X139192191Y-110992191D01*
X139051843Y-111202235D01*
X139031261Y-111305708D01*
X138726924Y-111028355D01*
X138316890Y-110858524D01*
X138087000Y-110979845D01*
X138087000Y-112173000D01*
X138107000Y-112173000D01*
X138107000Y-112427000D01*
X138087000Y-112427000D01*
X138087000Y-113620155D01*
X138316890Y-113741476D01*
X138726924Y-113571645D01*
X139031261Y-113294292D01*
X139051843Y-113397765D01*
X139192191Y-113607809D01*
X139402235Y-113748157D01*
X139650000Y-113797440D01*
X141350000Y-113797440D01*
X141597765Y-113748157D01*
X141807809Y-113607809D01*
X141817902Y-113592704D01*
X142659673Y-114434476D01*
X142702071Y-114497929D01*
X142765524Y-114540327D01*
X142765526Y-114540329D01*
X142890902Y-114624102D01*
X142953463Y-114665904D01*
X143175148Y-114710000D01*
X143175152Y-114710000D01*
X143249999Y-114724888D01*
X143324846Y-114710000D01*
X152837234Y-114710000D01*
X152912081Y-114724888D01*
X152986928Y-114710000D01*
X152986933Y-114710000D01*
X153208618Y-114665904D01*
X153460010Y-114497929D01*
X153502411Y-114434471D01*
X153944475Y-113992409D01*
X154007929Y-113950010D01*
X154050327Y-113886557D01*
X154050329Y-113886555D01*
X154175903Y-113698619D01*
X154175904Y-113698618D01*
X154219714Y-113478369D01*
X154530625Y-113270625D01*
X154545096Y-113248967D01*
X154611673Y-113409698D01*
X154790301Y-113588327D01*
X155023690Y-113685000D01*
X155714250Y-113685000D01*
X155873000Y-113526250D01*
X155873000Y-112327000D01*
X156127000Y-112327000D01*
X156127000Y-113526250D01*
X156285750Y-113685000D01*
X156976310Y-113685000D01*
X157209699Y-113588327D01*
X157388327Y-113409698D01*
X157485000Y-113176309D01*
X157485000Y-112485750D01*
X157326250Y-112327000D01*
X156127000Y-112327000D01*
X155873000Y-112327000D01*
X155853000Y-112327000D01*
X155853000Y-112073000D01*
X155873000Y-112073000D01*
X155873000Y-110873750D01*
X156127000Y-110873750D01*
X156127000Y-112073000D01*
X157326250Y-112073000D01*
X157485000Y-111914250D01*
X157485000Y-111223691D01*
X157388327Y-110990302D01*
X157209699Y-110811673D01*
X156976310Y-110715000D01*
X156285750Y-110715000D01*
X156127000Y-110873750D01*
X155873000Y-110873750D01*
X155714250Y-110715000D01*
X155023690Y-110715000D01*
X154790301Y-110811673D01*
X154611673Y-110990302D01*
X154545096Y-111151033D01*
X154530625Y-111129375D01*
X154039418Y-110801161D01*
X153606256Y-110715000D01*
X153313744Y-110715000D01*
X152880582Y-110801161D01*
X152389375Y-111129375D01*
X152190000Y-111427761D01*
X151990625Y-111129375D01*
X151680000Y-110921822D01*
X151680000Y-106575000D01*
X154702560Y-106575000D01*
X154702560Y-108275000D01*
X154751843Y-108522765D01*
X154892191Y-108732809D01*
X155102235Y-108873157D01*
X155350000Y-108922440D01*
X157050000Y-108922440D01*
X157297765Y-108873157D01*
X157507809Y-108732809D01*
X157648157Y-108522765D01*
X157657184Y-108477381D01*
X157669375Y-108495625D01*
X158160582Y-108823839D01*
X158593744Y-108910000D01*
X158886256Y-108910000D01*
X159319418Y-108823839D01*
X159810625Y-108495625D01*
X160138839Y-108004418D01*
X160254092Y-107425000D01*
X160138839Y-106845582D01*
X159810625Y-106354375D01*
X159319418Y-106026161D01*
X158886256Y-105940000D01*
X158593744Y-105940000D01*
X158160582Y-106026161D01*
X157669375Y-106354375D01*
X157657184Y-106372619D01*
X157648157Y-106327235D01*
X157507809Y-106117191D01*
X157297765Y-105976843D01*
X157050000Y-105927560D01*
X155350000Y-105927560D01*
X155102235Y-105976843D01*
X154892191Y-106117191D01*
X154751843Y-106327235D01*
X154702560Y-106575000D01*
X151680000Y-106575000D01*
X151680000Y-99644801D01*
X152338104Y-98986697D01*
X152065000Y-99646029D01*
X152065000Y-100753971D01*
X152488991Y-101777576D01*
X153272424Y-102561009D01*
X154296029Y-102985000D01*
X155403971Y-102985000D01*
X156427576Y-102561009D01*
X157211009Y-101777576D01*
X157635000Y-100753971D01*
X157635000Y-99646029D01*
X157211009Y-98622424D01*
X156427576Y-97838991D01*
X155633321Y-97510000D01*
X157112911Y-97510000D01*
X157136684Y-97567394D01*
X157542606Y-97973316D01*
X158072969Y-98193000D01*
X158647031Y-98193000D01*
X159177394Y-97973316D01*
X159583316Y-97567394D01*
X159803000Y-97037031D01*
X159803000Y-96462969D01*
X159583316Y-95932606D01*
X159177394Y-95526684D01*
X159064689Y-95480000D01*
X159177394Y-95433316D01*
X159583316Y-95027394D01*
X159803000Y-94497031D01*
X159803000Y-93922969D01*
X159583316Y-93392606D01*
X159177394Y-92986684D01*
X159064689Y-92940000D01*
X159177394Y-92893316D01*
X159583316Y-92487394D01*
X159803000Y-91957031D01*
X159803000Y-91382969D01*
X159583316Y-90852606D01*
X159177394Y-90446684D01*
X159064689Y-90400000D01*
X159177394Y-90353316D01*
X159583316Y-89947394D01*
X159803000Y-89417031D01*
X159803000Y-88842969D01*
X159583316Y-88312606D01*
X159177394Y-87906684D01*
X159064689Y-87860000D01*
X159177394Y-87813316D01*
X159583316Y-87407394D01*
X159803000Y-86877031D01*
X159803000Y-86302969D01*
X159583316Y-85772606D01*
X159177394Y-85366684D01*
X159064689Y-85320000D01*
X159177394Y-85273316D01*
X159583316Y-84867394D01*
X159803000Y-84337031D01*
X159803000Y-83762969D01*
X159583316Y-83232606D01*
X159177394Y-82826684D01*
X159064689Y-82780000D01*
X159177394Y-82733316D01*
X159583316Y-82327394D01*
X159803000Y-81797031D01*
X159803000Y-81222969D01*
X159583316Y-80692606D01*
X159177394Y-80286684D01*
X159064689Y-80240000D01*
X159177394Y-80193316D01*
X159583316Y-79787394D01*
X159803000Y-79257031D01*
X159803000Y-78682969D01*
X159583316Y-78152606D01*
X159177394Y-77746684D01*
X159064689Y-77700000D01*
X159177394Y-77653316D01*
X159583316Y-77247394D01*
X159803000Y-76717031D01*
X159803000Y-76142969D01*
X159583316Y-75612606D01*
X159177394Y-75206684D01*
X159064689Y-75160000D01*
X159177394Y-75113316D01*
X159583316Y-74707394D01*
X159803000Y-74177031D01*
X159803000Y-73602969D01*
X159583316Y-73072606D01*
X159177394Y-72666684D01*
X159064689Y-72620000D01*
X159177394Y-72573316D01*
X159583316Y-72167394D01*
X159803000Y-71637031D01*
X159803000Y-71062969D01*
X159583316Y-70532606D01*
X159177394Y-70126684D01*
X159064689Y-70080000D01*
X159177394Y-70033316D01*
X159583316Y-69627394D01*
X159803000Y-69097031D01*
X159803000Y-68522969D01*
X159583316Y-67992606D01*
X159177394Y-67586684D01*
X158647031Y-67367000D01*
X158072969Y-67367000D01*
X157542606Y-67586684D01*
X157535000Y-67594290D01*
X157535000Y-62649846D01*
X157549888Y-62574999D01*
X157535000Y-62500152D01*
X157535000Y-62500148D01*
X157490904Y-62278463D01*
X157322929Y-62027071D01*
X157259473Y-61984671D01*
X151335000Y-56060199D01*
X151335000Y-53196029D01*
X153215000Y-53196029D01*
X153215000Y-54303971D01*
X153638991Y-55327576D01*
X154422424Y-56111009D01*
X155446029Y-56535000D01*
X156553971Y-56535000D01*
X157577576Y-56111009D01*
X158361009Y-55327576D01*
X158785000Y-54303971D01*
X158785000Y-53196029D01*
X158361009Y-52172424D01*
X157577576Y-51388991D01*
X156553971Y-50965000D01*
X155446029Y-50965000D01*
X154422424Y-51388991D01*
X153638991Y-52172424D01*
X153215000Y-53196029D01*
X151335000Y-53196029D01*
X151335000Y-52124848D01*
X151349888Y-52050000D01*
X151335000Y-51975152D01*
X151335000Y-51975148D01*
X151290904Y-51753463D01*
X151290904Y-51753462D01*
X151165329Y-51565527D01*
X151122929Y-51502071D01*
X151059473Y-51459671D01*
X144615331Y-45015530D01*
X144572929Y-44952071D01*
X144321537Y-44784096D01*
X144099852Y-44740000D01*
X144099847Y-44740000D01*
X144025000Y-44725112D01*
X143950153Y-44740000D01*
X121932767Y-44740000D01*
X121857919Y-44725112D01*
X121783071Y-44740000D01*
X121783067Y-44740000D01*
X121609524Y-44774520D01*
X121561381Y-44784096D01*
X121374337Y-44909076D01*
X121309990Y-44952071D01*
X121267590Y-45015527D01*
X120075528Y-46207590D01*
X120012072Y-46249990D01*
X119844097Y-46501382D01*
X119829223Y-46576161D01*
X119800287Y-46721630D01*
X119489375Y-46929375D01*
X119276157Y-47248478D01*
X119215183Y-47118642D01*
X118786924Y-46728355D01*
X118376890Y-46558524D01*
X118147000Y-46679845D01*
X118147000Y-47873000D01*
X118167000Y-47873000D01*
X118167000Y-48127000D01*
X118147000Y-48127000D01*
X118147000Y-49320155D01*
X118376890Y-49441476D01*
X118786924Y-49271645D01*
X119215183Y-48881358D01*
X119276157Y-48751522D01*
X119489375Y-49070625D01*
X119980582Y-49398839D01*
X120413744Y-49485000D01*
X120706256Y-49485000D01*
X121139418Y-49398839D01*
X121630625Y-49070625D01*
X121642816Y-49052381D01*
X121651843Y-49097765D01*
X121792191Y-49307809D01*
X122002235Y-49448157D01*
X122250000Y-49497440D01*
X123950000Y-49497440D01*
X124197765Y-49448157D01*
X124407809Y-49307809D01*
X124548157Y-49097765D01*
X124597440Y-48850000D01*
X124597440Y-47150000D01*
X124548157Y-46902235D01*
X124407809Y-46692191D01*
X124197765Y-46551843D01*
X123950000Y-46502560D01*
X122250000Y-46502560D01*
X122002235Y-46551843D01*
X121792191Y-46692191D01*
X121651843Y-46902235D01*
X121642816Y-46947619D01*
X121630625Y-46929375D01*
X121554326Y-46878394D01*
X122172721Y-46260000D01*
X143710199Y-46260000D01*
X147165198Y-49715000D01*
X134232721Y-49715000D01*
X133614326Y-49096606D01*
X133690625Y-49045625D01*
X133890000Y-48747239D01*
X134089375Y-49045625D01*
X134580582Y-49373839D01*
X135013744Y-49460000D01*
X135306256Y-49460000D01*
X135739418Y-49373839D01*
X136230625Y-49045625D01*
X136245096Y-49023967D01*
X136311673Y-49184698D01*
X136490301Y-49363327D01*
X136723690Y-49460000D01*
X137414250Y-49460000D01*
X137573000Y-49301250D01*
X137573000Y-48102000D01*
X137827000Y-48102000D01*
X137827000Y-49301250D01*
X137985750Y-49460000D01*
X138676310Y-49460000D01*
X138909699Y-49363327D01*
X139088327Y-49184698D01*
X139185000Y-48951309D01*
X139185000Y-48260750D01*
X139026250Y-48102000D01*
X137827000Y-48102000D01*
X137573000Y-48102000D01*
X137553000Y-48102000D01*
X137553000Y-47848000D01*
X137573000Y-47848000D01*
X137573000Y-46648750D01*
X137827000Y-46648750D01*
X137827000Y-47848000D01*
X139026250Y-47848000D01*
X139185000Y-47689250D01*
X139185000Y-46998691D01*
X139088327Y-46765302D01*
X138909699Y-46586673D01*
X138676310Y-46490000D01*
X137985750Y-46490000D01*
X137827000Y-46648750D01*
X137573000Y-46648750D01*
X137414250Y-46490000D01*
X136723690Y-46490000D01*
X136490301Y-46586673D01*
X136311673Y-46765302D01*
X136245096Y-46926033D01*
X136230625Y-46904375D01*
X135739418Y-46576161D01*
X135306256Y-46490000D01*
X135013744Y-46490000D01*
X134580582Y-46576161D01*
X134089375Y-46904375D01*
X133890000Y-47202761D01*
X133690625Y-46904375D01*
X133199418Y-46576161D01*
X132766256Y-46490000D01*
X132473744Y-46490000D01*
X132040582Y-46576161D01*
X131549375Y-46904375D01*
X131221161Y-47395582D01*
X131105908Y-47975000D01*
X131221161Y-48554418D01*
X131549375Y-49045625D01*
X131860287Y-49253370D01*
X131904097Y-49473618D01*
X132072072Y-49725010D01*
X132135528Y-49767410D01*
X133327589Y-50959472D01*
X133369990Y-51022929D01*
X133433446Y-51065329D01*
X133621381Y-51190904D01*
X133669524Y-51200480D01*
X133843067Y-51235000D01*
X133843071Y-51235000D01*
X133917919Y-51249888D01*
X133992767Y-51235000D01*
X147460199Y-51235000D01*
X148965000Y-52739803D01*
X148965001Y-56550148D01*
X148950112Y-56625000D01*
X149009097Y-56921537D01*
X149122265Y-57090904D01*
X149177072Y-57172929D01*
X149240528Y-57215329D01*
X155115000Y-63089803D01*
X155115001Y-89110148D01*
X155100112Y-89185000D01*
X155159097Y-89481537D01*
X155271586Y-89649888D01*
X155327072Y-89732929D01*
X155390528Y-89775329D01*
X156940773Y-91325575D01*
X156917000Y-91382969D01*
X156917000Y-91957031D01*
X157136684Y-92487394D01*
X157542606Y-92893316D01*
X157655311Y-92940000D01*
X157542606Y-92986684D01*
X157136684Y-93392606D01*
X156917000Y-93922969D01*
X156917000Y-94497031D01*
X157136684Y-95027394D01*
X157542606Y-95433316D01*
X157655311Y-95480000D01*
X157542606Y-95526684D01*
X157136684Y-95932606D01*
X157112911Y-95990000D01*
X153574847Y-95990000D01*
X153500000Y-95975112D01*
X153425153Y-95990000D01*
X153425148Y-95990000D01*
X153203463Y-96034096D01*
X152952071Y-96202071D01*
X152909671Y-96265527D01*
X150435530Y-98739669D01*
X150372071Y-98782071D01*
X150204096Y-99033464D01*
X150160000Y-99255149D01*
X150160000Y-99255153D01*
X150145112Y-99330000D01*
X150160000Y-99404848D01*
X150160001Y-100305145D01*
X150160000Y-100305149D01*
X150160001Y-110845148D01*
X150160001Y-110921821D01*
X149849375Y-111129375D01*
X149650000Y-111427761D01*
X149450625Y-111129375D01*
X148959418Y-110801161D01*
X148526256Y-110715000D01*
X148233744Y-110715000D01*
X147800582Y-110801161D01*
X147309375Y-111129375D01*
X146981161Y-111620582D01*
X146865908Y-112200000D01*
X146981161Y-112779418D01*
X147255503Y-113190000D01*
X143564803Y-113190000D01*
X142190331Y-111815530D01*
X142147929Y-111752071D01*
X141997440Y-111651517D01*
X141997440Y-111450000D01*
X141948157Y-111202235D01*
X141807809Y-110992191D01*
X141597765Y-110851843D01*
X141350000Y-110802560D01*
X141260000Y-110802560D01*
X141260000Y-63724846D01*
X141274888Y-63649999D01*
X141260000Y-63575152D01*
X141260000Y-63575148D01*
X141215904Y-63353463D01*
X141173499Y-63290000D01*
X141090329Y-63165526D01*
X141090327Y-63165524D01*
X141047929Y-63102071D01*
X140984476Y-63059673D01*
X139459227Y-61534425D01*
X139483000Y-61477031D01*
X139483000Y-60902969D01*
X139263316Y-60372606D01*
X138857394Y-59966684D01*
X138744689Y-59920000D01*
X138857394Y-59873316D01*
X139263316Y-59467394D01*
X139483000Y-58937031D01*
X139483000Y-58362969D01*
X139263316Y-57832606D01*
X138857394Y-57426684D01*
X138327031Y-57207000D01*
X137752969Y-57207000D01*
X137222606Y-57426684D01*
X136816684Y-57832606D01*
X136597000Y-58362969D01*
X136597000Y-58937031D01*
X136816684Y-59467394D01*
X137222606Y-59873316D01*
X137335311Y-59920000D01*
X137222606Y-59966684D01*
X136816684Y-60372606D01*
X136597000Y-60902969D01*
X136597000Y-61477031D01*
X136816684Y-62007394D01*
X137222606Y-62413316D01*
X137335311Y-62460000D01*
X137222606Y-62506684D01*
X136816684Y-62912606D01*
X136597000Y-63442969D01*
X136597000Y-64017031D01*
X136816684Y-64547394D01*
X137222606Y-64953316D01*
X137319727Y-64993545D01*
X137281182Y-65009511D01*
X137206066Y-65256461D01*
X138040000Y-66090395D01*
X138873934Y-65256461D01*
X138798818Y-65009511D01*
X138757573Y-64994663D01*
X138857394Y-64953316D01*
X139263316Y-64547394D01*
X139483000Y-64017031D01*
X139483000Y-63707803D01*
X139740000Y-63964803D01*
X139740001Y-106413755D01*
X139380874Y-106265000D01*
X138969126Y-106265000D01*
X138606993Y-106415000D01*
X122964802Y-106415000D01*
X119860000Y-103310199D01*
X119860000Y-100709965D01*
X119902071Y-100772929D01*
X120153463Y-100940904D01*
X120375148Y-100985000D01*
X120375152Y-100985000D01*
X120449999Y-100999888D01*
X120524846Y-100985000D01*
X123725153Y-100985000D01*
X123800000Y-100999888D01*
X123874847Y-100985000D01*
X123874852Y-100985000D01*
X124096537Y-100940904D01*
X124347929Y-100772929D01*
X124390331Y-100709470D01*
X125489802Y-99610000D01*
X128146289Y-99610000D01*
X128263720Y-99727431D01*
X128644126Y-99885000D01*
X129055874Y-99885000D01*
X129436280Y-99727431D01*
X129727431Y-99436280D01*
X129885000Y-99055874D01*
X129885000Y-98644126D01*
X129727431Y-98263720D01*
X129436280Y-97972569D01*
X129055874Y-97815000D01*
X128644126Y-97815000D01*
X128263720Y-97972569D01*
X128146289Y-98090000D01*
X125249848Y-98090000D01*
X125175000Y-98075112D01*
X125100152Y-98090000D01*
X125100148Y-98090000D01*
X124926605Y-98124520D01*
X124878462Y-98134096D01*
X124802968Y-98184540D01*
X124627071Y-98302071D01*
X124584671Y-98365527D01*
X123485199Y-99465000D01*
X121985000Y-99465000D01*
X121985000Y-99094126D01*
X121827431Y-98713720D01*
X121760000Y-98646289D01*
X121760000Y-89844088D01*
X121919126Y-89910000D01*
X122330874Y-89910000D01*
X122711280Y-89752431D01*
X122828711Y-89635000D01*
X133575153Y-89635000D01*
X133650000Y-89649888D01*
X133724847Y-89635000D01*
X133724852Y-89635000D01*
X133946537Y-89590904D01*
X134197929Y-89422929D01*
X134240331Y-89359471D01*
X134534472Y-89065329D01*
X134597929Y-89022929D01*
X134765904Y-88771537D01*
X134810000Y-88549852D01*
X134810000Y-88549848D01*
X134824888Y-88475001D01*
X134810000Y-88400154D01*
X134810000Y-83564801D01*
X136597000Y-81777802D01*
X136597000Y-81797031D01*
X136816684Y-82327394D01*
X137222606Y-82733316D01*
X137335311Y-82780000D01*
X137222606Y-82826684D01*
X136816684Y-83232606D01*
X136597000Y-83762969D01*
X136597000Y-84337031D01*
X136816684Y-84867394D01*
X137222606Y-85273316D01*
X137335311Y-85320000D01*
X137222606Y-85366684D01*
X136816684Y-85772606D01*
X136597000Y-86302969D01*
X136597000Y-86877031D01*
X136816684Y-87407394D01*
X137222606Y-87813316D01*
X137335311Y-87860000D01*
X137222606Y-87906684D01*
X136816684Y-88312606D01*
X136597000Y-88842969D01*
X136597000Y-89417031D01*
X136816684Y-89947394D01*
X137222606Y-90353316D01*
X137335311Y-90400000D01*
X137222606Y-90446684D01*
X136816684Y-90852606D01*
X136597000Y-91382969D01*
X136597000Y-91957031D01*
X136816684Y-92487394D01*
X137222606Y-92893316D01*
X137335311Y-92940000D01*
X137222606Y-92986684D01*
X136816684Y-93392606D01*
X136597000Y-93922969D01*
X136597000Y-94497031D01*
X136816684Y-95027394D01*
X137222606Y-95433316D01*
X137335311Y-95480000D01*
X137222606Y-95526684D01*
X136816684Y-95932606D01*
X136597000Y-96462969D01*
X136597000Y-97037031D01*
X136816684Y-97567394D01*
X137222606Y-97973316D01*
X137752969Y-98193000D01*
X138327031Y-98193000D01*
X138857394Y-97973316D01*
X139263316Y-97567394D01*
X139483000Y-97037031D01*
X139483000Y-96462969D01*
X139263316Y-95932606D01*
X138857394Y-95526684D01*
X138744689Y-95480000D01*
X138857394Y-95433316D01*
X139263316Y-95027394D01*
X139483000Y-94497031D01*
X139483000Y-93922969D01*
X139263316Y-93392606D01*
X138857394Y-92986684D01*
X138744689Y-92940000D01*
X138857394Y-92893316D01*
X139263316Y-92487394D01*
X139483000Y-91957031D01*
X139483000Y-91382969D01*
X139263316Y-90852606D01*
X138857394Y-90446684D01*
X138744689Y-90400000D01*
X138857394Y-90353316D01*
X139263316Y-89947394D01*
X139483000Y-89417031D01*
X139483000Y-88842969D01*
X139263316Y-88312606D01*
X138857394Y-87906684D01*
X138744689Y-87860000D01*
X138857394Y-87813316D01*
X139263316Y-87407394D01*
X139483000Y-86877031D01*
X139483000Y-86302969D01*
X139263316Y-85772606D01*
X138857394Y-85366684D01*
X138744689Y-85320000D01*
X138857394Y-85273316D01*
X139263316Y-84867394D01*
X139483000Y-84337031D01*
X139483000Y-83762969D01*
X139263316Y-83232606D01*
X138857394Y-82826684D01*
X138744689Y-82780000D01*
X138857394Y-82733316D01*
X139263316Y-82327394D01*
X139483000Y-81797031D01*
X139483000Y-81222969D01*
X139263316Y-80692606D01*
X138857394Y-80286684D01*
X138744689Y-80240000D01*
X138857394Y-80193316D01*
X139263316Y-79787394D01*
X139483000Y-79257031D01*
X139483000Y-78682969D01*
X139263316Y-78152606D01*
X138857394Y-77746684D01*
X138744689Y-77700000D01*
X138857394Y-77653316D01*
X139263316Y-77247394D01*
X139483000Y-76717031D01*
X139483000Y-76142969D01*
X139263316Y-75612606D01*
X138857394Y-75206684D01*
X138744689Y-75160000D01*
X138857394Y-75113316D01*
X139263316Y-74707394D01*
X139483000Y-74177031D01*
X139483000Y-73602969D01*
X139263316Y-73072606D01*
X138857394Y-72666684D01*
X138744689Y-72620000D01*
X138857394Y-72573316D01*
X139263316Y-72167394D01*
X139483000Y-71637031D01*
X139483000Y-71062969D01*
X139263316Y-70532606D01*
X138857394Y-70126684D01*
X138744689Y-70080000D01*
X138857394Y-70033316D01*
X139263316Y-69627394D01*
X139483000Y-69097031D01*
X139483000Y-68522969D01*
X139263316Y-67992606D01*
X138857394Y-67586684D01*
X138760273Y-67546455D01*
X138798818Y-67530489D01*
X138873934Y-67283539D01*
X138040000Y-66449605D01*
X137206066Y-67283539D01*
X137281182Y-67530489D01*
X137322427Y-67545337D01*
X137222606Y-67586684D01*
X136816684Y-67992606D01*
X136597000Y-68522969D01*
X136597000Y-69097031D01*
X136816684Y-69627394D01*
X137222606Y-70033316D01*
X137335311Y-70080000D01*
X137222606Y-70126684D01*
X136816684Y-70532606D01*
X136792911Y-70590000D01*
X128364802Y-70590000D01*
X123826114Y-66051312D01*
X136585073Y-66051312D01*
X136612135Y-66624736D01*
X136779511Y-67028818D01*
X137026461Y-67103934D01*
X137860395Y-66270000D01*
X138219605Y-66270000D01*
X139053539Y-67103934D01*
X139300489Y-67028818D01*
X139494927Y-66488688D01*
X139467865Y-65915264D01*
X139300489Y-65511182D01*
X139053539Y-65436066D01*
X138219605Y-66270000D01*
X137860395Y-66270000D01*
X137026461Y-65436066D01*
X136779511Y-65511182D01*
X136585073Y-66051312D01*
X123826114Y-66051312D01*
X122060000Y-64285199D01*
X122060000Y-64119126D01*
X121902431Y-63738720D01*
X121611280Y-63447569D01*
X121230874Y-63290000D01*
X120819126Y-63290000D01*
X120760000Y-63314491D01*
X120760000Y-60109803D01*
X120834673Y-60184476D01*
X120877071Y-60247929D01*
X120940524Y-60290327D01*
X120940526Y-60290329D01*
X121063663Y-60372606D01*
X121128463Y-60415904D01*
X121350148Y-60460000D01*
X121350152Y-60460000D01*
X121424999Y-60474888D01*
X121499846Y-60460000D01*
X128896289Y-60460000D01*
X129013720Y-60577431D01*
X129394126Y-60735000D01*
X129805874Y-60735000D01*
X130186280Y-60577431D01*
X130477431Y-60286280D01*
X130635000Y-59905874D01*
X130635000Y-59494126D01*
X130477431Y-59113720D01*
X130186280Y-58822569D01*
X129805874Y-58665000D01*
X129394126Y-58665000D01*
X129013720Y-58822569D01*
X128896289Y-58940000D01*
X121739803Y-58940000D01*
X120719042Y-57919241D01*
X120715904Y-57903463D01*
X120547929Y-57652071D01*
X120296537Y-57484096D01*
X120117362Y-57448456D01*
X120135000Y-57405874D01*
X120135000Y-56994126D01*
X119977431Y-56613720D01*
X119686280Y-56322569D01*
X119305874Y-56165000D01*
X119065000Y-56165000D01*
X119065000Y-55884506D01*
X118854147Y-55375460D01*
X118464540Y-54985853D01*
X117955494Y-54775000D01*
X117404506Y-54775000D01*
X116895460Y-54985853D01*
X116505853Y-55375460D01*
X116309144Y-55850359D01*
X116175494Y-55795000D01*
X115624506Y-55795000D01*
X115115460Y-56005853D01*
X114725853Y-56395460D01*
X114515000Y-56904506D01*
X107535000Y-56904506D01*
X107535000Y-52940458D01*
X111100000Y-52940458D01*
X111100000Y-53839542D01*
X111444065Y-54670187D01*
X112079813Y-55305935D01*
X112910458Y-55650000D01*
X113809542Y-55650000D01*
X114640187Y-55305935D01*
X115275935Y-54670187D01*
X115620000Y-53839542D01*
X115620000Y-52940458D01*
X115275935Y-52109813D01*
X114640187Y-51474065D01*
X113809542Y-51130000D01*
X112910458Y-51130000D01*
X112079813Y-51474065D01*
X111444065Y-52109813D01*
X111100000Y-52940458D01*
X107535000Y-52940458D01*
X107535000Y-46946029D01*
X108515000Y-46946029D01*
X108515000Y-48053971D01*
X108938991Y-49077576D01*
X109722424Y-49861009D01*
X110746029Y-50285000D01*
X111853971Y-50285000D01*
X112877576Y-49861009D01*
X113661009Y-49077576D01*
X113959526Y-48356892D01*
X116578514Y-48356892D01*
X116824817Y-48881358D01*
X117253076Y-49271645D01*
X117663110Y-49441476D01*
X117893000Y-49320155D01*
X117893000Y-48127000D01*
X116699181Y-48127000D01*
X116578514Y-48356892D01*
X113959526Y-48356892D01*
X114085000Y-48053971D01*
X114085000Y-47643108D01*
X116578514Y-47643108D01*
X116699181Y-47873000D01*
X117893000Y-47873000D01*
X117893000Y-46679845D01*
X117663110Y-46558524D01*
X117253076Y-46728355D01*
X116824817Y-47118642D01*
X116578514Y-47643108D01*
X114085000Y-47643108D01*
X114085000Y-46946029D01*
X113661009Y-45922424D01*
X112877576Y-45138991D01*
X111853971Y-44715000D01*
X110746029Y-44715000D01*
X109722424Y-45138991D01*
X108938991Y-45922424D01*
X108515000Y-46946029D01*
X107535000Y-46946029D01*
X107535000Y-43735000D01*
X160865000Y-43735000D01*
X160865001Y-114965000D01*
X160865001Y-114965000D01*
G37*
X160865001Y-114965000D02*
X107535000Y-114965000D01*
X107535000Y-110646029D01*
X108515000Y-110646029D01*
X108515000Y-111753971D01*
X108938991Y-112777576D01*
X109722424Y-113561009D01*
X110746029Y-113985000D01*
X111853971Y-113985000D01*
X112877576Y-113561009D01*
X113661009Y-112777576D01*
X113858827Y-112300000D01*
X126285908Y-112300000D01*
X126401161Y-112879418D01*
X126729375Y-113370625D01*
X127220582Y-113698839D01*
X127653744Y-113785000D01*
X127946256Y-113785000D01*
X128379418Y-113698839D01*
X128870625Y-113370625D01*
X129070000Y-113072239D01*
X129269375Y-113370625D01*
X129760582Y-113698839D01*
X130193744Y-113785000D01*
X130486256Y-113785000D01*
X130919418Y-113698839D01*
X131410625Y-113370625D01*
X131610000Y-113072239D01*
X131809375Y-113370625D01*
X132300582Y-113698839D01*
X132733744Y-113785000D01*
X133026256Y-113785000D01*
X133459418Y-113698839D01*
X133950625Y-113370625D01*
X134150000Y-113072239D01*
X134349375Y-113370625D01*
X134840582Y-113698839D01*
X135273744Y-113785000D01*
X135566256Y-113785000D01*
X135999418Y-113698839D01*
X136490625Y-113370625D01*
X136703843Y-113051522D01*
X136764817Y-113181358D01*
X137193076Y-113571645D01*
X137603110Y-113741476D01*
X137833000Y-113620155D01*
X137833000Y-112427000D01*
X137813000Y-112427000D01*
X137813000Y-112173000D01*
X137833000Y-112173000D01*
X137833000Y-110979845D01*
X137603110Y-110858524D01*
X137193076Y-111028355D01*
X136764817Y-111418642D01*
X136703843Y-111548478D01*
X136490625Y-111229375D01*
X135999418Y-110901161D01*
X135566256Y-110815000D01*
X135273744Y-110815000D01*
X134840582Y-110901161D01*
X134349375Y-111229375D01*
X134150000Y-111527761D01*
X133950625Y-111229375D01*
X133459418Y-110901161D01*
X133026256Y-110815000D01*
X132733744Y-110815000D01*
X132300582Y-110901161D01*
X131809375Y-111229375D01*
X131610000Y-111527761D01*
X131410625Y-111229375D01*
X130919418Y-110901161D01*
X130486256Y-110815000D01*
X130193744Y-110815000D01*
X129760582Y-110901161D01*
X129269375Y-111229375D01*
X129070000Y-111527761D01*
X128870625Y-111229375D01*
X128379418Y-110901161D01*
X127946256Y-110815000D01*
X127653744Y-110815000D01*
X127220582Y-110901161D01*
X126729375Y-111229375D01*
X126401161Y-111720582D01*
X126285908Y-112300000D01*
X113858827Y-112300000D01*
X114085000Y-111753971D01*
X114085000Y-110646029D01*
X113661009Y-109622424D01*
X112877576Y-108838991D01*
X111853971Y-108415000D01*
X110746029Y-108415000D01*
X109722424Y-108838991D01*
X108938991Y-109622424D01*
X108515000Y-110646029D01*
X107535000Y-110646029D01*
X107535000Y-104840458D01*
X111100000Y-104840458D01*
X111100000Y-105739542D01*
X111444065Y-106570187D01*
X112079813Y-107205935D01*
X112910458Y-107550000D01*
X113809542Y-107550000D01*
X114640187Y-107205935D01*
X115275935Y-106570187D01*
X115620000Y-105739542D01*
X115620000Y-104840458D01*
X115275935Y-104009813D01*
X115151122Y-103885000D01*
X115614250Y-103885000D01*
X115773000Y-103726250D01*
X115773000Y-102627000D01*
X114673750Y-102627000D01*
X114515000Y-102785750D01*
X114515000Y-103322211D01*
X113809542Y-103030000D01*
X112910458Y-103030000D01*
X112079813Y-103374065D01*
X111444065Y-104009813D01*
X111100000Y-104840458D01*
X107535000Y-104840458D01*
X107535000Y-92140458D01*
X111100000Y-92140458D01*
X111100000Y-93039542D01*
X111444065Y-93870187D01*
X112079813Y-94505935D01*
X112910458Y-94850000D01*
X113809542Y-94850000D01*
X114640187Y-94505935D01*
X115275935Y-93870187D01*
X115620000Y-93039542D01*
X115620000Y-92140458D01*
X115275935Y-91309813D01*
X114640187Y-90674065D01*
X113809542Y-90330000D01*
X112910458Y-90330000D01*
X112079813Y-90674065D01*
X111444065Y-91309813D01*
X111100000Y-92140458D01*
X107535000Y-92140458D01*
X107535000Y-85340458D01*
X111100000Y-85340458D01*
X111100000Y-86239542D01*
X111444065Y-87070187D01*
X112079813Y-87705935D01*
X112910458Y-88050000D01*
X113809542Y-88050000D01*
X114640187Y-87705935D01*
X115275935Y-87070187D01*
X115620000Y-86239542D01*
X115620000Y-85340458D01*
X115275935Y-84509813D01*
X115151122Y-84385000D01*
X115614250Y-84385000D01*
X115773000Y-84226250D01*
X115773000Y-83127000D01*
X114673750Y-83127000D01*
X114515000Y-83285750D01*
X114515000Y-83822211D01*
X113809542Y-83530000D01*
X112910458Y-83530000D01*
X112079813Y-83874065D01*
X111444065Y-84509813D01*
X111100000Y-85340458D01*
X107535000Y-85340458D01*
X107535000Y-72640458D01*
X111100000Y-72640458D01*
X111100000Y-73539542D01*
X111444065Y-74370187D01*
X112079813Y-75005935D01*
X112910458Y-75350000D01*
X113809542Y-75350000D01*
X114640187Y-75005935D01*
X115275935Y-74370187D01*
X115620000Y-73539542D01*
X115620000Y-72640458D01*
X115275935Y-71809813D01*
X114640187Y-71174065D01*
X113809542Y-70830000D01*
X112910458Y-70830000D01*
X112079813Y-71174065D01*
X111444065Y-71809813D01*
X111100000Y-72640458D01*
X107535000Y-72640458D01*
X107535000Y-65640458D01*
X111100000Y-65640458D01*
X111100000Y-66539542D01*
X111444065Y-67370187D01*
X112079813Y-68005935D01*
X112910458Y-68350000D01*
X113809542Y-68350000D01*
X114640187Y-68005935D01*
X115275935Y-67370187D01*
X115620000Y-66539542D01*
X115620000Y-65640458D01*
X115275935Y-64809813D01*
X115151122Y-64685000D01*
X115614250Y-64685000D01*
X115773000Y-64526250D01*
X115773000Y-63427000D01*
X114673750Y-63427000D01*
X114515000Y-63585750D01*
X114515000Y-64122211D01*
X113809542Y-63830000D01*
X112910458Y-63830000D01*
X112079813Y-64174065D01*
X111444065Y-64809813D01*
X111100000Y-65640458D01*
X107535000Y-65640458D01*
X107535000Y-56904506D01*
X114515000Y-56904506D01*
X114515000Y-57455494D01*
X114725853Y-57964540D01*
X114961313Y-58200000D01*
X114725853Y-58435460D01*
X114515000Y-58944506D01*
X114515000Y-59495494D01*
X114725853Y-60004540D01*
X114961313Y-60240000D01*
X114725853Y-60475460D01*
X114515000Y-60984506D01*
X114515000Y-61535494D01*
X114725853Y-62044540D01*
X114741644Y-62060331D01*
X114611673Y-62190302D01*
X114515000Y-62423691D01*
X114515000Y-63014250D01*
X114673750Y-63173000D01*
X115773000Y-63173000D01*
X115773000Y-63153000D01*
X116027000Y-63153000D01*
X116027000Y-63173000D01*
X116047000Y-63173000D01*
X116047000Y-63427000D01*
X116027000Y-63427000D01*
X116027000Y-64526250D01*
X116185750Y-64685000D01*
X116776310Y-64685000D01*
X117009699Y-64588327D01*
X117188327Y-64409698D01*
X117285000Y-64176309D01*
X117285000Y-63615499D01*
X117404506Y-63665000D01*
X117955494Y-63665000D01*
X118340000Y-63505733D01*
X118340001Y-74634267D01*
X117955494Y-74475000D01*
X117404506Y-74475000D01*
X116895460Y-74685853D01*
X116505853Y-75075460D01*
X116309144Y-75550359D01*
X116175494Y-75495000D01*
X115624506Y-75495000D01*
X115115460Y-75705853D01*
X114725853Y-76095460D01*
X114515000Y-76604506D01*
X114515000Y-77155494D01*
X114725853Y-77664540D01*
X114961313Y-77900000D01*
X114725853Y-78135460D01*
X114515000Y-78644506D01*
X114515000Y-79195494D01*
X114725853Y-79704540D01*
X114961313Y-79940000D01*
X114725853Y-80175460D01*
X114515000Y-80684506D01*
X114515000Y-81235494D01*
X114725853Y-81744540D01*
X114741644Y-81760331D01*
X114611673Y-81890302D01*
X114515000Y-82123691D01*
X114515000Y-82714250D01*
X114673750Y-82873000D01*
X115773000Y-82873000D01*
X115773000Y-82853000D01*
X116027000Y-82853000D01*
X116027000Y-82873000D01*
X116047000Y-82873000D01*
X116047000Y-83127000D01*
X116027000Y-83127000D01*
X116027000Y-84226250D01*
X116185750Y-84385000D01*
X116776310Y-84385000D01*
X117009699Y-84288327D01*
X117188327Y-84109698D01*
X117285000Y-83876309D01*
X117285000Y-83315499D01*
X117404506Y-83365000D01*
X117955494Y-83365000D01*
X118340000Y-83205733D01*
X118340001Y-94134267D01*
X117955494Y-93975000D01*
X117404506Y-93975000D01*
X116895460Y-94185853D01*
X116505853Y-94575460D01*
X116309144Y-95050359D01*
X116175494Y-94995000D01*
X115624506Y-94995000D01*
X115115460Y-95205853D01*
X114725853Y-95595460D01*
X114515000Y-96104506D01*
X114515000Y-96655494D01*
X114725853Y-97164540D01*
X114961313Y-97400000D01*
X114725853Y-97635460D01*
X114515000Y-98144506D01*
X114515000Y-98695494D01*
X114725853Y-99204540D01*
X114961313Y-99440000D01*
X114725853Y-99675460D01*
X114515000Y-100184506D01*
X114515000Y-100735494D01*
X114725853Y-101244540D01*
X114741644Y-101260331D01*
X114611673Y-101390302D01*
X114515000Y-101623691D01*
X114515000Y-102214250D01*
X114673750Y-102373000D01*
X115773000Y-102373000D01*
X115773000Y-102353000D01*
X116027000Y-102353000D01*
X116027000Y-102373000D01*
X116047000Y-102373000D01*
X116047000Y-102627000D01*
X116027000Y-102627000D01*
X116027000Y-103726250D01*
X116185750Y-103885000D01*
X116776310Y-103885000D01*
X117009699Y-103788327D01*
X117188327Y-103609698D01*
X117285000Y-103376309D01*
X117285000Y-102815499D01*
X117404506Y-102865000D01*
X117955494Y-102865000D01*
X118340001Y-102705733D01*
X118340001Y-103425144D01*
X118340000Y-103425149D01*
X118340000Y-103550153D01*
X118325112Y-103625000D01*
X118340000Y-103699847D01*
X118340000Y-103699852D01*
X118384096Y-103921537D01*
X118552071Y-104172929D01*
X118615529Y-104215330D01*
X122059670Y-107659472D01*
X122102071Y-107722929D01*
X122353463Y-107890904D01*
X122575148Y-107935000D01*
X122575152Y-107935000D01*
X122649999Y-107949888D01*
X122724846Y-107935000D01*
X138346289Y-107935000D01*
X138588720Y-108177431D01*
X138969126Y-108335000D01*
X139380874Y-108335000D01*
X139740001Y-108186245D01*
X139740001Y-110802560D01*
X139650000Y-110802560D01*
X139402235Y-110851843D01*
X139192191Y-110992191D01*
X139051843Y-111202235D01*
X139031261Y-111305708D01*
X138726924Y-111028355D01*
X138316890Y-110858524D01*
X138087000Y-110979845D01*
X138087000Y-112173000D01*
X138107000Y-112173000D01*
X138107000Y-112427000D01*
X138087000Y-112427000D01*
X138087000Y-113620155D01*
X138316890Y-113741476D01*
X138726924Y-113571645D01*
X139031261Y-113294292D01*
X139051843Y-113397765D01*
X139192191Y-113607809D01*
X139402235Y-113748157D01*
X139650000Y-113797440D01*
X141350000Y-113797440D01*
X141597765Y-113748157D01*
X141807809Y-113607809D01*
X141817902Y-113592704D01*
X142659673Y-114434476D01*
X142702071Y-114497929D01*
X142765524Y-114540327D01*
X142765526Y-114540329D01*
X142890902Y-114624102D01*
X142953463Y-114665904D01*
X143175148Y-114710000D01*
X143175152Y-114710000D01*
X143249999Y-114724888D01*
X143324846Y-114710000D01*
X152837234Y-114710000D01*
X152912081Y-114724888D01*
X152986928Y-114710000D01*
X152986933Y-114710000D01*
X153208618Y-114665904D01*
X153460010Y-114497929D01*
X153502411Y-114434471D01*
X153944475Y-113992409D01*
X154007929Y-113950010D01*
X154050327Y-113886557D01*
X154050329Y-113886555D01*
X154175903Y-113698619D01*
X154175904Y-113698618D01*
X154219714Y-113478369D01*
X154530625Y-113270625D01*
X154545096Y-113248967D01*
X154611673Y-113409698D01*
X154790301Y-113588327D01*
X155023690Y-113685000D01*
X155714250Y-113685000D01*
X155873000Y-113526250D01*
X155873000Y-112327000D01*
X156127000Y-112327000D01*
X156127000Y-113526250D01*
X156285750Y-113685000D01*
X156976310Y-113685000D01*
X157209699Y-113588327D01*
X157388327Y-113409698D01*
X157485000Y-113176309D01*
X157485000Y-112485750D01*
X157326250Y-112327000D01*
X156127000Y-112327000D01*
X155873000Y-112327000D01*
X155853000Y-112327000D01*
X155853000Y-112073000D01*
X155873000Y-112073000D01*
X155873000Y-110873750D01*
X156127000Y-110873750D01*
X156127000Y-112073000D01*
X157326250Y-112073000D01*
X157485000Y-111914250D01*
X157485000Y-111223691D01*
X157388327Y-110990302D01*
X157209699Y-110811673D01*
X156976310Y-110715000D01*
X156285750Y-110715000D01*
X156127000Y-110873750D01*
X155873000Y-110873750D01*
X155714250Y-110715000D01*
X155023690Y-110715000D01*
X154790301Y-110811673D01*
X154611673Y-110990302D01*
X154545096Y-111151033D01*
X154530625Y-111129375D01*
X154039418Y-110801161D01*
X153606256Y-110715000D01*
X153313744Y-110715000D01*
X152880582Y-110801161D01*
X152389375Y-111129375D01*
X152190000Y-111427761D01*
X151990625Y-111129375D01*
X151680000Y-110921822D01*
X151680000Y-106575000D01*
X154702560Y-106575000D01*
X154702560Y-108275000D01*
X154751843Y-108522765D01*
X154892191Y-108732809D01*
X155102235Y-108873157D01*
X155350000Y-108922440D01*
X157050000Y-108922440D01*
X157297765Y-108873157D01*
X157507809Y-108732809D01*
X157648157Y-108522765D01*
X157657184Y-108477381D01*
X157669375Y-108495625D01*
X158160582Y-108823839D01*
X158593744Y-108910000D01*
X158886256Y-108910000D01*
X159319418Y-108823839D01*
X159810625Y-108495625D01*
X160138839Y-108004418D01*
X160254092Y-107425000D01*
X160138839Y-106845582D01*
X159810625Y-106354375D01*
X159319418Y-106026161D01*
X158886256Y-105940000D01*
X158593744Y-105940000D01*
X158160582Y-106026161D01*
X157669375Y-106354375D01*
X157657184Y-106372619D01*
X157648157Y-106327235D01*
X157507809Y-106117191D01*
X157297765Y-105976843D01*
X157050000Y-105927560D01*
X155350000Y-105927560D01*
X155102235Y-105976843D01*
X154892191Y-106117191D01*
X154751843Y-106327235D01*
X154702560Y-106575000D01*
X151680000Y-106575000D01*
X151680000Y-99644801D01*
X152338104Y-98986697D01*
X152065000Y-99646029D01*
X152065000Y-100753971D01*
X152488991Y-101777576D01*
X153272424Y-102561009D01*
X154296029Y-102985000D01*
X155403971Y-102985000D01*
X156427576Y-102561009D01*
X157211009Y-101777576D01*
X157635000Y-100753971D01*
X157635000Y-99646029D01*
X157211009Y-98622424D01*
X156427576Y-97838991D01*
X155633321Y-97510000D01*
X157112911Y-97510000D01*
X157136684Y-97567394D01*
X157542606Y-97973316D01*
X158072969Y-98193000D01*
X158647031Y-98193000D01*
X159177394Y-97973316D01*
X159583316Y-97567394D01*
X159803000Y-97037031D01*
X159803000Y-96462969D01*
X159583316Y-95932606D01*
X159177394Y-95526684D01*
X159064689Y-95480000D01*
X159177394Y-95433316D01*
X159583316Y-95027394D01*
X159803000Y-94497031D01*
X159803000Y-93922969D01*
X159583316Y-93392606D01*
X159177394Y-92986684D01*
X159064689Y-92940000D01*
X159177394Y-92893316D01*
X159583316Y-92487394D01*
X159803000Y-91957031D01*
X159803000Y-91382969D01*
X159583316Y-90852606D01*
X159177394Y-90446684D01*
X159064689Y-90400000D01*
X159177394Y-90353316D01*
X159583316Y-89947394D01*
X159803000Y-89417031D01*
X159803000Y-88842969D01*
X159583316Y-88312606D01*
X159177394Y-87906684D01*
X159064689Y-87860000D01*
X159177394Y-87813316D01*
X159583316Y-87407394D01*
X159803000Y-86877031D01*
X159803000Y-86302969D01*
X159583316Y-85772606D01*
X159177394Y-85366684D01*
X159064689Y-85320000D01*
X159177394Y-85273316D01*
X159583316Y-84867394D01*
X159803000Y-84337031D01*
X159803000Y-83762969D01*
X159583316Y-83232606D01*
X159177394Y-82826684D01*
X159064689Y-82780000D01*
X159177394Y-82733316D01*
X159583316Y-82327394D01*
X159803000Y-81797031D01*
X159803000Y-81222969D01*
X159583316Y-80692606D01*
X159177394Y-80286684D01*
X159064689Y-80240000D01*
X159177394Y-80193316D01*
X159583316Y-79787394D01*
X159803000Y-79257031D01*
X159803000Y-78682969D01*
X159583316Y-78152606D01*
X159177394Y-77746684D01*
X159064689Y-77700000D01*
X159177394Y-77653316D01*
X159583316Y-77247394D01*
X159803000Y-76717031D01*
X159803000Y-76142969D01*
X159583316Y-75612606D01*
X159177394Y-75206684D01*
X159064689Y-75160000D01*
X159177394Y-75113316D01*
X159583316Y-74707394D01*
X159803000Y-74177031D01*
X159803000Y-73602969D01*
X159583316Y-73072606D01*
X159177394Y-72666684D01*
X159064689Y-72620000D01*
X159177394Y-72573316D01*
X159583316Y-72167394D01*
X159803000Y-71637031D01*
X159803000Y-71062969D01*
X159583316Y-70532606D01*
X159177394Y-70126684D01*
X159064689Y-70080000D01*
X159177394Y-70033316D01*
X159583316Y-69627394D01*
X159803000Y-69097031D01*
X159803000Y-68522969D01*
X159583316Y-67992606D01*
X159177394Y-67586684D01*
X158647031Y-67367000D01*
X158072969Y-67367000D01*
X157542606Y-67586684D01*
X157535000Y-67594290D01*
X157535000Y-62649846D01*
X157549888Y-62574999D01*
X157535000Y-62500152D01*
X157535000Y-62500148D01*
X157490904Y-62278463D01*
X157322929Y-62027071D01*
X157259473Y-61984671D01*
X151335000Y-56060199D01*
X151335000Y-53196029D01*
X153215000Y-53196029D01*
X153215000Y-54303971D01*
X153638991Y-55327576D01*
X154422424Y-56111009D01*
X155446029Y-56535000D01*
X156553971Y-56535000D01*
X157577576Y-56111009D01*
X158361009Y-55327576D01*
X158785000Y-54303971D01*
X158785000Y-53196029D01*
X158361009Y-52172424D01*
X157577576Y-51388991D01*
X156553971Y-50965000D01*
X155446029Y-50965000D01*
X154422424Y-51388991D01*
X153638991Y-52172424D01*
X153215000Y-53196029D01*
X151335000Y-53196029D01*
X151335000Y-52124848D01*
X151349888Y-52050000D01*
X151335000Y-51975152D01*
X151335000Y-51975148D01*
X151290904Y-51753463D01*
X151290904Y-51753462D01*
X151165329Y-51565527D01*
X151122929Y-51502071D01*
X151059473Y-51459671D01*
X144615331Y-45015530D01*
X144572929Y-44952071D01*
X144321537Y-44784096D01*
X144099852Y-44740000D01*
X144099847Y-44740000D01*
X144025000Y-44725112D01*
X143950153Y-44740000D01*
X121932767Y-44740000D01*
X121857919Y-44725112D01*
X121783071Y-44740000D01*
X121783067Y-44740000D01*
X121609524Y-44774520D01*
X121561381Y-44784096D01*
X121374337Y-44909076D01*
X121309990Y-44952071D01*
X121267590Y-45015527D01*
X120075528Y-46207590D01*
X120012072Y-46249990D01*
X119844097Y-46501382D01*
X119829223Y-46576161D01*
X119800287Y-46721630D01*
X119489375Y-46929375D01*
X119276157Y-47248478D01*
X119215183Y-47118642D01*
X118786924Y-46728355D01*
X118376890Y-46558524D01*
X118147000Y-46679845D01*
X118147000Y-47873000D01*
X118167000Y-47873000D01*
X118167000Y-48127000D01*
X118147000Y-48127000D01*
X118147000Y-49320155D01*
X118376890Y-49441476D01*
X118786924Y-49271645D01*
X119215183Y-48881358D01*
X119276157Y-48751522D01*
X119489375Y-49070625D01*
X119980582Y-49398839D01*
X120413744Y-49485000D01*
X120706256Y-49485000D01*
X121139418Y-49398839D01*
X121630625Y-49070625D01*
X121642816Y-49052381D01*
X121651843Y-49097765D01*
X121792191Y-49307809D01*
X122002235Y-49448157D01*
X122250000Y-49497440D01*
X123950000Y-49497440D01*
X124197765Y-49448157D01*
X124407809Y-49307809D01*
X124548157Y-49097765D01*
X124597440Y-48850000D01*
X124597440Y-47150000D01*
X124548157Y-46902235D01*
X124407809Y-46692191D01*
X124197765Y-46551843D01*
X123950000Y-46502560D01*
X122250000Y-46502560D01*
X122002235Y-46551843D01*
X121792191Y-46692191D01*
X121651843Y-46902235D01*
X121642816Y-46947619D01*
X121630625Y-46929375D01*
X121554326Y-46878394D01*
X122172721Y-46260000D01*
X143710199Y-46260000D01*
X147165198Y-49715000D01*
X134232721Y-49715000D01*
X133614326Y-49096606D01*
X133690625Y-49045625D01*
X133890000Y-48747239D01*
X134089375Y-49045625D01*
X134580582Y-49373839D01*
X135013744Y-49460000D01*
X135306256Y-49460000D01*
X135739418Y-49373839D01*
X136230625Y-49045625D01*
X136245096Y-49023967D01*
X136311673Y-49184698D01*
X136490301Y-49363327D01*
X136723690Y-49460000D01*
X137414250Y-49460000D01*
X137573000Y-49301250D01*
X137573000Y-48102000D01*
X137827000Y-48102000D01*
X137827000Y-49301250D01*
X137985750Y-49460000D01*
X138676310Y-49460000D01*
X138909699Y-49363327D01*
X139088327Y-49184698D01*
X139185000Y-48951309D01*
X139185000Y-48260750D01*
X139026250Y-48102000D01*
X137827000Y-48102000D01*
X137573000Y-48102000D01*
X137553000Y-48102000D01*
X137553000Y-47848000D01*
X137573000Y-47848000D01*
X137573000Y-46648750D01*
X137827000Y-46648750D01*
X137827000Y-47848000D01*
X139026250Y-47848000D01*
X139185000Y-47689250D01*
X139185000Y-46998691D01*
X139088327Y-46765302D01*
X138909699Y-46586673D01*
X138676310Y-46490000D01*
X137985750Y-46490000D01*
X137827000Y-46648750D01*
X137573000Y-46648750D01*
X137414250Y-46490000D01*
X136723690Y-46490000D01*
X136490301Y-46586673D01*
X136311673Y-46765302D01*
X136245096Y-46926033D01*
X136230625Y-46904375D01*
X135739418Y-46576161D01*
X135306256Y-46490000D01*
X135013744Y-46490000D01*
X134580582Y-46576161D01*
X134089375Y-46904375D01*
X133890000Y-47202761D01*
X133690625Y-46904375D01*
X133199418Y-46576161D01*
X132766256Y-46490000D01*
X132473744Y-46490000D01*
X132040582Y-46576161D01*
X131549375Y-46904375D01*
X131221161Y-47395582D01*
X131105908Y-47975000D01*
X131221161Y-48554418D01*
X131549375Y-49045625D01*
X131860287Y-49253370D01*
X131904097Y-49473618D01*
X132072072Y-49725010D01*
X132135528Y-49767410D01*
X133327589Y-50959472D01*
X133369990Y-51022929D01*
X133433446Y-51065329D01*
X133621381Y-51190904D01*
X133669524Y-51200480D01*
X133843067Y-51235000D01*
X133843071Y-51235000D01*
X133917919Y-51249888D01*
X133992767Y-51235000D01*
X147460199Y-51235000D01*
X148965000Y-52739803D01*
X148965001Y-56550148D01*
X148950112Y-56625000D01*
X149009097Y-56921537D01*
X149122265Y-57090904D01*
X149177072Y-57172929D01*
X149240528Y-57215329D01*
X155115000Y-63089803D01*
X155115001Y-89110148D01*
X155100112Y-89185000D01*
X155159097Y-89481537D01*
X155271586Y-89649888D01*
X155327072Y-89732929D01*
X155390528Y-89775329D01*
X156940773Y-91325575D01*
X156917000Y-91382969D01*
X156917000Y-91957031D01*
X157136684Y-92487394D01*
X157542606Y-92893316D01*
X157655311Y-92940000D01*
X157542606Y-92986684D01*
X157136684Y-93392606D01*
X156917000Y-93922969D01*
X156917000Y-94497031D01*
X157136684Y-95027394D01*
X157542606Y-95433316D01*
X157655311Y-95480000D01*
X157542606Y-95526684D01*
X157136684Y-95932606D01*
X157112911Y-95990000D01*
X153574847Y-95990000D01*
X153500000Y-95975112D01*
X153425153Y-95990000D01*
X153425148Y-95990000D01*
X153203463Y-96034096D01*
X152952071Y-96202071D01*
X152909671Y-96265527D01*
X150435530Y-98739669D01*
X150372071Y-98782071D01*
X150204096Y-99033464D01*
X150160000Y-99255149D01*
X150160000Y-99255153D01*
X150145112Y-99330000D01*
X150160000Y-99404848D01*
X150160001Y-100305145D01*
X150160000Y-100305149D01*
X150160001Y-110845148D01*
X150160001Y-110921821D01*
X149849375Y-111129375D01*
X149650000Y-111427761D01*
X149450625Y-111129375D01*
X148959418Y-110801161D01*
X148526256Y-110715000D01*
X148233744Y-110715000D01*
X147800582Y-110801161D01*
X147309375Y-111129375D01*
X146981161Y-111620582D01*
X146865908Y-112200000D01*
X146981161Y-112779418D01*
X147255503Y-113190000D01*
X143564803Y-113190000D01*
X142190331Y-111815530D01*
X142147929Y-111752071D01*
X141997440Y-111651517D01*
X141997440Y-111450000D01*
X141948157Y-111202235D01*
X141807809Y-110992191D01*
X141597765Y-110851843D01*
X141350000Y-110802560D01*
X141260000Y-110802560D01*
X141260000Y-63724846D01*
X141274888Y-63649999D01*
X141260000Y-63575152D01*
X141260000Y-63575148D01*
X141215904Y-63353463D01*
X141173499Y-63290000D01*
X141090329Y-63165526D01*
X141090327Y-63165524D01*
X141047929Y-63102071D01*
X140984476Y-63059673D01*
X139459227Y-61534425D01*
X139483000Y-61477031D01*
X139483000Y-60902969D01*
X139263316Y-60372606D01*
X138857394Y-59966684D01*
X138744689Y-59920000D01*
X138857394Y-59873316D01*
X139263316Y-59467394D01*
X139483000Y-58937031D01*
X139483000Y-58362969D01*
X139263316Y-57832606D01*
X138857394Y-57426684D01*
X138327031Y-57207000D01*
X137752969Y-57207000D01*
X137222606Y-57426684D01*
X136816684Y-57832606D01*
X136597000Y-58362969D01*
X136597000Y-58937031D01*
X136816684Y-59467394D01*
X137222606Y-59873316D01*
X137335311Y-59920000D01*
X137222606Y-59966684D01*
X136816684Y-60372606D01*
X136597000Y-60902969D01*
X136597000Y-61477031D01*
X136816684Y-62007394D01*
X137222606Y-62413316D01*
X137335311Y-62460000D01*
X137222606Y-62506684D01*
X136816684Y-62912606D01*
X136597000Y-63442969D01*
X136597000Y-64017031D01*
X136816684Y-64547394D01*
X137222606Y-64953316D01*
X137319727Y-64993545D01*
X137281182Y-65009511D01*
X137206066Y-65256461D01*
X138040000Y-66090395D01*
X138873934Y-65256461D01*
X138798818Y-65009511D01*
X138757573Y-64994663D01*
X138857394Y-64953316D01*
X139263316Y-64547394D01*
X139483000Y-64017031D01*
X139483000Y-63707803D01*
X139740000Y-63964803D01*
X139740001Y-106413755D01*
X139380874Y-106265000D01*
X138969126Y-106265000D01*
X138606993Y-106415000D01*
X122964802Y-106415000D01*
X119860000Y-103310199D01*
X119860000Y-100709965D01*
X119902071Y-100772929D01*
X120153463Y-100940904D01*
X120375148Y-100985000D01*
X120375152Y-100985000D01*
X120449999Y-100999888D01*
X120524846Y-100985000D01*
X123725153Y-100985000D01*
X123800000Y-100999888D01*
X123874847Y-100985000D01*
X123874852Y-100985000D01*
X124096537Y-100940904D01*
X124347929Y-100772929D01*
X124390331Y-100709470D01*
X125489802Y-99610000D01*
X128146289Y-99610000D01*
X128263720Y-99727431D01*
X128644126Y-99885000D01*
X129055874Y-99885000D01*
X129436280Y-99727431D01*
X129727431Y-99436280D01*
X129885000Y-99055874D01*
X129885000Y-98644126D01*
X129727431Y-98263720D01*
X129436280Y-97972569D01*
X129055874Y-97815000D01*
X128644126Y-97815000D01*
X128263720Y-97972569D01*
X128146289Y-98090000D01*
X125249848Y-98090000D01*
X125175000Y-98075112D01*
X125100152Y-98090000D01*
X125100148Y-98090000D01*
X124926605Y-98124520D01*
X124878462Y-98134096D01*
X124802968Y-98184540D01*
X124627071Y-98302071D01*
X124584671Y-98365527D01*
X123485199Y-99465000D01*
X121985000Y-99465000D01*
X121985000Y-99094126D01*
X121827431Y-98713720D01*
X121760000Y-98646289D01*
X121760000Y-89844088D01*
X121919126Y-89910000D01*
X122330874Y-89910000D01*
X122711280Y-89752431D01*
X122828711Y-89635000D01*
X133575153Y-89635000D01*
X133650000Y-89649888D01*
X133724847Y-89635000D01*
X133724852Y-89635000D01*
X133946537Y-89590904D01*
X134197929Y-89422929D01*
X134240331Y-89359471D01*
X134534472Y-89065329D01*
X134597929Y-89022929D01*
X134765904Y-88771537D01*
X134810000Y-88549852D01*
X134810000Y-88549848D01*
X134824888Y-88475001D01*
X134810000Y-88400154D01*
X134810000Y-83564801D01*
X136597000Y-81777802D01*
X136597000Y-81797031D01*
X136816684Y-82327394D01*
X137222606Y-82733316D01*
X137335311Y-82780000D01*
X137222606Y-82826684D01*
X136816684Y-83232606D01*
X136597000Y-83762969D01*
X136597000Y-84337031D01*
X136816684Y-84867394D01*
X137222606Y-85273316D01*
X137335311Y-85320000D01*
X137222606Y-85366684D01*
X136816684Y-85772606D01*
X136597000Y-86302969D01*
X136597000Y-86877031D01*
X136816684Y-87407394D01*
X137222606Y-87813316D01*
X137335311Y-87860000D01*
X137222606Y-87906684D01*
X136816684Y-88312606D01*
X136597000Y-88842969D01*
X136597000Y-89417031D01*
X136816684Y-89947394D01*
X137222606Y-90353316D01*
X137335311Y-90400000D01*
X137222606Y-90446684D01*
X136816684Y-90852606D01*
X136597000Y-91382969D01*
X136597000Y-91957031D01*
X136816684Y-92487394D01*
X137222606Y-92893316D01*
X137335311Y-92940000D01*
X137222606Y-92986684D01*
X136816684Y-93392606D01*
X136597000Y-93922969D01*
X136597000Y-94497031D01*
X136816684Y-95027394D01*
X137222606Y-95433316D01*
X137335311Y-95480000D01*
X137222606Y-95526684D01*
X136816684Y-95932606D01*
X136597000Y-96462969D01*
X136597000Y-97037031D01*
X136816684Y-97567394D01*
X137222606Y-97973316D01*
X137752969Y-98193000D01*
X138327031Y-98193000D01*
X138857394Y-97973316D01*
X139263316Y-97567394D01*
X139483000Y-97037031D01*
X139483000Y-96462969D01*
X139263316Y-95932606D01*
X138857394Y-95526684D01*
X138744689Y-95480000D01*
X138857394Y-95433316D01*
X139263316Y-95027394D01*
X139483000Y-94497031D01*
X139483000Y-93922969D01*
X139263316Y-93392606D01*
X138857394Y-92986684D01*
X138744689Y-92940000D01*
X138857394Y-92893316D01*
X139263316Y-92487394D01*
X139483000Y-91957031D01*
X139483000Y-91382969D01*
X139263316Y-90852606D01*
X138857394Y-90446684D01*
X138744689Y-90400000D01*
X138857394Y-90353316D01*
X139263316Y-89947394D01*
X139483000Y-89417031D01*
X139483000Y-88842969D01*
X139263316Y-88312606D01*
X138857394Y-87906684D01*
X138744689Y-87860000D01*
X138857394Y-87813316D01*
X139263316Y-87407394D01*
X139483000Y-86877031D01*
X139483000Y-86302969D01*
X139263316Y-85772606D01*
X138857394Y-85366684D01*
X138744689Y-85320000D01*
X138857394Y-85273316D01*
X139263316Y-84867394D01*
X139483000Y-84337031D01*
X139483000Y-83762969D01*
X139263316Y-83232606D01*
X138857394Y-82826684D01*
X138744689Y-82780000D01*
X138857394Y-82733316D01*
X139263316Y-82327394D01*
X139483000Y-81797031D01*
X139483000Y-81222969D01*
X139263316Y-80692606D01*
X138857394Y-80286684D01*
X138744689Y-80240000D01*
X138857394Y-80193316D01*
X139263316Y-79787394D01*
X139483000Y-79257031D01*
X139483000Y-78682969D01*
X139263316Y-78152606D01*
X138857394Y-77746684D01*
X138744689Y-77700000D01*
X138857394Y-77653316D01*
X139263316Y-77247394D01*
X139483000Y-76717031D01*
X139483000Y-76142969D01*
X139263316Y-75612606D01*
X138857394Y-75206684D01*
X138744689Y-75160000D01*
X138857394Y-75113316D01*
X139263316Y-74707394D01*
X139483000Y-74177031D01*
X139483000Y-73602969D01*
X139263316Y-73072606D01*
X138857394Y-72666684D01*
X138744689Y-72620000D01*
X138857394Y-72573316D01*
X139263316Y-72167394D01*
X139483000Y-71637031D01*
X139483000Y-71062969D01*
X139263316Y-70532606D01*
X138857394Y-70126684D01*
X138744689Y-70080000D01*
X138857394Y-70033316D01*
X139263316Y-69627394D01*
X139483000Y-69097031D01*
X139483000Y-68522969D01*
X139263316Y-67992606D01*
X138857394Y-67586684D01*
X138760273Y-67546455D01*
X138798818Y-67530489D01*
X138873934Y-67283539D01*
X138040000Y-66449605D01*
X137206066Y-67283539D01*
X137281182Y-67530489D01*
X137322427Y-67545337D01*
X137222606Y-67586684D01*
X136816684Y-67992606D01*
X136597000Y-68522969D01*
X136597000Y-69097031D01*
X136816684Y-69627394D01*
X137222606Y-70033316D01*
X137335311Y-70080000D01*
X137222606Y-70126684D01*
X136816684Y-70532606D01*
X136792911Y-70590000D01*
X128364802Y-70590000D01*
X123826114Y-66051312D01*
X136585073Y-66051312D01*
X136612135Y-66624736D01*
X136779511Y-67028818D01*
X137026461Y-67103934D01*
X137860395Y-66270000D01*
X138219605Y-66270000D01*
X139053539Y-67103934D01*
X139300489Y-67028818D01*
X139494927Y-66488688D01*
X139467865Y-65915264D01*
X139300489Y-65511182D01*
X139053539Y-65436066D01*
X138219605Y-66270000D01*
X137860395Y-66270000D01*
X137026461Y-65436066D01*
X136779511Y-65511182D01*
X136585073Y-66051312D01*
X123826114Y-66051312D01*
X122060000Y-64285199D01*
X122060000Y-64119126D01*
X121902431Y-63738720D01*
X121611280Y-63447569D01*
X121230874Y-63290000D01*
X120819126Y-63290000D01*
X120760000Y-63314491D01*
X120760000Y-60109803D01*
X120834673Y-60184476D01*
X120877071Y-60247929D01*
X120940524Y-60290327D01*
X120940526Y-60290329D01*
X121063663Y-60372606D01*
X121128463Y-60415904D01*
X121350148Y-60460000D01*
X121350152Y-60460000D01*
X121424999Y-60474888D01*
X121499846Y-60460000D01*
X128896289Y-60460000D01*
X129013720Y-60577431D01*
X129394126Y-60735000D01*
X129805874Y-60735000D01*
X130186280Y-60577431D01*
X130477431Y-60286280D01*
X130635000Y-59905874D01*
X130635000Y-59494126D01*
X130477431Y-59113720D01*
X130186280Y-58822569D01*
X129805874Y-58665000D01*
X129394126Y-58665000D01*
X129013720Y-58822569D01*
X128896289Y-58940000D01*
X121739803Y-58940000D01*
X120719042Y-57919241D01*
X120715904Y-57903463D01*
X120547929Y-57652071D01*
X120296537Y-57484096D01*
X120117362Y-57448456D01*
X120135000Y-57405874D01*
X120135000Y-56994126D01*
X119977431Y-56613720D01*
X119686280Y-56322569D01*
X119305874Y-56165000D01*
X119065000Y-56165000D01*
X119065000Y-55884506D01*
X118854147Y-55375460D01*
X118464540Y-54985853D01*
X117955494Y-54775000D01*
X117404506Y-54775000D01*
X116895460Y-54985853D01*
X116505853Y-55375460D01*
X116309144Y-55850359D01*
X116175494Y-55795000D01*
X115624506Y-55795000D01*
X115115460Y-56005853D01*
X114725853Y-56395460D01*
X114515000Y-56904506D01*
X107535000Y-56904506D01*
X107535000Y-52940458D01*
X111100000Y-52940458D01*
X111100000Y-53839542D01*
X111444065Y-54670187D01*
X112079813Y-55305935D01*
X112910458Y-55650000D01*
X113809542Y-55650000D01*
X114640187Y-55305935D01*
X115275935Y-54670187D01*
X115620000Y-53839542D01*
X115620000Y-52940458D01*
X115275935Y-52109813D01*
X114640187Y-51474065D01*
X113809542Y-51130000D01*
X112910458Y-51130000D01*
X112079813Y-51474065D01*
X111444065Y-52109813D01*
X111100000Y-52940458D01*
X107535000Y-52940458D01*
X107535000Y-46946029D01*
X108515000Y-46946029D01*
X108515000Y-48053971D01*
X108938991Y-49077576D01*
X109722424Y-49861009D01*
X110746029Y-50285000D01*
X111853971Y-50285000D01*
X112877576Y-49861009D01*
X113661009Y-49077576D01*
X113959526Y-48356892D01*
X116578514Y-48356892D01*
X116824817Y-48881358D01*
X117253076Y-49271645D01*
X117663110Y-49441476D01*
X117893000Y-49320155D01*
X117893000Y-48127000D01*
X116699181Y-48127000D01*
X116578514Y-48356892D01*
X113959526Y-48356892D01*
X114085000Y-48053971D01*
X114085000Y-47643108D01*
X116578514Y-47643108D01*
X116699181Y-47873000D01*
X117893000Y-47873000D01*
X117893000Y-46679845D01*
X117663110Y-46558524D01*
X117253076Y-46728355D01*
X116824817Y-47118642D01*
X116578514Y-47643108D01*
X114085000Y-47643108D01*
X114085000Y-46946029D01*
X113661009Y-45922424D01*
X112877576Y-45138991D01*
X111853971Y-44715000D01*
X110746029Y-44715000D01*
X109722424Y-45138991D01*
X108938991Y-45922424D01*
X108515000Y-46946029D01*
X107535000Y-46946029D01*
X107535000Y-43735000D01*
X160865000Y-43735000D01*
X160865001Y-114965000D01*
M02*
