(module FeatherWing (layer F.Cu) (tedit 5BEA1E3A)
  (fp_text reference J4 (at 19.05 8.636) (layer F.Fab)
    (effects (font (size 0.6 0.6) (thickness 0.1)))
  )
  (fp_text value FEATHER (at 0 0) (layer F.Fab)
    (effects (font (size 0.6 0.5) (thickness 0.1)))
  )
  (fp_text user %R (at 20.32 8.89) (layer F.Fab)
    (effects (font (size 0.3 0.3) (thickness 0.03)))
  )
  (pad 17 thru_hole circle (at -8.89 -10.16) (size 1.616 1.616) (drill 1.016) (layers *.Cu *.Mask))
  (pad 18 thru_hole circle (at -6.35 -10.16) (size 1.616 1.616) (drill 1.016) (layers *.Cu *.Mask))
  (pad 19 thru_hole circle (at -3.81 -10.16) (size 1.616 1.616) (drill 1.016) (layers *.Cu *.Mask))
  (pad 20 thru_hole circle (at -1.27 -10.16) (size 1.616 1.616) (drill 1.016) (layers *.Cu *.Mask))
  (pad 21 thru_hole circle (at 1.27 -10.16) (size 1.616 1.616) (drill 1.016) (layers *.Cu *.Mask))
  (pad 22 thru_hole circle (at 3.81 -10.16) (size 1.616 1.616) (drill 1.016) (layers *.Cu *.Mask))
  (pad 23 thru_hole circle (at 6.35 -10.16) (size 1.616 1.616) (drill 1.016) (layers *.Cu *.Mask))
  (pad 24 thru_hole circle (at 8.89 -10.16) (size 1.616 1.616) (drill 1.016) (layers *.Cu *.Mask))
  (pad 25 thru_hole circle (at 11.43 -10.16) (size 1.616 1.616) (drill 1.016) (layers *.Cu *.Mask))
  (pad 26 thru_hole circle (at 13.97 -10.16) (size 1.616 1.616) (drill 1.016) (layers *.Cu *.Mask))
  (pad 27 thru_hole circle (at 16.51 -10.16) (size 1.616 1.616) (drill 1.016) (layers *.Cu *.Mask))
  (pad 28 thru_hole circle (at 19.05 -10.16) (size 1.616 1.616) (drill 1.016) (layers *.Cu *.Mask))
  (pad 1 thru_hole circle (at -19.05 10.16) (size 1.616 1.616) (drill 1.016) (layers *.Cu *.Mask))
  (pad 2 thru_hole circle (at -16.51 10.16) (size 1.616 1.616) (drill 1.016) (layers *.Cu *.Mask))
  (pad 3 thru_hole circle (at -13.97 10.16) (size 1.616 1.616) (drill 1.016) (layers *.Cu *.Mask))
  (pad 4 thru_hole circle (at -11.43 10.16) (size 1.616 1.616) (drill 1.016) (layers *.Cu *.Mask))
  (pad 5 thru_hole circle (at -8.89 10.16) (size 1.616 1.616) (drill 1.016) (layers *.Cu *.Mask))
  (pad 6 thru_hole circle (at -6.35 10.16) (size 1.616 1.616) (drill 1.016) (layers *.Cu *.Mask))
  (pad 7 thru_hole circle (at -3.81 10.16) (size 1.616 1.616) (drill 1.016) (layers *.Cu *.Mask))
  (pad 8 thru_hole circle (at -1.27 10.16) (size 1.616 1.616) (drill 1.016) (layers *.Cu *.Mask))
  (pad 9 thru_hole circle (at 1.27 10.16) (size 1.616 1.616) (drill 1.016) (layers *.Cu *.Mask))
  (pad 10 thru_hole circle (at 3.81 10.16) (size 1.616 1.616) (drill 1.016) (layers *.Cu *.Mask))
  (pad 11 thru_hole circle (at 6.35 10.16) (size 1.616 1.616) (drill 1.016) (layers *.Cu *.Mask))
  (pad 12 thru_hole circle (at 8.89 10.16) (size 1.616 1.616) (drill 1.016) (layers *.Cu *.Mask))
  (pad 13 thru_hole circle (at 11.43 10.16) (size 1.616 1.616) (drill 1.016) (layers *.Cu *.Mask))
  (pad 14 thru_hole circle (at 13.97 10.16) (size 1.616 1.616) (drill 1.016) (layers *.Cu *.Mask))
  (pad 16 thru_hole circle (at 19.05 10.16) (size 1.616 1.616) (drill 1.016) (layers *.Cu *.Mask))
  (pad 15 thru_hole circle (at 16.51 10.16) (size 1.616 1.616) (drill 1.016) (layers *.Cu *.Mask))
)
